<?xml version="1.0"?>

<svg xmlns="http://www.w3.org/2000/svg" xmlns:xlink="http://www.w3.org/1999/xlink" width="401" height="152" viewBox="0 0 401 152" version="1.1">
<defs>
<g>
<symbol overflow="visible" id="glyph0-0">
<path style="stroke:none;" d="M 1.5625 0 L 1.5625 -7.796875 L 7.796875 -7.796875 L 7.796875 0 Z M 1.75 -0.1875 L 7.609375 -0.1875 L 7.609375 -7.609375 L 1.75 -7.609375 Z M 1.75 -0.1875 "></path>
</symbol>
<symbol overflow="visible" id="glyph0-1">
<path style="stroke:none;" d="M 0.796875 0 L 0.796875 -8.9375 L 1.890625 -8.9375 L 1.890625 0 Z M 0.796875 0 "></path>
</symbol>
<symbol overflow="visible" id="glyph0-2">
<path style="stroke:none;" d="M 5.25 -2.078125 L 6.390625 -1.9375 C 6.210938 -1.28125 5.878906 -0.769531 5.390625 -0.40625 C 4.910156 -0.0390625 4.296875 0.140625 3.546875 0.140625 C 2.597656 0.140625 1.84375 -0.148438 1.28125 -0.734375 C 0.726562 -1.316406 0.453125 -2.132812 0.453125 -3.1875 C 0.453125 -4.269531 0.734375 -5.113281 1.296875 -5.71875 C 1.859375 -6.320312 2.585938 -6.625 3.484375 -6.625 C 4.347656 -6.625 5.050781 -6.328125 5.59375 -5.734375 C 6.144531 -5.148438 6.421875 -4.320312 6.421875 -3.25 C 6.421875 -3.1875 6.421875 -3.085938 6.421875 -2.953125 L 1.59375 -2.953125 C 1.632812 -2.242188 1.832031 -1.695312 2.1875 -1.3125 C 2.550781 -0.9375 3.003906 -0.75 3.546875 -0.75 C 3.953125 -0.75 4.296875 -0.851562 4.578125 -1.0625 C 4.859375 -1.28125 5.082031 -1.617188 5.25 -2.078125 Z M 1.65625 -3.859375 L 5.265625 -3.859375 C 5.210938 -4.398438 5.078125 -4.804688 4.859375 -5.078125 C 4.503906 -5.503906 4.050781 -5.71875 3.5 -5.71875 C 2.988281 -5.71875 2.5625 -5.546875 2.21875 -5.203125 C 1.875 -4.867188 1.6875 -4.421875 1.65625 -3.859375 Z M 1.65625 -3.859375 "></path>
</symbol>
<symbol overflow="visible" id="glyph0-3">
<path style="stroke:none;" d="M 1.078125 0 L 1.078125 -5.625 L 0.109375 -5.625 L 0.109375 -6.46875 L 1.078125 -6.46875 L 1.078125 -7.15625 C 1.078125 -7.59375 1.117188 -7.914062 1.203125 -8.125 C 1.304688 -8.414062 1.488281 -8.648438 1.75 -8.828125 C 2.019531 -9.003906 2.394531 -9.09375 2.875 -9.09375 C 3.1875 -9.09375 3.53125 -9.054688 3.90625 -8.984375 L 3.734375 -8.015625 C 3.503906 -8.054688 3.289062 -8.078125 3.09375 -8.078125 C 2.757812 -8.078125 2.519531 -8.003906 2.375 -7.859375 C 2.238281 -7.722656 2.171875 -7.460938 2.171875 -7.078125 L 2.171875 -6.46875 L 3.4375 -6.46875 L 3.4375 -5.625 L 2.171875 -5.625 L 2.171875 0 Z M 1.078125 0 "></path>
</symbol>
<symbol overflow="visible" id="glyph0-4">
<path style="stroke:none;" d="M 3.21875 -0.984375 L 3.375 -0.015625 C 3.0625 0.046875 2.785156 0.078125 2.546875 0.078125 C 2.148438 0.078125 1.84375 0.015625 1.625 -0.109375 C 1.40625 -0.234375 1.25 -0.394531 1.15625 -0.59375 C 1.070312 -0.800781 1.03125 -1.234375 1.03125 -1.890625 L 1.03125 -5.625 L 0.21875 -5.625 L 0.21875 -6.46875 L 1.03125 -6.46875 L 1.03125 -8.078125 L 2.109375 -8.734375 L 2.109375 -6.46875 L 3.21875 -6.46875 L 3.21875 -5.625 L 2.109375 -5.625 L 2.109375 -1.828125 C 2.109375 -1.515625 2.128906 -1.3125 2.171875 -1.21875 C 2.210938 -1.132812 2.273438 -1.066406 2.359375 -1.015625 C 2.453125 -0.960938 2.578125 -0.9375 2.734375 -0.9375 C 2.859375 -0.9375 3.019531 -0.953125 3.21875 -0.984375 Z M 3.21875 -0.984375 "></path>
</symbol>
<symbol overflow="visible" id="glyph0-5">
<path style="stroke:none;" d=""></path>
</symbol>
<symbol overflow="visible" id="glyph0-6">
<path style="stroke:none;" d="M 5.0625 0 L 5.0625 -0.953125 C 4.5625 -0.222656 3.878906 0.140625 3.015625 0.140625 C 2.628906 0.140625 2.269531 0.0664062 1.9375 -0.078125 C 1.601562 -0.222656 1.359375 -0.40625 1.203125 -0.625 C 1.046875 -0.84375 0.929688 -1.113281 0.859375 -1.4375 C 0.816406 -1.65625 0.796875 -2 0.796875 -2.46875 L 0.796875 -6.46875 L 1.890625 -6.46875 L 1.890625 -2.890625 C 1.890625 -2.316406 1.914062 -1.925781 1.96875 -1.71875 C 2.03125 -1.4375 2.171875 -1.210938 2.390625 -1.046875 C 2.617188 -0.878906 2.898438 -0.796875 3.234375 -0.796875 C 3.554688 -0.796875 3.863281 -0.878906 4.15625 -1.046875 C 4.445312 -1.210938 4.648438 -1.441406 4.765625 -1.734375 C 4.890625 -2.023438 4.953125 -2.445312 4.953125 -3 L 4.953125 -6.46875 L 6.046875 -6.46875 L 6.046875 0 Z M 5.0625 0 "></path>
</symbol>
<symbol overflow="visible" id="glyph0-7">
<path style="stroke:none;" d="M 0.8125 0 L 0.8125 -6.46875 L 1.796875 -6.46875 L 1.796875 -5.5 C 2.046875 -5.957031 2.273438 -6.257812 2.484375 -6.40625 C 2.703125 -6.550781 2.941406 -6.625 3.203125 -6.625 C 3.566406 -6.625 3.941406 -6.503906 4.328125 -6.265625 L 3.953125 -5.25 C 3.679688 -5.40625 3.410156 -5.484375 3.140625 -5.484375 C 2.898438 -5.484375 2.6875 -5.410156 2.5 -5.265625 C 2.3125 -5.117188 2.175781 -4.921875 2.09375 -4.671875 C 1.96875 -4.273438 1.90625 -3.847656 1.90625 -3.390625 L 1.90625 0 Z M 0.8125 0 "></path>
</symbol>
<symbol overflow="visible" id="glyph0-8">
<path style="stroke:none;" d="M 0.828125 0 L 0.828125 -6.46875 L 1.8125 -6.46875 L 1.8125 -5.546875 C 2.289062 -6.265625 2.976562 -6.625 3.875 -6.625 C 4.257812 -6.625 4.613281 -6.550781 4.9375 -6.40625 C 5.269531 -6.269531 5.515625 -6.085938 5.671875 -5.859375 C 5.835938 -5.628906 5.953125 -5.359375 6.015625 -5.046875 C 6.054688 -4.847656 6.078125 -4.492188 6.078125 -3.984375 L 6.078125 0 L 4.984375 0 L 4.984375 -3.9375 C 4.984375 -4.382812 4.941406 -4.71875 4.859375 -4.9375 C 4.773438 -5.15625 4.625 -5.332031 4.40625 -5.46875 C 4.1875 -5.601562 3.929688 -5.671875 3.640625 -5.671875 C 3.171875 -5.671875 2.765625 -5.519531 2.421875 -5.21875 C 2.085938 -4.925781 1.921875 -4.363281 1.921875 -3.53125 L 1.921875 0 Z M 0.828125 0 "></path>
</symbol>
<symbol overflow="visible" id="glyph0-9">
<path style="stroke:none;" d="M 0.828125 -7.671875 L 0.828125 -8.9375 L 1.921875 -8.9375 L 1.921875 -7.671875 Z M 0.828125 0 L 0.828125 -6.46875 L 1.921875 -6.46875 L 1.921875 0 Z M 0.828125 0 "></path>
</symbol>
<symbol overflow="visible" id="glyph0-10">
<path style="stroke:none;" d="M 0.625 0.53125 L 1.6875 0.6875 C 1.726562 1.019531 1.851562 1.265625 2.0625 1.421875 C 2.332031 1.617188 2.703125 1.71875 3.171875 1.71875 C 3.679688 1.71875 4.070312 1.613281 4.34375 1.40625 C 4.625 1.207031 4.8125 0.925781 4.90625 0.5625 C 4.96875 0.332031 5 -0.132812 5 -0.84375 C 4.507812 -0.28125 3.910156 0 3.203125 0 C 2.304688 0 1.613281 -0.316406 1.125 -0.953125 C 0.644531 -1.597656 0.40625 -2.375 0.40625 -3.28125 C 0.40625 -3.894531 0.515625 -4.460938 0.734375 -4.984375 C 0.960938 -5.503906 1.285156 -5.90625 1.703125 -6.1875 C 2.128906 -6.476562 2.628906 -6.625 3.203125 -6.625 C 3.972656 -6.625 4.601562 -6.3125 5.09375 -5.6875 L 5.09375 -6.46875 L 6.109375 -6.46875 L 6.109375 -0.875 C 6.109375 0.132812 6.003906 0.847656 5.796875 1.265625 C 5.597656 1.679688 5.273438 2.007812 4.828125 2.25 C 4.378906 2.5 3.832031 2.625 3.1875 2.625 C 2.414062 2.625 1.789062 2.445312 1.3125 2.09375 C 0.832031 1.75 0.601562 1.226562 0.625 0.53125 Z M 1.53125 -3.359375 C 1.53125 -2.503906 1.695312 -1.878906 2.03125 -1.484375 C 2.375 -1.097656 2.796875 -0.90625 3.296875 -0.90625 C 3.804688 -0.90625 4.226562 -1.097656 4.5625 -1.484375 C 4.90625 -1.878906 5.078125 -2.488281 5.078125 -3.3125 C 5.078125 -4.101562 4.898438 -4.703125 4.546875 -5.109375 C 4.203125 -5.515625 3.78125 -5.71875 3.28125 -5.71875 C 2.789062 -5.71875 2.375 -5.515625 2.03125 -5.109375 C 1.695312 -4.710938 1.53125 -4.128906 1.53125 -3.359375 Z M 1.53125 -3.359375 "></path>
</symbol>
<symbol overflow="visible" id="glyph0-11">
<path style="stroke:none;" d="M 0.828125 0 L 0.828125 -8.9375 L 1.921875 -8.9375 L 1.921875 -5.734375 C 2.429688 -6.328125 3.078125 -6.625 3.859375 -6.625 C 4.335938 -6.625 4.753906 -6.523438 5.109375 -6.328125 C 5.460938 -6.140625 5.710938 -5.878906 5.859375 -5.546875 C 6.015625 -5.210938 6.09375 -4.734375 6.09375 -4.109375 L 6.09375 0 L 5 0 L 5 -4.109375 C 5 -4.648438 4.878906 -5.046875 4.640625 -5.296875 C 4.398438 -5.546875 4.066406 -5.671875 3.640625 -5.671875 C 3.304688 -5.671875 2.992188 -5.585938 2.703125 -5.421875 C 2.421875 -5.253906 2.21875 -5.023438 2.09375 -4.734375 C 1.976562 -4.441406 1.921875 -4.046875 1.921875 -3.546875 L 1.921875 0 Z M 0.828125 0 "></path>
</symbol>
<symbol overflow="visible" id="glyph0-12">
<path style="stroke:none;" d="M 5.046875 -2.375 L 6.125 -2.234375 C 6.007812 -1.484375 5.707031 -0.898438 5.21875 -0.484375 C 4.738281 -0.0664062 4.144531 0.140625 3.4375 0.140625 C 2.550781 0.140625 1.835938 -0.144531 1.296875 -0.71875 C 0.753906 -1.300781 0.484375 -2.132812 0.484375 -3.21875 C 0.484375 -3.914062 0.597656 -4.523438 0.828125 -5.046875 C 1.066406 -5.566406 1.421875 -5.957031 1.890625 -6.21875 C 2.367188 -6.488281 2.882812 -6.625 3.4375 -6.625 C 4.144531 -6.625 4.71875 -6.441406 5.15625 -6.078125 C 5.601562 -5.722656 5.890625 -5.222656 6.015625 -4.578125 L 4.953125 -4.40625 C 4.847656 -4.84375 4.664062 -5.171875 4.40625 -5.390625 C 4.15625 -5.609375 3.847656 -5.71875 3.484375 -5.71875 C 2.929688 -5.71875 2.476562 -5.519531 2.125 -5.125 C 1.78125 -4.726562 1.609375 -4.101562 1.609375 -3.25 C 1.609375 -2.375 1.773438 -1.738281 2.109375 -1.34375 C 2.441406 -0.945312 2.878906 -0.75 3.421875 -0.75 C 3.847656 -0.75 4.207031 -0.878906 4.5 -1.140625 C 4.789062 -1.410156 4.972656 -1.820312 5.046875 -2.375 Z M 5.046875 -2.375 "></path>
</symbol>
<symbol overflow="visible" id="glyph0-13">
<path style="stroke:none;" d="M 0.421875 -3.234375 C 0.421875 -4.429688 0.753906 -5.320312 1.421875 -5.90625 C 1.972656 -6.382812 2.648438 -6.625 3.453125 -6.625 C 4.335938 -6.625 5.0625 -6.332031 5.625 -5.75 C 6.195312 -5.164062 6.484375 -4.359375 6.484375 -3.328125 C 6.484375 -2.492188 6.359375 -1.835938 6.109375 -1.359375 C 5.859375 -0.878906 5.492188 -0.507812 5.015625 -0.25 C 4.535156 0.0078125 4.015625 0.140625 3.453125 0.140625 C 2.546875 0.140625 1.8125 -0.144531 1.25 -0.71875 C 0.695312 -1.300781 0.421875 -2.140625 0.421875 -3.234375 Z M 1.546875 -3.234375 C 1.546875 -2.410156 1.722656 -1.789062 2.078125 -1.375 C 2.441406 -0.957031 2.898438 -0.75 3.453125 -0.75 C 3.992188 -0.75 4.445312 -0.957031 4.8125 -1.375 C 5.175781 -1.789062 5.359375 -2.425781 5.359375 -3.28125 C 5.359375 -4.070312 5.175781 -4.675781 4.8125 -5.09375 C 4.445312 -5.507812 3.992188 -5.71875 3.453125 -5.71875 C 2.898438 -5.71875 2.441406 -5.507812 2.078125 -5.09375 C 1.722656 -4.6875 1.546875 -4.066406 1.546875 -3.234375 Z M 1.546875 -3.234375 "></path>
</symbol>
<symbol overflow="visible" id="glyph0-14">
<path style="stroke:none;" d="M 0.390625 -1.9375 L 1.46875 -2.109375 C 1.53125 -1.671875 1.695312 -1.332031 1.96875 -1.09375 C 2.25 -0.863281 2.640625 -0.75 3.140625 -0.75 C 3.648438 -0.75 4.023438 -0.851562 4.265625 -1.0625 C 4.515625 -1.269531 4.640625 -1.507812 4.640625 -1.78125 C 4.640625 -2.03125 4.53125 -2.226562 4.3125 -2.375 C 4.15625 -2.46875 3.78125 -2.59375 3.1875 -2.75 C 2.382812 -2.945312 1.828125 -3.117188 1.515625 -3.265625 C 1.203125 -3.421875 0.960938 -3.628906 0.796875 -3.890625 C 0.640625 -4.148438 0.5625 -4.4375 0.5625 -4.75 C 0.5625 -5.039062 0.628906 -5.304688 0.765625 -5.546875 C 0.898438 -5.796875 1.078125 -6.003906 1.296875 -6.171875 C 1.472656 -6.296875 1.707031 -6.398438 2 -6.484375 C 2.289062 -6.578125 2.609375 -6.625 2.953125 -6.625 C 3.460938 -6.625 3.90625 -6.550781 4.28125 -6.40625 C 4.664062 -6.257812 4.945312 -6.0625 5.125 -5.8125 C 5.3125 -5.5625 5.441406 -5.222656 5.515625 -4.796875 L 4.4375 -4.65625 C 4.394531 -4.988281 4.253906 -5.25 4.015625 -5.4375 C 3.785156 -5.625 3.457031 -5.71875 3.03125 -5.71875 C 2.53125 -5.71875 2.171875 -5.632812 1.953125 -5.46875 C 1.734375 -5.300781 1.625 -5.101562 1.625 -4.875 C 1.625 -4.738281 1.671875 -4.613281 1.765625 -4.5 C 1.847656 -4.382812 1.988281 -4.285156 2.1875 -4.203125 C 2.289062 -4.160156 2.613281 -4.066406 3.15625 -3.921875 C 3.925781 -3.710938 4.460938 -3.539062 4.765625 -3.40625 C 5.078125 -3.28125 5.320312 -3.09375 5.5 -2.84375 C 5.675781 -2.59375 5.765625 -2.28125 5.765625 -1.90625 C 5.765625 -1.539062 5.65625 -1.195312 5.4375 -0.875 C 5.226562 -0.550781 4.921875 -0.300781 4.515625 -0.125 C 4.109375 0.0507812 3.65625 0.140625 3.15625 0.140625 C 2.3125 0.140625 1.664062 -0.03125 1.21875 -0.375 C 0.78125 -0.726562 0.503906 -1.25 0.390625 -1.9375 Z M 0.390625 -1.9375 "></path>
</symbol>
<symbol overflow="visible" id="glyph0-15">
<path style="stroke:none;" d="M 5.015625 0 L 5.015625 -0.8125 C 4.609375 -0.175781 4.007812 0.140625 3.21875 0.140625 C 2.695312 0.140625 2.21875 0 1.78125 -0.28125 C 1.351562 -0.5625 1.019531 -0.957031 0.78125 -1.46875 C 0.539062 -1.976562 0.421875 -2.566406 0.421875 -3.234375 C 0.421875 -3.878906 0.53125 -4.460938 0.75 -4.984375 C 0.96875 -5.515625 1.289062 -5.921875 1.71875 -6.203125 C 2.144531 -6.484375 2.625 -6.625 3.15625 -6.625 C 3.550781 -6.625 3.898438 -6.539062 4.203125 -6.375 C 4.503906 -6.207031 4.753906 -5.992188 4.953125 -5.734375 L 4.953125 -8.9375 L 6.046875 -8.9375 L 6.046875 0 Z M 1.546875 -3.234375 C 1.546875 -2.398438 1.722656 -1.773438 2.078125 -1.359375 C 2.429688 -0.953125 2.84375 -0.75 3.3125 -0.75 C 3.789062 -0.75 4.195312 -0.945312 4.53125 -1.34375 C 4.875 -1.738281 5.046875 -2.335938 5.046875 -3.140625 C 5.046875 -4.023438 4.875 -4.675781 4.53125 -5.09375 C 4.1875 -5.507812 3.765625 -5.71875 3.265625 -5.71875 C 2.773438 -5.71875 2.363281 -5.515625 2.03125 -5.109375 C 1.707031 -4.710938 1.546875 -4.085938 1.546875 -3.234375 Z M 1.546875 -3.234375 "></path>
</symbol>
<symbol overflow="visible" id="glyph0-16">
<path style="stroke:none;" d="M 5.046875 -0.796875 C 4.640625 -0.453125 4.25 -0.207031 3.875 -0.0625 C 3.5 0.0703125 3.09375 0.140625 2.65625 0.140625 C 1.945312 0.140625 1.398438 -0.03125 1.015625 -0.375 C 0.640625 -0.71875 0.453125 -1.160156 0.453125 -1.703125 C 0.453125 -2.023438 0.523438 -2.316406 0.671875 -2.578125 C 0.816406 -2.835938 1.003906 -3.046875 1.234375 -3.203125 C 1.460938 -3.359375 1.726562 -3.476562 2.03125 -3.5625 C 2.238281 -3.625 2.5625 -3.679688 3 -3.734375 C 3.882812 -3.835938 4.535156 -3.960938 4.953125 -4.109375 C 4.960938 -4.253906 4.96875 -4.347656 4.96875 -4.390625 C 4.96875 -4.835938 4.863281 -5.15625 4.65625 -5.34375 C 4.375 -5.59375 3.957031 -5.71875 3.40625 -5.71875 C 2.882812 -5.71875 2.5 -5.625 2.25 -5.4375 C 2.007812 -5.257812 1.832031 -4.941406 1.71875 -4.484375 L 0.640625 -4.625 C 0.734375 -5.082031 0.890625 -5.453125 1.109375 -5.734375 C 1.335938 -6.015625 1.660156 -6.234375 2.078125 -6.390625 C 2.503906 -6.546875 3 -6.625 3.5625 -6.625 C 4.113281 -6.625 4.5625 -6.554688 4.90625 -6.421875 C 5.25 -6.296875 5.5 -6.132812 5.65625 -5.9375 C 5.820312 -5.738281 5.941406 -5.488281 6.015625 -5.1875 C 6.046875 -5 6.0625 -4.660156 6.0625 -4.171875 L 6.0625 -2.71875 C 6.0625 -1.695312 6.082031 -1.050781 6.125 -0.78125 C 6.175781 -0.507812 6.269531 -0.25 6.40625 0 L 5.265625 0 C 5.148438 -0.226562 5.078125 -0.492188 5.046875 -0.796875 Z M 4.953125 -3.25 C 4.554688 -3.082031 3.957031 -2.941406 3.15625 -2.828125 C 2.707031 -2.765625 2.390625 -2.691406 2.203125 -2.609375 C 2.015625 -2.535156 1.867188 -2.421875 1.765625 -2.265625 C 1.671875 -2.109375 1.625 -1.929688 1.625 -1.734375 C 1.625 -1.441406 1.734375 -1.195312 1.953125 -1 C 2.171875 -0.8125 2.492188 -0.71875 2.921875 -0.71875 C 3.347656 -0.71875 3.722656 -0.804688 4.046875 -0.984375 C 4.378906 -1.171875 4.625 -1.425781 4.78125 -1.75 C 4.894531 -2 4.953125 -2.363281 4.953125 -2.84375 Z M 4.953125 -3.25 "></path>
</symbol>
<symbol overflow="visible" id="glyph0-17">
<path style="stroke:none;" d="M 2.015625 0 L 0.03125 -6.46875 L 1.171875 -6.46875 L 2.203125 -2.734375 L 2.578125 -1.34375 C 2.597656 -1.414062 2.710938 -1.863281 2.921875 -2.6875 L 3.953125 -6.46875 L 5.078125 -6.46875 L 6.046875 -2.71875 L 6.375 -1.484375 L 6.734375 -2.734375 L 7.84375 -6.46875 L 8.921875 -6.46875 L 6.890625 0 L 5.75 0 L 4.71875 -3.875 L 4.46875 -4.984375 L 3.15625 0 Z M 2.015625 0 "></path>
</symbol>
<symbol overflow="visible" id="glyph1-0">
<path style="stroke:none;" d="M 1.875 0 L 1.875 -9.359375 L 9.359375 -9.359375 L 9.359375 0 Z M 2.109375 -0.234375 L 9.125 -0.234375 L 9.125 -9.125 L 2.109375 -9.125 Z M 2.109375 -0.234375 "></path>
</symbol>
<symbol overflow="visible" id="glyph1-1">
<path style="stroke:none;" d="M 3.859375 -1.171875 L 4.046875 -0.015625 C 3.679688 0.0664062 3.351562 0.109375 3.0625 0.109375 C 2.582031 0.109375 2.207031 0.0351562 1.9375 -0.109375 C 1.675781 -0.265625 1.492188 -0.46875 1.390625 -0.71875 C 1.285156 -0.96875 1.234375 -1.488281 1.234375 -2.28125 L 1.234375 -6.75 L 0.265625 -6.75 L 0.265625 -7.765625 L 1.234375 -7.765625 L 1.234375 -9.6875 L 2.53125 -10.484375 L 2.53125 -7.765625 L 3.859375 -7.765625 L 3.859375 -6.75 L 2.53125 -6.75 L 2.53125 -2.203125 C 2.53125 -1.828125 2.550781 -1.582031 2.59375 -1.46875 C 2.644531 -1.363281 2.722656 -1.28125 2.828125 -1.21875 C 2.941406 -1.15625 3.09375 -1.125 3.28125 -1.125 C 3.425781 -1.125 3.617188 -1.140625 3.859375 -1.171875 Z M 3.859375 -1.171875 "></path>
</symbol>
<symbol overflow="visible" id="glyph1-2">
<path style="stroke:none;" d="M 1 -9.21875 L 1 -10.71875 L 2.3125 -10.71875 L 2.3125 -9.21875 Z M 1 0 L 1 -7.765625 L 2.3125 -7.765625 L 2.3125 0 Z M 1 0 "></path>
</symbol>
<symbol overflow="visible" id="glyph1-3">
<path style="stroke:none;" d="M 0.984375 0 L 0.984375 -7.765625 L 2.171875 -7.765625 L 2.171875 -6.6875 C 2.410156 -7.0625 2.734375 -7.363281 3.140625 -7.59375 C 3.546875 -7.832031 4.003906 -7.953125 4.515625 -7.953125 C 5.097656 -7.953125 5.570312 -7.832031 5.9375 -7.59375 C 6.300781 -7.351562 6.5625 -7.015625 6.71875 -6.578125 C 7.332031 -7.492188 8.128906 -7.953125 9.109375 -7.953125 C 9.878906 -7.953125 10.472656 -7.738281 10.890625 -7.3125 C 11.304688 -6.882812 11.515625 -6.222656 11.515625 -5.328125 L 11.515625 0 L 10.203125 0 L 10.203125 -4.890625 C 10.203125 -5.421875 10.160156 -5.800781 10.078125 -6.03125 C 9.992188 -6.257812 9.835938 -6.441406 9.609375 -6.578125 C 9.390625 -6.722656 9.128906 -6.796875 8.828125 -6.796875 C 8.273438 -6.796875 7.816406 -6.613281 7.453125 -6.25 C 7.097656 -5.894531 6.921875 -5.316406 6.921875 -4.515625 L 6.921875 0 L 5.609375 0 L 5.609375 -5.046875 C 5.609375 -5.628906 5.5 -6.066406 5.28125 -6.359375 C 5.0625 -6.648438 4.710938 -6.796875 4.234375 -6.796875 C 3.859375 -6.796875 3.515625 -6.695312 3.203125 -6.5 C 2.890625 -6.3125 2.660156 -6.03125 2.515625 -5.65625 C 2.378906 -5.28125 2.3125 -4.738281 2.3125 -4.03125 L 2.3125 0 Z M 0.984375 0 "></path>
</symbol>
<symbol overflow="visible" id="glyph1-4">
<path style="stroke:none;" d="M 6.3125 -2.5 L 7.671875 -2.328125 C 7.453125 -1.535156 7.050781 -0.921875 6.46875 -0.484375 C 5.894531 -0.046875 5.15625 0.171875 4.25 0.171875 C 3.113281 0.171875 2.210938 -0.175781 1.546875 -0.875 C 0.878906 -1.570312 0.546875 -2.550781 0.546875 -3.8125 C 0.546875 -5.125 0.878906 -6.140625 1.546875 -6.859375 C 2.222656 -7.585938 3.097656 -7.953125 4.171875 -7.953125 C 5.210938 -7.953125 6.0625 -7.597656 6.71875 -6.890625 C 7.382812 -6.179688 7.71875 -5.1875 7.71875 -3.90625 C 7.71875 -3.820312 7.710938 -3.703125 7.703125 -3.546875 L 1.90625 -3.546875 C 1.957031 -2.691406 2.195312 -2.035156 2.625 -1.578125 C 3.0625 -1.128906 3.609375 -0.90625 4.265625 -0.90625 C 4.742188 -0.90625 5.148438 -1.03125 5.484375 -1.28125 C 5.828125 -1.539062 6.101562 -1.945312 6.3125 -2.5 Z M 1.984375 -4.625 L 6.328125 -4.625 C 6.265625 -5.28125 6.097656 -5.773438 5.828125 -6.109375 C 5.398438 -6.609375 4.851562 -6.859375 4.1875 -6.859375 C 3.582031 -6.859375 3.070312 -6.65625 2.65625 -6.25 C 2.25 -5.84375 2.023438 -5.300781 1.984375 -4.625 Z M 1.984375 -4.625 "></path>
</symbol>
</g>
</defs>
<g id="surface1">
<path style="fill:none;stroke-width:0.5;stroke-linecap:butt;stroke-linejoin:miter;stroke:rgb(14.901961%,14.901961%,14.901961%);stroke-opacity:1;stroke-miterlimit:4;" d="M 57.150683 144.828868 L 155.016319 144.828868 " transform="matrix(3.538653,0,0,3.538653,-171.791109,-447.471726)"></path>
<path style=" stroke:none;fill-rule:evenodd;fill:rgb(0%,0%,0%);fill-opacity:1;" d="M 369.679688 65.027344 L 366.140625 68.566406 L 378.523438 65.027344 L 366.140625 61.488281 Z M 369.679688 65.027344 "></path>
<path style="fill:none;stroke-width:0.845229;stroke-linecap:butt;stroke-linejoin:miter;stroke:rgb(72.549021%,3.529412%,5.882353%);stroke-opacity:1;stroke-miterlimit:4;" d="M 61.249392 135.969122 L 61.249392 144.828868 " transform="matrix(3.538653,0,0,3.538653,-171.791109,-447.471726)"></path>
<path style="fill-rule:evenodd;fill:rgb(72.549021%,3.529412%,5.882353%);fill-opacity:1;stroke-width:1.25;stroke-linecap:butt;stroke-linejoin:miter;stroke:rgb(72.549021%,3.529412%,5.882353%);stroke-opacity:1;stroke-miterlimit:4;" d="M -0.00307646 -0.00167779 L 4.998955 -4.99718 L -12.501626 -0.00167779 L 4.998955 5.000354 Z M -0.00307646 -0.00167779 " transform="matrix(0.000000000000000037,0.598194,-0.598194,0.000000000000000037,44.948215,37.263559)"></path>
<path style="fill:none;stroke-width:0.845229;stroke-linecap:butt;stroke-linejoin:miter;stroke:rgb(72.549021%,3.529412%,5.882353%);stroke-opacity:1;stroke-miterlimit:4;" d="M 67.957674 135.969122 L 67.957674 144.828868 " transform="matrix(3.538653,0,0,3.538653,-171.791109,-447.471726)"></path>
<path style="fill-rule:evenodd;fill:rgb(72.549021%,3.529412%,5.882353%);fill-opacity:1;stroke-width:1.25;stroke-linecap:butt;stroke-linejoin:miter;stroke:rgb(72.549021%,3.529412%,5.882353%);stroke-opacity:1;stroke-miterlimit:4;" d="M -0.00307646 0.00262741 L 4.998955 -4.999404 L -12.501626 0.00262741 L 4.998955 4.998129 Z M -0.00307646 0.00262741 " transform="matrix(0.000000000000000037,0.598194,-0.598194,0.000000000000000037,68.689072,37.263559)"></path>
<path style="fill:none;stroke-width:0.854927;stroke-linecap:butt;stroke-linejoin:miter;stroke:rgb(0%,18.82353%,78.039217%);stroke-opacity:0.882353;stroke-miterlimit:4;" d="M 79.027388 144.808998 L 79.027388 153.634523 " transform="matrix(3.538653,0,0,3.538653,-171.791109,-447.471726)"></path>
<path style="fill-rule:evenodd;fill:rgb(0%,18.82353%,78.039217%);fill-opacity:0.882353;stroke-width:1.25;stroke-linecap:butt;stroke-linejoin:miter;stroke:rgb(0%,18.82353%,78.039217%);stroke-opacity:0.882353;stroke-miterlimit:4;" d="M -0.000412948 -0.000291224 L 5.002982 -4.99723 L -12.499215 -0.000291224 L 5.002982 5.003103 Z M -0.000412948 -0.000291224 " transform="matrix(-0.000000000000000037,-0.605058,0.605058,-0.000000000000000037,107.859551,92.558344)"></path>
<path style="fill:none;stroke-width:0.855545;stroke-linecap:butt;stroke-linejoin:miter;stroke:rgb(0%,18.82353%,78.039217%);stroke-opacity:0.882353;stroke-miterlimit:4;" d="M 86.410141 144.808998 L 86.410141 153.651081 " transform="matrix(3.538653,0,0,3.538653,-171.791109,-447.471726)"></path>
<path style="fill-rule:evenodd;fill:rgb(0%,18.82353%,78.039217%);fill-opacity:0.882353;stroke-width:1.25;stroke-linecap:butt;stroke-linejoin:miter;stroke:rgb(0%,18.82353%,78.039217%);stroke-opacity:0.882353;stroke-miterlimit:4;" d="M 0.000897012 0.00200725 L 5.000678 -4.997773 L -12.50178 0.00200725 L 5.000678 5.001788 Z M 0.000897012 0.00200725 " transform="matrix(-0.000000000000000037,-0.605495,0.605495,-0.000000000000000037,133.98316,92.613824)"></path>
<path style="fill:none;stroke-width:0.855545;stroke-linecap:butt;stroke-linejoin:miter;stroke:rgb(0%,18.82353%,78.039217%);stroke-opacity:0.882353;stroke-miterlimit:4;" d="M 98.068224 144.808998 L 98.068224 153.651081 " transform="matrix(3.538653,0,0,3.538653,-171.791109,-447.471726)"></path>
<path style="fill-rule:evenodd;fill:rgb(0%,18.82353%,78.039217%);fill-opacity:0.882353;stroke-width:1.25;stroke-linecap:butt;stroke-linejoin:miter;stroke:rgb(0%,18.82353%,78.039217%);stroke-opacity:0.882353;stroke-miterlimit:4;" d="M 0.000897012 -0.00184 L 5.000678 -5.001621 L -12.50178 -0.00184 L 5.000678 4.997941 Z M 0.000897012 -0.00184 " transform="matrix(-0.000000000000000037,-0.605495,0.605495,-0.000000000000000037,175.239395,92.613824)"></path>
<path style="fill:none;stroke-width:0.845229;stroke-linecap:butt;stroke-linejoin:miter;stroke:rgb(72.549021%,3.529412%,5.882353%);stroke-opacity:1;stroke-miterlimit:4;" d="M 110.657982 135.986785 L 110.657982 144.84653 " transform="matrix(3.538653,0,0,3.538653,-171.791109,-447.471726)"></path>
<path style="fill-rule:evenodd;fill:rgb(72.549021%,3.529412%,5.882353%);fill-opacity:1;stroke-width:1.25;stroke-linecap:butt;stroke-linejoin:miter;stroke:rgb(72.549021%,3.529412%,5.882353%);stroke-opacity:1;stroke-miterlimit:4;" d="M -0.00235424 0.00182163 L 4.999678 -5.00021 L -12.500904 0.00182163 L 4.999678 4.997323 Z M -0.00235424 0.00182163 " transform="matrix(0.000000000000000037,0.598194,-0.598194,0.000000000000000037,219.790152,37.325627)"></path>
<path style="fill:none;stroke-width:0.845229;stroke-linecap:butt;stroke-linejoin:miter;stroke:rgb(72.549021%,3.529412%,5.882353%);stroke-opacity:1;stroke-miterlimit:4;" d="M 132.172614 135.986785 L 132.172614 144.84653 " transform="matrix(3.538653,0,0,3.538653,-171.791109,-447.471726)"></path>
<path style="fill-rule:evenodd;fill:rgb(72.549021%,3.529412%,5.882353%);fill-opacity:1;stroke-width:1.25;stroke-linecap:butt;stroke-linejoin:miter;stroke:rgb(72.549021%,3.529412%,5.882353%);stroke-opacity:1;stroke-miterlimit:4;" d="M -0.00235424 0.00234035 L 4.999678 -4.999691 L -12.500904 0.00234035 L 4.999678 4.997842 Z M -0.00235424 0.00234035 " transform="matrix(0.000000000000000037,0.598194,-0.598194,0.000000000000000037,295.923275,37.325627)"></path>
<path style="fill:none;stroke-width:0.855545;stroke-linecap:butt;stroke-linejoin:miter;stroke:rgb(0%,18.82353%,78.039217%);stroke-opacity:0.882353;stroke-miterlimit:4;" d="M 138.953753 144.808998 L 138.953753 153.651081 " transform="matrix(3.538653,0,0,3.538653,-171.791109,-447.471726)"></path>
<path style="fill-rule:evenodd;fill:rgb(0%,18.82353%,78.039217%);fill-opacity:0.882353;stroke-width:1.25;stroke-linecap:butt;stroke-linejoin:miter;stroke:rgb(0%,18.82353%,78.039217%);stroke-opacity:0.882353;stroke-miterlimit:4;" d="M 0.000897012 0.00200291 L 5.000678 -4.997778 L -12.50178 0.00200291 L 5.000678 5.001783 Z M 0.000897012 0.00200291 " transform="matrix(-0.000000000000000037,-0.605495,0.605495,-0.000000000000000037,319.916756,92.613824)"></path>
<path style="fill:none;stroke-width:0.855545;stroke-linecap:butt;stroke-linejoin:miter;stroke:rgb(0%,18.82353%,78.039217%);stroke-opacity:0.882353;stroke-miterlimit:4;" d="M 148.246219 144.808998 L 148.246219 153.651081 " transform="matrix(3.538653,0,0,3.538653,-171.791109,-447.471726)"></path>
<path style="fill-rule:evenodd;fill:rgb(0%,18.82353%,78.039217%);fill-opacity:0.882353;stroke-width:1.25;stroke-linecap:butt;stroke-linejoin:miter;stroke:rgb(0%,18.82353%,78.039217%);stroke-opacity:0.882353;stroke-miterlimit:4;" d="M 0.000897012 0.00058065 L 5.000678 -4.9992 L -12.50178 0.00058065 L 5.000678 5.000361 Z M 0.000897012 0.00058065 " transform="matrix(-0.000000000000000037,-0.605495,0.605495,-0.000000000000000037,352.80043,92.613824)"></path>
<path style="fill:none;stroke-width:0.5;stroke-linecap:butt;stroke-linejoin:miter;stroke:rgb(14.901961%,14.901961%,14.901961%);stroke-opacity:1;stroke-miterlimit:4;" d="M 57.150683 155.620404 L 57.150683 129.937519 " transform="matrix(3.538653,0,0,3.538653,-171.791109,-447.471726)"></path>
<path style="fill-rule:evenodd;fill:rgb(14.901961%,14.901961%,14.901961%);fill-opacity:1;stroke-width:1.25;stroke-linecap:butt;stroke-linejoin:miter;stroke:rgb(14.901961%,14.901961%,14.901961%);stroke-opacity:1;stroke-miterlimit:4;" d="M -0.000796964 -0.00242533 L 4.999782 -4.997485 L -12.502244 -0.00242533 L 4.999782 4.998154 Z M -0.000796964 -0.00242533 " transform="matrix(0.00000000000000013,0.707731,-0.707731,0.00000000000000013,30.443596,19.41072)"></path>
<path style="fill:none;stroke-width:0.75;stroke-linecap:butt;stroke-linejoin:miter;stroke:rgb(0%,0%,0.392157%);stroke-opacity:1;stroke-dasharray:1.5,0.75;stroke-miterlimit:4;" d="M 57.337239 134.404924 L 77.771172 134.404924 L 77.771172 155.192099 L 108.533012 155.192099 L 108.533012 134.43804 L 137.413839 134.43804 L 137.413839 155.259435 L 150.981635 155.259435 " transform="matrix(3.538653,0,0,3.538653,-171.791109,-447.471726)"></path>
<path style="fill:none;stroke-width:1.01452;stroke-linecap:butt;stroke-linejoin:miter;stroke:rgb(0%,18.82353%,78.039217%);stroke-opacity:0.882353;stroke-miterlimit:4;" d="M 80.742819 164.851054 L 80.742819 158.904449 " transform="matrix(3.538653,0,0,3.538653,-171.791109,-447.471726)"></path>
<path style="fill-rule:evenodd;fill:rgb(0%,18.82353%,78.039217%);fill-opacity:0.882353;stroke-width:1.25;stroke-linecap:butt;stroke-linejoin:miter;stroke:rgb(0%,18.82353%,78.039217%);stroke-opacity:0.882353;stroke-miterlimit:4;" d="M 0.00193429 -0.000805253 L 5.001669 -5.00054 L -12.500123 -0.000805253 L 5.001669 4.998929 Z M 0.00193429 -0.000805253 " transform="matrix(-0.000000000000000132,-0.718007,0.718007,-0.000000000000000132,113.930266,131.571701)"></path>
<path style="fill:none;stroke-width:1.01452;stroke-linecap:butt;stroke-linejoin:miter;stroke:rgb(72.549021%,3.529412%,5.882353%);stroke-opacity:1;stroke-miterlimit:4;" d="M 60.761476 160.714813 L 60.761476 166.662522 " transform="matrix(3.538653,0,0,3.538653,-171.791109,-447.471726)"></path>
<path style="fill-rule:evenodd;fill:rgb(72.549021%,3.529412%,5.882353%);fill-opacity:1;stroke-width:1.25;stroke-linecap:butt;stroke-linejoin:miter;stroke:rgb(72.549021%,3.529412%,5.882353%);stroke-opacity:1;stroke-miterlimit:4;" d="M -0.00123531 -0.000189306 L 4.998499 -4.999924 L -12.497852 -0.000189306 L 4.998499 4.999545 Z M -0.00123531 -0.000189306 " transform="matrix(0.000000000000000044,0.718007,-0.718007,0.000000000000000044,43.22252,125.551668)"></path>
<path style="fill:none;stroke-width:0.845229;stroke-linecap:butt;stroke-linejoin:miter;stroke:rgb(72.549021%,3.529412%,5.882353%);stroke-opacity:1;stroke-miterlimit:4;" d="M 74.837058 135.969122 L 74.837058 144.828868 " transform="matrix(3.538653,0,0,3.538653,-171.791109,-447.471726)"></path>
<path style="fill-rule:evenodd;fill:rgb(72.549021%,3.529412%,5.882353%);fill-opacity:1;stroke-width:1.25;stroke-linecap:butt;stroke-linejoin:miter;stroke:rgb(72.549021%,3.529412%,5.882353%);stroke-opacity:1;stroke-miterlimit:4;" d="M -0.00307646 0.00142233 L 4.998955 -5.00061 L -12.501626 0.00142233 L 4.998955 4.996924 Z M -0.00307646 0.00142233 " transform="matrix(0.000000000000000037,0.598194,-0.598194,0.000000000000000037,93.032101,37.263559)"></path>
<path style="fill:none;stroke-width:0.855545;stroke-linecap:butt;stroke-linejoin:miter;stroke:rgb(0%,18.82353%,78.039217%);stroke-opacity:0.882353;stroke-miterlimit:4;" d="M 104.93105 144.808998 L 104.93105 153.651081 " transform="matrix(3.538653,0,0,3.538653,-171.791109,-447.471726)"></path>
<path style="fill-rule:evenodd;fill:rgb(0%,18.82353%,78.039217%);fill-opacity:0.882353;stroke-width:1.25;stroke-linecap:butt;stroke-linejoin:miter;stroke:rgb(0%,18.82353%,78.039217%);stroke-opacity:0.882353;stroke-miterlimit:4;" d="M 0.000897012 0.00245261 L 5.000678 -4.997328 L -12.50178 0.00245261 L 5.000678 5.002233 Z M 0.000897012 0.00245261 " transform="matrix(-0.000000000000000037,-0.605495,0.605495,-0.000000000000000037,199.521952,92.613824)"></path>
<path style="fill:none;stroke-width:0.845229;stroke-linecap:butt;stroke-linejoin:miter;stroke:rgb(72.549021%,3.529412%,5.882353%);stroke-opacity:1;stroke-miterlimit:4;" d="M 114.891364 135.986785 L 114.891364 144.84653 " transform="matrix(3.538653,0,0,3.538653,-171.791109,-447.471726)"></path>
<path style="fill-rule:evenodd;fill:rgb(72.549021%,3.529412%,5.882353%);fill-opacity:1;stroke-width:1.25;stroke-linecap:butt;stroke-linejoin:miter;stroke:rgb(72.549021%,3.529412%,5.882353%);stroke-opacity:1;stroke-miterlimit:4;" d="M -0.00235424 0.0015141 L 4.999678 -5.000518 L -12.500904 0.0015141 L 4.999678 4.997016 Z M -0.00235424 0.0015141 " transform="matrix(0.000000000000000037,0.598194,-0.598194,0.000000000000000037,234.770437,37.325627)"></path>
<path style="fill:none;stroke-width:0.845229;stroke-linecap:butt;stroke-linejoin:miter;stroke:rgb(72.549021%,3.529412%,5.882353%);stroke-opacity:1;stroke-miterlimit:4;" d="M 123.358128 135.986785 L 123.358128 144.84653 " transform="matrix(3.538653,0,0,3.538653,-171.791109,-447.471726)"></path>
<path style="fill-rule:evenodd;fill:rgb(72.549021%,3.529412%,5.882353%);fill-opacity:1;stroke-width:1.25;stroke-linecap:butt;stroke-linejoin:miter;stroke:rgb(72.549021%,3.529412%,5.882353%);stroke-opacity:1;stroke-miterlimit:4;" d="M -0.00235424 0.000958199 L 4.999678 -5.001074 L -12.500904 0.000958199 L 4.999678 5.00299 Z M -0.00235424 0.000958199 " transform="matrix(0.000000000000000037,0.598194,-0.598194,0.000000000000000037,264.731042,37.325627)"></path>
<path style="fill:none;stroke-width:0.845229;stroke-linecap:butt;stroke-linejoin:miter;stroke:rgb(72.549021%,3.529412%,5.882353%);stroke-opacity:1;stroke-miterlimit:4;" d="M 127.062751 135.986785 L 127.062751 144.84653 " transform="matrix(3.538653,0,0,3.538653,-171.791109,-447.471726)"></path>
<path style="fill-rule:evenodd;fill:rgb(72.549021%,3.529412%,5.882353%);fill-opacity:1;stroke-width:1.25;stroke-linecap:butt;stroke-linejoin:miter;stroke:rgb(72.549021%,3.529412%,5.882353%);stroke-opacity:1;stroke-miterlimit:4;" d="M -0.00235424 -0.00172269 L 4.999678 -4.997224 L -12.500904 -0.00172269 L 4.999678 5.000309 Z M -0.00235424 -0.00172269 " transform="matrix(0.000000000000000037,0.598194,-0.598194,0.000000000000000037,277.838813,37.325627)"></path>
<path style="fill:none;stroke-width:0.855545;stroke-linecap:butt;stroke-linejoin:miter;stroke:rgb(0%,18.82353%,78.039217%);stroke-opacity:0.882353;stroke-miterlimit:4;" d="M 142.657272 144.808998 L 142.657272 153.651081 " transform="matrix(3.538653,0,0,3.538653,-171.791109,-447.471726)"></path>
<path style="fill-rule:evenodd;fill:rgb(0%,18.82353%,78.039217%);fill-opacity:0.882353;stroke-width:1.25;stroke-linecap:butt;stroke-linejoin:miter;stroke:rgb(0%,18.82353%,78.039217%);stroke-opacity:0.882353;stroke-miterlimit:4;" d="M 0.000897012 -0.00179986 L 5.000678 -5.00158 L -12.50178 -0.00179986 L 5.000678 4.997981 Z M 0.000897012 -0.00179986 " transform="matrix(-0.000000000000000037,-0.605495,0.605495,-0.000000000000000037,333.024527,92.613824)"></path>
<g style="fill:rgb(0%,0%,0%);fill-opacity:1;"> <use xlink:href="#glyph0-1" x="51.28125" y="133.92519"></use> <use xlink:href="#glyph0-2" x="54.052734" y="133.92519"></use> <use xlink:href="#glyph0-3" x="60.991811" y="133.92519"></use> <use xlink:href="#glyph0-4" x="64.457893" y="133.92519"></use> <use xlink:href="#glyph0-5" x="67.923976" y="133.92519"></use> <use xlink:href="#glyph0-4" x="71.390059" y="133.92519"></use> <use xlink:href="#glyph0-6" x="74.856142" y="133.92519"></use> <use xlink:href="#glyph0-7" x="81.795218" y="133.92519"></use> <use xlink:href="#glyph0-8" x="85.948989" y="133.92519"></use>
</g>
<g style="fill:rgb(0%,0%,0%);fill-opacity:1;"> <use xlink:href="#glyph0-7" x="124.3125" y="133.92519"></use> <use xlink:href="#glyph0-9" x="128.46627" y="133.92519"></use> <use xlink:href="#glyph0-10" x="131.237754" y="133.92519"></use> <use xlink:href="#glyph0-11" x="138.176831" y="133.92519"></use> <use xlink:href="#glyph0-4" x="145.115908" y="133.92519"></use> <use xlink:href="#glyph0-5" x="148.58199" y="133.92519"></use> <use xlink:href="#glyph0-4" x="152.048073" y="133.92519"></use> <use xlink:href="#glyph0-6" x="155.514156" y="133.92519"></use> <use xlink:href="#glyph0-7" x="162.453233" y="133.92519"></use> <use xlink:href="#glyph0-8" x="166.607003" y="133.92519"></use>
</g>
<path style=" stroke:none;fill-rule:nonzero;fill:rgb(0%,0%,0%);fill-opacity:1;" d="M 13.691406 68.777344 C 14.183594 70.828125 16.339844 72.4375 18.339844 72.4375 C 19.953125 72.4375 21.144531 71.375 21.144531 69.816406 C 21.144531 67.894531 18.523438 66.515625 16.238281 66.515625 C 14.730469 66.515625 13.898438 67.167969 13.171875 67.738281 C 12.417969 68.335938 11.171875 69.320312 10.445312 69.320312 C 10.082031 69.320312 9.691406 68.984375 9.691406 68.414062 C 9.691406 67.894531 9.898438 67.582031 10.132812 67.21875 C 10.339844 66.878906 10.550781 66.570312 10.550781 66.308594 C 10.550781 65.894531 10.160156 65.660156 9.875 65.660156 C 9.511719 65.660156 9.484375 65.917969 9.328125 66.515625 C 9.148438 67.375 9.148438 67.609375 9.148438 67.867188 C 9.148438 69.167969 9.875 69.761719 10.859375 69.761719 C 11.769531 69.761719 12.679688 69.269531 13.691406 68.777344 Z M 14.054688 68.570312 C 14.835938 68.152344 15.71875 67.660156 16.914062 67.660156 C 18.003906 67.660156 20.78125 68.28125 20.78125 69.816406 C 20.78125 70.722656 20.082031 71.425781 18.808594 71.425781 C 17.769531 71.425781 14.652344 70.800781 14.054688 68.570312 Z M 14.054688 68.570312 "></path>
<path style=" stroke:none;fill-rule:nonzero;fill:rgb(0%,0%,0%);fill-opacity:1;" d="M 12.652344 57.617188 C 11.5625 57.617188 9.25 57.902344 9.25 59.59375 C 9.25 61.902344 13.925781 64.449219 17.71875 64.449219 C 19.277344 64.449219 21.121094 63.980469 21.121094 62.476562 C 21.121094 60.136719 16.367188 57.617188 12.652344 57.617188 Z M 14.914062 62.710938 C 13.875 62.421875 12.550781 62.085938 11.355469 61.410156 C 10.550781 60.96875 9.613281 60.371094 9.613281 59.617188 C 9.613281 58.8125 10.679688 58.710938 11.613281 58.710938 C 12.445312 58.710938 13.277344 58.839844 14.914062 59.230469 Z M 15.457031 59.386719 C 16.210938 59.566406 17.613281 59.902344 18.808594 60.554688 C 19.953125 61.125 20.757812 61.75 20.757812 62.476562 C 20.757812 63.019531 20.261719 63.359375 18.730469 63.359375 C 18.03125 63.359375 17.070312 63.253906 15.457031 62.839844 Z M 15.457031 59.386719 "></path>
<g style="fill:rgb(0%,0%,0%);fill-opacity:1;"> <use xlink:href="#glyph1-1" x="364.175781" y="83.571947"></use> <use xlink:href="#glyph1-2" x="368.336463" y="83.571947"></use> <use xlink:href="#glyph1-3" x="371.660861" y="83.571947"></use> <use xlink:href="#glyph1-4" x="384.135994" y="83.571947"></use>
</g>
<g style="fill:rgb(0%,0%,0%);fill-opacity:1;"> <use xlink:href="#glyph0-7" x="292.15625" y="127.042377"></use> <use xlink:href="#glyph0-2" x="296.31002" y="127.042377"></use> <use xlink:href="#glyph0-12" x="303.249097" y="127.042377"></use> <use xlink:href="#glyph0-13" x="309.490119" y="127.042377"></use> <use xlink:href="#glyph0-8" x="316.429196" y="127.042377"></use> <use xlink:href="#glyph0-14" x="323.368273" y="127.042377"></use> <use xlink:href="#glyph0-4" x="329.609295" y="127.042377"></use> <use xlink:href="#glyph0-7" x="333.075378" y="127.042377"></use> <use xlink:href="#glyph0-6" x="337.229148" y="127.042377"></use> <use xlink:href="#glyph0-12" x="344.168225" y="127.042377"></use> <use xlink:href="#glyph0-4" x="350.409247" y="127.042377"></use> <use xlink:href="#glyph0-2" x="353.87533" y="127.042377"></use> <use xlink:href="#glyph0-15" x="360.814407" y="127.042377"></use> <use xlink:href="#glyph0-5" x="367.753484" y="127.042377"></use>
</g>
<g style="fill:rgb(0%,0%,0%);fill-opacity:1;"> <use xlink:href="#glyph0-11" x="292.15625" y="140.526752"></use> <use xlink:href="#glyph0-9" x="299.095327" y="140.526752"></use> <use xlink:href="#glyph0-15" x="301.866811" y="140.526752"></use> <use xlink:href="#glyph0-15" x="308.805888" y="140.526752"></use> <use xlink:href="#glyph0-2" x="315.744964" y="140.526752"></use> <use xlink:href="#glyph0-8" x="322.684041" y="140.526752"></use> <use xlink:href="#glyph0-5" x="329.623118" y="140.526752"></use> <use xlink:href="#glyph0-14" x="333.089201" y="140.526752"></use> <use xlink:href="#glyph0-9" x="339.330223" y="140.526752"></use> <use xlink:href="#glyph0-10" x="342.101707" y="140.526752"></use> <use xlink:href="#glyph0-8" x="349.040784" y="140.526752"></use> <use xlink:href="#glyph0-16" x="355.979861" y="140.526752"></use> <use xlink:href="#glyph0-1" x="362.918938" y="140.526752"></use>
</g>
<path style="fill:none;stroke-width:0.75;stroke-linecap:butt;stroke-linejoin:miter;stroke:rgb(0%,0%,0%);stroke-opacity:1;stroke-dasharray:1.5,0.75;stroke-miterlimit:4;" d="M 123.470724 163.367438 C 125.537188 163.367438 127.663262 163.367438 129.758428 163.367438 " transform="matrix(3.538653,0,0,3.538653,-171.791109,-447.471726)"></path>
<path style="fill-rule:nonzero;fill:rgb(8.235294%,57.254905%,13.333334%);fill-opacity:1;stroke-width:0.5;stroke-linecap:butt;stroke-linejoin:miter;stroke:rgb(0%,1.960784%,0%);stroke-opacity:1;stroke-miterlimit:4;" d="M 73.07968 144.828868 C 73.07968 145.617039 72.440533 146.256185 71.652362 146.256185 C 70.864191 146.256185 70.225045 145.617039 70.225045 144.828868 C 70.225045 144.040697 70.864191 143.402654 71.652362 143.402654 C 72.440533 143.402654 73.07968 144.040697 73.07968 144.828868 Z M 73.07968 144.828868 " transform="matrix(3.538653,0,0,3.538653,-171.791109,-447.471726)"></path>
<path style="fill-rule:nonzero;fill:rgb(8.235294%,57.254905%,13.333334%);fill-opacity:1;stroke-width:0.5;stroke-linecap:butt;stroke-linejoin:miter;stroke:rgb(0%,1.960784%,0%);stroke-opacity:1;stroke-miterlimit:4;" d="M 93.187968 144.828868 C 93.187968 145.617039 92.548821 146.256185 91.760651 146.256185 C 90.97248 146.256185 90.333333 145.617039 90.333333 144.828868 C 90.333333 144.040697 90.97248 143.402654 91.760651 143.402654 C 92.548821 143.402654 93.187968 144.040697 93.187968 144.828868 Z M 93.187968 144.828868 " transform="matrix(3.538653,0,0,3.538653,-171.791109,-447.471726)"></path>
<path style="fill-rule:nonzero;fill:rgb(8.235294%,57.254905%,13.333334%);fill-opacity:1;stroke-width:0.5;stroke-linecap:butt;stroke-linejoin:miter;stroke:rgb(0%,1.960784%,0%);stroke-opacity:1;stroke-miterlimit:4;" d="M 120.174536 144.828868 C 120.174536 145.617039 119.536493 146.256185 118.748323 146.256185 C 117.960152 146.256185 117.321005 145.617039 117.321005 144.828868 C 117.321005 144.040697 117.960152 143.402654 118.748323 143.402654 C 119.536493 143.402654 120.174536 144.040697 120.174536 144.828868 Z M 120.174536 144.828868 " transform="matrix(3.538653,0,0,3.538653,-171.791109,-447.471726)"></path>
<path style="fill-rule:nonzero;fill:rgb(8.235294%,57.254905%,13.333334%);fill-opacity:1;stroke-width:0.5;stroke-linecap:butt;stroke-linejoin:miter;stroke:rgb(0%,1.960784%,0%);stroke-opacity:1;stroke-miterlimit:4;" d="M 136.050547 144.828868 C 136.050547 145.617039 135.4114 146.256185 134.623229 146.256185 C 133.835059 146.256185 133.195912 145.617039 133.195912 144.828868 C 133.195912 144.040697 133.835059 143.402654 134.623229 143.402654 C 135.4114 143.402654 136.050547 144.040697 136.050547 144.828868 Z M 136.050547 144.828868 " transform="matrix(3.538653,0,0,3.538653,-171.791109,-447.471726)"></path>
<path style="fill-rule:nonzero;fill:rgb(8.235294%,57.254905%,13.333334%);fill-opacity:1;stroke-width:0.5;stroke-linecap:butt;stroke-linejoin:miter;stroke:rgb(0%,1.960784%,0%);stroke-opacity:1;stroke-miterlimit:4;" d="M 104.50164 163.408282 C 104.50164 164.196453 103.862493 164.834495 103.074323 164.834495 C 102.286152 164.834495 101.647005 164.196453 101.647005 163.408282 C 101.647005 162.620111 102.286152 161.980964 103.074323 161.980964 C 103.862493 161.980964 104.50164 162.620111 104.50164 163.408282 Z M 104.50164 163.408282 " transform="matrix(3.538653,0,0,3.538653,-171.791109,-447.471726)"></path>
<g style="fill:rgb(0%,0%,0%);fill-opacity:1;"> <use xlink:href="#glyph0-3" x="204.832031" y="135.241596"></use> <use xlink:href="#glyph0-13" x="208.298114" y="135.241596"></use> <use xlink:href="#glyph0-7" x="215.237191" y="135.241596"></use> <use xlink:href="#glyph0-17" x="219.390961" y="135.241596"></use> <use xlink:href="#glyph0-16" x="228.403467" y="135.241596"></use> <use xlink:href="#glyph0-7" x="235.342544" y="135.241596"></use> <use xlink:href="#glyph0-15" x="239.496314" y="135.241596"></use>
</g>
</g>
</svg>
