<?xml version="1.0"?>

<svg xmlns="http://www.w3.org/2000/svg" xmlns:xlink="http://www.w3.org/1999/xlink" width="405" height="374" viewBox="0 0 405 374" version="1.1">
<defs>
<g>
<symbol overflow="visible" id="glyph0-0">
<path style="stroke:none;" d="M 2.5 0 L 2.5 -12.5 L 12.5 -12.5 L 12.5 0 Z M 2.8125 -0.3125 L 12.1875 -0.3125 L 12.1875 -12.1875 L 2.8125 -12.1875 Z M 2.8125 -0.3125 "></path>
</symbol>
<symbol overflow="visible" id="glyph0-1">
<path style="stroke:none;" d="M 5.15625 -1.578125 L 5.40625 -0.015625 C 4.914062 0.0859375 4.472656 0.140625 4.078125 0.140625 C 3.441406 0.140625 2.945312 0.0390625 2.59375 -0.15625 C 2.25 -0.363281 2.003906 -0.628906 1.859375 -0.953125 C 1.710938 -1.285156 1.640625 -1.976562 1.640625 -3.03125 L 1.640625 -9 L 0.359375 -9 L 0.359375 -10.375 L 1.640625 -10.375 L 1.640625 -12.9375 L 3.390625 -14 L 3.390625 -10.375 L 5.15625 -10.375 L 5.15625 -9 L 3.390625 -9 L 3.390625 -2.9375 C 3.390625 -2.4375 3.421875 -2.113281 3.484375 -1.96875 C 3.546875 -1.832031 3.644531 -1.71875 3.78125 -1.625 C 3.925781 -1.539062 4.128906 -1.5 4.390625 -1.5 C 4.578125 -1.5 4.832031 -1.523438 5.15625 -1.578125 Z M 5.15625 -1.578125 "></path>
</symbol>
<symbol overflow="visible" id="glyph0-2">
<path style="stroke:none;" d="M 8.421875 -3.34375 L 10.234375 -3.109375 C 9.953125 -2.054688 9.421875 -1.234375 8.640625 -0.640625 C 7.867188 -0.0546875 6.878906 0.234375 5.671875 0.234375 C 4.160156 0.234375 2.957031 -0.226562 2.0625 -1.15625 C 1.175781 -2.09375 0.734375 -3.40625 0.734375 -5.09375 C 0.734375 -6.84375 1.179688 -8.195312 2.078125 -9.15625 C 2.972656 -10.125 4.140625 -10.609375 5.578125 -10.609375 C 6.960938 -10.609375 8.09375 -10.132812 8.96875 -9.1875 C 9.851562 -8.25 10.296875 -6.921875 10.296875 -5.203125 C 10.296875 -5.097656 10.289062 -4.941406 10.28125 -4.734375 L 2.546875 -4.734375 C 2.609375 -3.597656 2.929688 -2.726562 3.515625 -2.125 C 4.097656 -1.519531 4.820312 -1.21875 5.6875 -1.21875 C 6.332031 -1.21875 6.878906 -1.382812 7.328125 -1.71875 C 7.785156 -2.0625 8.148438 -2.601562 8.421875 -3.34375 Z M 2.640625 -6.1875 L 8.4375 -6.1875 C 8.363281 -7.050781 8.144531 -7.703125 7.78125 -8.140625 C 7.21875 -8.816406 6.488281 -9.15625 5.59375 -9.15625 C 4.789062 -9.15625 4.113281 -8.882812 3.5625 -8.34375 C 3.007812 -7.8125 2.703125 -7.09375 2.640625 -6.1875 Z M 2.640625 -6.1875 "></path>
</symbol>
<symbol overflow="visible" id="glyph0-3">
<path style="stroke:none;" d="M 1.3125 0 L 1.3125 -10.375 L 2.890625 -10.375 L 2.890625 -8.921875 C 3.210938 -9.421875 3.644531 -9.828125 4.1875 -10.140625 C 4.726562 -10.453125 5.34375 -10.609375 6.03125 -10.609375 C 6.800781 -10.609375 7.429688 -10.445312 7.921875 -10.125 C 8.410156 -9.8125 8.757812 -9.367188 8.96875 -8.796875 C 9.789062 -10.003906 10.859375 -10.609375 12.171875 -10.609375 C 13.203125 -10.609375 13.992188 -10.320312 14.546875 -9.75 C 15.097656 -9.175781 15.375 -8.300781 15.375 -7.125 L 15.375 0 L 13.625 0 L 13.625 -6.53125 C 13.625 -7.238281 13.566406 -7.742188 13.453125 -8.046875 C 13.335938 -8.359375 13.128906 -8.609375 12.828125 -8.796875 C 12.535156 -8.984375 12.1875 -9.078125 11.78125 -9.078125 C 11.050781 -9.078125 10.441406 -8.832031 9.953125 -8.34375 C 9.472656 -7.863281 9.234375 -7.09375 9.234375 -6.03125 L 9.234375 0 L 7.484375 0 L 7.484375 -6.734375 C 7.484375 -7.515625 7.335938 -8.097656 7.046875 -8.484375 C 6.765625 -8.878906 6.296875 -9.078125 5.640625 -9.078125 C 5.148438 -9.078125 4.691406 -8.945312 4.265625 -8.6875 C 3.847656 -8.425781 3.546875 -8.046875 3.359375 -7.546875 C 3.171875 -7.046875 3.078125 -6.320312 3.078125 -5.375 L 3.078125 0 Z M 1.3125 0 "></path>
</symbol>
<symbol overflow="visible" id="glyph0-4">
<path style="stroke:none;" d="M 1.3125 3.96875 L 1.3125 -10.375 L 2.921875 -10.375 L 2.921875 -9.03125 C 3.296875 -9.550781 3.71875 -9.941406 4.1875 -10.203125 C 4.664062 -10.472656 5.242188 -10.609375 5.921875 -10.609375 C 6.804688 -10.609375 7.585938 -10.378906 8.265625 -9.921875 C 8.941406 -9.460938 9.453125 -8.816406 9.796875 -7.984375 C 10.148438 -7.160156 10.328125 -6.253906 10.328125 -5.265625 C 10.328125 -4.203125 10.132812 -3.242188 9.75 -2.390625 C 9.375 -1.546875 8.820312 -0.894531 8.09375 -0.4375 C 7.363281 0.0078125 6.597656 0.234375 5.796875 0.234375 C 5.210938 0.234375 4.6875 0.109375 4.21875 -0.140625 C 3.757812 -0.390625 3.378906 -0.703125 3.078125 -1.078125 L 3.078125 3.96875 Z M 2.90625 -5.125 C 2.90625 -3.789062 3.175781 -2.804688 3.71875 -2.171875 C 4.257812 -1.535156 4.914062 -1.21875 5.6875 -1.21875 C 6.46875 -1.21875 7.132812 -1.546875 7.6875 -2.203125 C 8.25 -2.859375 8.53125 -3.882812 8.53125 -5.28125 C 8.53125 -6.59375 8.253906 -7.578125 7.703125 -8.234375 C 7.160156 -8.898438 6.515625 -9.234375 5.765625 -9.234375 C 5.015625 -9.234375 4.347656 -8.878906 3.765625 -8.171875 C 3.191406 -7.472656 2.90625 -6.457031 2.90625 -5.125 Z M 2.90625 -5.125 "></path>
</symbol>
<symbol overflow="visible" id="glyph0-5">
<path style="stroke:none;" d="M 1.296875 0 L 1.296875 -10.375 L 2.875 -10.375 L 2.875 -8.796875 C 3.28125 -9.535156 3.65625 -10.019531 4 -10.25 C 4.34375 -10.488281 4.71875 -10.609375 5.125 -10.609375 C 5.71875 -10.609375 6.320312 -10.421875 6.9375 -10.046875 L 6.328125 -8.40625 C 5.898438 -8.664062 5.472656 -8.796875 5.046875 -8.796875 C 4.660156 -8.796875 4.3125 -8.675781 4 -8.4375 C 3.695312 -8.207031 3.476562 -7.890625 3.34375 -7.484375 C 3.15625 -6.859375 3.0625 -6.175781 3.0625 -5.4375 L 3.0625 0 Z M 1.296875 0 "></path>
</symbol>
<symbol overflow="visible" id="glyph0-6">
<path style="stroke:none;" d="M 8.09375 -1.28125 C 7.4375 -0.726562 6.804688 -0.335938 6.203125 -0.109375 C 5.597656 0.117188 4.953125 0.234375 4.265625 0.234375 C 3.128906 0.234375 2.253906 -0.0390625 1.640625 -0.59375 C 1.023438 -1.15625 0.71875 -1.867188 0.71875 -2.734375 C 0.71875 -3.242188 0.832031 -3.707031 1.0625 -4.125 C 1.300781 -4.539062 1.609375 -4.875 1.984375 -5.125 C 2.359375 -5.382812 2.78125 -5.582031 3.25 -5.71875 C 3.59375 -5.800781 4.113281 -5.890625 4.8125 -5.984375 C 6.226562 -6.148438 7.269531 -6.347656 7.9375 -6.578125 C 7.945312 -6.816406 7.953125 -6.972656 7.953125 -7.046875 C 7.953125 -7.753906 7.785156 -8.257812 7.453125 -8.5625 C 7.003906 -8.957031 6.335938 -9.15625 5.453125 -9.15625 C 4.617188 -9.15625 4.003906 -9.007812 3.609375 -8.71875 C 3.222656 -8.425781 2.9375 -7.910156 2.75 -7.171875 L 1.03125 -7.40625 C 1.1875 -8.144531 1.441406 -8.738281 1.796875 -9.1875 C 2.148438 -9.644531 2.664062 -9.992188 3.34375 -10.234375 C 4.019531 -10.484375 4.804688 -10.609375 5.703125 -10.609375 C 6.585938 -10.609375 7.304688 -10.503906 7.859375 -10.296875 C 8.410156 -10.085938 8.816406 -9.820312 9.078125 -9.5 C 9.335938 -9.1875 9.519531 -8.789062 9.625 -8.3125 C 9.6875 -8.007812 9.71875 -7.46875 9.71875 -6.6875 L 9.71875 -4.34375 C 9.71875 -2.707031 9.753906 -1.671875 9.828125 -1.234375 C 9.898438 -0.804688 10.050781 -0.394531 10.28125 0 L 8.4375 0 C 8.257812 -0.363281 8.144531 -0.789062 8.09375 -1.28125 Z M 7.9375 -5.203125 C 7.300781 -4.941406 6.34375 -4.722656 5.0625 -4.546875 C 4.34375 -4.441406 3.832031 -4.320312 3.53125 -4.1875 C 3.238281 -4.0625 3.007812 -3.875 2.84375 -3.625 C 2.675781 -3.375 2.59375 -3.09375 2.59375 -2.78125 C 2.59375 -2.3125 2.769531 -1.921875 3.125 -1.609375 C 3.476562 -1.296875 4 -1.140625 4.6875 -1.140625 C 5.363281 -1.140625 5.960938 -1.285156 6.484375 -1.578125 C 7.015625 -1.878906 7.40625 -2.285156 7.65625 -2.796875 C 7.84375 -3.203125 7.9375 -3.789062 7.9375 -4.5625 Z M 7.9375 -5.203125 "></path>
</symbol>
<symbol overflow="visible" id="glyph0-7">
<path style="stroke:none;" d="M 8.109375 0 L 8.109375 -1.53125 C 7.304688 -0.351562 6.210938 0.234375 4.828125 0.234375 C 4.210938 0.234375 3.640625 0.117188 3.109375 -0.109375 C 2.578125 -0.347656 2.179688 -0.644531 1.921875 -1 C 1.671875 -1.351562 1.492188 -1.789062 1.390625 -2.3125 C 1.316406 -2.65625 1.28125 -3.203125 1.28125 -3.953125 L 1.28125 -10.375 L 3.03125 -10.375 L 3.03125 -4.625 C 3.03125 -3.707031 3.066406 -3.085938 3.140625 -2.765625 C 3.253906 -2.304688 3.488281 -1.941406 3.84375 -1.671875 C 4.207031 -1.410156 4.648438 -1.28125 5.171875 -1.28125 C 5.703125 -1.28125 6.195312 -1.414062 6.65625 -1.6875 C 7.125 -1.957031 7.453125 -2.320312 7.640625 -2.78125 C 7.835938 -3.25 7.9375 -3.925781 7.9375 -4.8125 L 7.9375 -10.375 L 9.6875 -10.375 L 9.6875 0 Z M 8.109375 0 "></path>
</symbol>
<symbol overflow="visible" id="glyph0-8">
<path style="stroke:none;" d=""></path>
</symbol>
<symbol overflow="visible" id="glyph0-9">
<path style="stroke:none;" d="M 4.671875 4.203125 C 3.703125 2.984375 2.882812 1.554688 2.21875 -0.078125 C 1.550781 -1.722656 1.21875 -3.425781 1.21875 -5.1875 C 1.21875 -6.738281 1.46875 -8.222656 1.96875 -9.640625 C 2.550781 -11.285156 3.453125 -12.925781 4.671875 -14.5625 L 5.9375 -14.5625 C 5.144531 -13.207031 4.625 -12.238281 4.375 -11.65625 C 3.976562 -10.757812 3.664062 -9.820312 3.4375 -8.84375 C 3.15625 -7.625 3.015625 -6.398438 3.015625 -5.171875 C 3.015625 -2.046875 3.988281 1.078125 5.9375 4.203125 Z M 4.671875 4.203125 "></path>
</symbol>
<symbol overflow="visible" id="glyph0-10">
<path style="stroke:none;" d="M 1.25 -11.859375 C 1.25 -12.609375 1.515625 -13.242188 2.046875 -13.765625 C 2.578125 -14.296875 3.210938 -14.5625 3.953125 -14.5625 C 4.710938 -14.5625 5.351562 -14.296875 5.875 -13.765625 C 6.40625 -13.242188 6.671875 -12.609375 6.671875 -11.859375 C 6.671875 -11.109375 6.40625 -10.46875 5.875 -9.9375 C 5.34375 -9.40625 4.703125 -9.140625 3.953125 -9.140625 C 3.210938 -9.140625 2.578125 -9.398438 2.046875 -9.921875 C 1.515625 -10.453125 1.25 -11.097656 1.25 -11.859375 Z M 2.3125 -11.859375 C 2.3125 -11.398438 2.472656 -11.007812 2.796875 -10.6875 C 3.117188 -10.363281 3.507812 -10.203125 3.96875 -10.203125 C 4.414062 -10.203125 4.800781 -10.363281 5.125 -10.6875 C 5.445312 -11.007812 5.609375 -11.398438 5.609375 -11.859375 C 5.609375 -12.316406 5.445312 -12.703125 5.125 -13.015625 C 4.800781 -13.335938 4.414062 -13.5 3.96875 -13.5 C 3.507812 -13.5 3.117188 -13.335938 2.796875 -13.015625 C 2.472656 -12.703125 2.3125 -12.316406 2.3125 -11.859375 Z M 2.3125 -11.859375 "></path>
</symbol>
<symbol overflow="visible" id="glyph0-11">
<path style="stroke:none;" d="M 11.765625 -5.015625 L 13.65625 -4.546875 C 13.257812 -2.984375 12.546875 -1.789062 11.515625 -0.96875 C 10.484375 -0.15625 9.21875 0.25 7.71875 0.25 C 6.175781 0.25 4.921875 -0.0625 3.953125 -0.6875 C 2.992188 -1.320312 2.257812 -2.234375 1.75 -3.421875 C 1.25 -4.617188 1 -5.898438 1 -7.265625 C 1 -8.753906 1.28125 -10.050781 1.84375 -11.15625 C 2.414062 -12.269531 3.226562 -13.113281 4.28125 -13.6875 C 5.332031 -14.269531 6.488281 -14.5625 7.75 -14.5625 C 9.1875 -14.5625 10.390625 -14.195312 11.359375 -13.46875 C 12.335938 -12.738281 13.019531 -11.710938 13.40625 -10.390625 L 11.546875 -9.953125 C 11.210938 -10.992188 10.726562 -11.75 10.09375 -12.21875 C 9.46875 -12.695312 8.675781 -12.9375 7.71875 -12.9375 C 6.613281 -12.9375 5.691406 -12.671875 4.953125 -12.140625 C 4.210938 -11.617188 3.691406 -10.910156 3.390625 -10.015625 C 3.097656 -9.128906 2.953125 -8.21875 2.953125 -7.28125 C 2.953125 -6.0625 3.128906 -4.992188 3.484375 -4.078125 C 3.835938 -3.171875 4.390625 -2.492188 5.140625 -2.046875 C 5.890625 -1.597656 6.695312 -1.375 7.5625 -1.375 C 8.625 -1.375 9.523438 -1.679688 10.265625 -2.296875 C 11.003906 -2.910156 11.503906 -3.816406 11.765625 -5.015625 Z M 11.765625 -5.015625 "></path>
</symbol>
<symbol overflow="visible" id="glyph0-12">
<path style="stroke:none;" d="M 2.46875 4.203125 L 1.21875 4.203125 C 3.15625 1.078125 4.125 -2.046875 4.125 -5.171875 C 4.125 -6.398438 3.988281 -7.613281 3.71875 -8.8125 C 3.488281 -9.789062 3.175781 -10.726562 2.78125 -11.625 C 2.53125 -12.21875 2.007812 -13.195312 1.21875 -14.5625 L 2.46875 -14.5625 C 3.695312 -12.925781 4.601562 -11.285156 5.1875 -9.640625 C 5.6875 -8.222656 5.9375 -6.738281 5.9375 -5.1875 C 5.9375 -3.425781 5.597656 -1.722656 4.921875 -0.078125 C 4.253906 1.554688 3.4375 2.984375 2.46875 4.203125 Z M 2.46875 4.203125 "></path>
</symbol>
<symbol overflow="visible" id="glyph0-13">
<path style="stroke:none;" d="M 7.453125 0 L 5.6875 0 L 5.6875 -11.203125 C 5.269531 -10.796875 4.71875 -10.390625 4.03125 -9.984375 C 3.34375 -9.585938 2.722656 -9.285156 2.171875 -9.078125 L 2.171875 -10.78125 C 3.160156 -11.238281 4.019531 -11.796875 4.75 -12.453125 C 5.488281 -13.117188 6.007812 -13.757812 6.3125 -14.375 L 7.453125 -14.375 Z M 7.453125 0 "></path>
</symbol>
<symbol overflow="visible" id="glyph0-14">
<path style="stroke:none;" d="M 3.53125 -7.765625 C 2.800781 -8.035156 2.257812 -8.414062 1.90625 -8.90625 C 1.5625 -9.40625 1.390625 -10 1.390625 -10.6875 C 1.390625 -11.726562 1.765625 -12.601562 2.515625 -13.3125 C 3.265625 -14.019531 4.257812 -14.375 5.5 -14.375 C 6.75 -14.375 7.753906 -14.007812 8.515625 -13.28125 C 9.273438 -12.5625 9.65625 -11.679688 9.65625 -10.640625 C 9.65625 -9.972656 9.476562 -9.394531 9.125 -8.90625 C 8.78125 -8.414062 8.253906 -8.035156 7.546875 -7.765625 C 8.429688 -7.472656 9.101562 -7.007812 9.5625 -6.375 C 10.019531 -5.738281 10.25 -4.976562 10.25 -4.09375 C 10.25 -2.863281 9.8125 -1.832031 8.9375 -1 C 8.070312 -0.164062 6.9375 0.25 5.53125 0.25 C 4.113281 0.25 2.972656 -0.164062 2.109375 -1 C 1.242188 -1.84375 0.8125 -2.890625 0.8125 -4.140625 C 0.8125 -5.066406 1.046875 -5.84375 1.515625 -6.46875 C 1.992188 -7.101562 2.664062 -7.535156 3.53125 -7.765625 Z M 3.1875 -10.75 C 3.1875 -10.070312 3.40625 -9.515625 3.84375 -9.078125 C 4.28125 -8.648438 4.84375 -8.4375 5.53125 -8.4375 C 6.207031 -8.4375 6.765625 -8.648438 7.203125 -9.078125 C 7.640625 -9.503906 7.859375 -10.023438 7.859375 -10.640625 C 7.859375 -11.285156 7.632812 -11.828125 7.1875 -12.265625 C 6.738281 -12.710938 6.179688 -12.9375 5.515625 -12.9375 C 4.847656 -12.9375 4.289062 -12.71875 3.84375 -12.28125 C 3.40625 -11.851562 3.1875 -11.34375 3.1875 -10.75 Z M 2.625 -4.125 C 2.625 -3.625 2.738281 -3.140625 2.96875 -2.671875 C 3.207031 -2.203125 3.5625 -1.835938 4.03125 -1.578125 C 4.5 -1.328125 5.003906 -1.203125 5.546875 -1.203125 C 6.390625 -1.203125 7.082031 -1.472656 7.625 -2.015625 C 8.175781 -2.554688 8.453125 -3.242188 8.453125 -4.078125 C 8.453125 -4.921875 8.171875 -5.617188 7.609375 -6.171875 C 7.046875 -6.722656 6.335938 -7 5.484375 -7 C 4.660156 -7 3.976562 -6.722656 3.4375 -6.171875 C 2.894531 -5.628906 2.625 -4.945312 2.625 -4.125 Z M 2.625 -4.125 "></path>
</symbol>
<symbol overflow="visible" id="glyph0-15">
<path style="stroke:none;" d="M 10.0625 -1.6875 L 10.0625 0 L 0.609375 0 C 0.597656 -0.425781 0.664062 -0.832031 0.8125 -1.21875 C 1.050781 -1.863281 1.4375 -2.5 1.96875 -3.125 C 2.5 -3.75 3.265625 -4.472656 4.265625 -5.296875 C 5.828125 -6.566406 6.878906 -7.570312 7.421875 -8.3125 C 7.972656 -9.0625 8.25 -9.769531 8.25 -10.4375 C 8.25 -11.132812 8 -11.722656 7.5 -12.203125 C 7 -12.679688 6.347656 -12.921875 5.546875 -12.921875 C 4.703125 -12.921875 4.023438 -12.664062 3.515625 -12.15625 C 3.003906 -11.644531 2.75 -10.941406 2.75 -10.046875 L 0.9375 -10.234375 C 1.0625 -11.578125 1.523438 -12.601562 2.328125 -13.3125 C 3.140625 -14.019531 4.226562 -14.375 5.59375 -14.375 C 6.957031 -14.375 8.039062 -13.992188 8.84375 -13.234375 C 9.644531 -12.472656 10.046875 -11.53125 10.046875 -10.40625 C 10.046875 -9.832031 9.925781 -9.265625 9.6875 -8.703125 C 9.457031 -8.148438 9.070312 -7.566406 8.53125 -6.953125 C 7.988281 -6.347656 7.085938 -5.507812 5.828125 -4.4375 C 4.765625 -3.550781 4.082031 -2.953125 3.78125 -2.640625 C 3.488281 -2.328125 3.242188 -2.007812 3.046875 -1.6875 Z M 10.0625 -1.6875 "></path>
</symbol>
<symbol overflow="visible" id="glyph0-16">
<path style="stroke:none;" d="M 9.953125 -10.8125 L 8.203125 -10.671875 C 8.046875 -11.359375 7.828125 -11.859375 7.546875 -12.171875 C 7.066406 -12.679688 6.476562 -12.9375 5.78125 -12.9375 C 5.21875 -12.9375 4.726562 -12.78125 4.3125 -12.46875 C 3.757812 -12.0625 3.320312 -11.46875 3 -10.6875 C 2.675781 -9.914062 2.507812 -8.816406 2.5 -7.390625 C 2.925781 -8.023438 3.441406 -8.5 4.046875 -8.8125 C 4.660156 -9.125 5.304688 -9.28125 5.984375 -9.28125 C 7.148438 -9.28125 8.144531 -8.847656 8.96875 -7.984375 C 9.789062 -7.128906 10.203125 -6.019531 10.203125 -4.65625 C 10.203125 -3.75 10.007812 -2.910156 9.625 -2.140625 C 9.238281 -1.367188 8.707031 -0.773438 8.03125 -0.359375 C 7.351562 0.046875 6.582031 0.25 5.71875 0.25 C 4.257812 0.25 3.066406 -0.285156 2.140625 -1.359375 C 1.210938 -2.441406 0.75 -4.222656 0.75 -6.703125 C 0.75 -9.460938 1.257812 -11.472656 2.28125 -12.734375 C 3.175781 -13.828125 4.378906 -14.375 5.890625 -14.375 C 7.015625 -14.375 7.9375 -14.054688 8.65625 -13.421875 C 9.375 -12.796875 9.804688 -11.925781 9.953125 -10.8125 Z M 2.78125 -4.640625 C 2.78125 -4.035156 2.90625 -3.457031 3.15625 -2.90625 C 3.414062 -2.351562 3.773438 -1.929688 4.234375 -1.640625 C 4.703125 -1.347656 5.1875 -1.203125 5.6875 -1.203125 C 6.4375 -1.203125 7.078125 -1.5 7.609375 -2.09375 C 8.140625 -2.695312 8.40625 -3.515625 8.40625 -4.546875 C 8.40625 -5.535156 8.140625 -6.3125 7.609375 -6.875 C 7.085938 -7.445312 6.425781 -7.734375 5.625 -7.734375 C 4.832031 -7.734375 4.160156 -7.445312 3.609375 -6.875 C 3.054688 -6.3125 2.78125 -5.566406 2.78125 -4.640625 Z M 2.78125 -4.640625 "></path>
</symbol>
<symbol overflow="visible" id="glyph0-17">
<path style="stroke:none;" d="M 0.84375 -3.78125 L 2.59375 -4.015625 C 2.800781 -3.015625 3.144531 -2.296875 3.625 -1.859375 C 4.113281 -1.421875 4.707031 -1.203125 5.40625 -1.203125 C 6.226562 -1.203125 6.921875 -1.488281 7.484375 -2.0625 C 8.054688 -2.632812 8.34375 -3.34375 8.34375 -4.1875 C 8.34375 -5 8.078125 -5.664062 7.546875 -6.1875 C 7.023438 -6.707031 6.359375 -6.96875 5.546875 -6.96875 C 5.210938 -6.96875 4.800781 -6.90625 4.3125 -6.78125 L 4.5 -8.328125 C 4.613281 -8.304688 4.707031 -8.296875 4.78125 -8.296875 C 5.53125 -8.296875 6.203125 -8.488281 6.796875 -8.875 C 7.398438 -9.269531 7.703125 -9.875 7.703125 -10.6875 C 7.703125 -11.332031 7.484375 -11.867188 7.046875 -12.296875 C 6.609375 -12.722656 6.046875 -12.9375 5.359375 -12.9375 C 4.679688 -12.9375 4.113281 -12.71875 3.65625 -12.28125 C 3.195312 -11.851562 2.90625 -11.210938 2.78125 -10.359375 L 1.015625 -10.671875 C 1.234375 -11.847656 1.722656 -12.757812 2.484375 -13.40625 C 3.242188 -14.050781 4.191406 -14.375 5.328125 -14.375 C 6.109375 -14.375 6.828125 -14.207031 7.484375 -13.875 C 8.140625 -13.539062 8.640625 -13.082031 8.984375 -12.5 C 9.335938 -11.914062 9.515625 -11.300781 9.515625 -10.65625 C 9.515625 -10.039062 9.347656 -9.476562 9.015625 -8.96875 C 8.679688 -8.457031 8.191406 -8.050781 7.546875 -7.75 C 8.390625 -7.5625 9.046875 -7.15625 9.515625 -6.53125 C 9.984375 -5.914062 10.21875 -5.148438 10.21875 -4.234375 C 10.21875 -2.984375 9.757812 -1.921875 8.84375 -1.046875 C 7.9375 -0.179688 6.785156 0.25 5.390625 0.25 C 4.128906 0.25 3.082031 -0.125 2.25 -0.875 C 1.425781 -1.625 0.957031 -2.59375 0.84375 -3.78125 Z M 0.84375 -3.78125 "></path>
</symbol>
<symbol overflow="visible" id="glyph0-18">
<path style="stroke:none;" d="M 0.828125 -7.0625 C 0.828125 -8.75 1 -10.109375 1.34375 -11.140625 C 1.695312 -12.179688 2.21875 -12.976562 2.90625 -13.53125 C 3.59375 -14.09375 4.457031 -14.375 5.5 -14.375 C 6.269531 -14.375 6.941406 -14.21875 7.515625 -13.90625 C 8.097656 -13.601562 8.578125 -13.160156 8.953125 -12.578125 C 9.328125 -11.992188 9.625 -11.28125 9.84375 -10.4375 C 10.0625 -9.601562 10.171875 -8.476562 10.171875 -7.0625 C 10.171875 -5.382812 9.992188 -4.03125 9.640625 -3 C 9.296875 -1.96875 8.78125 -1.164062 8.09375 -0.59375 C 7.414062 -0.03125 6.550781 0.25 5.5 0.25 C 4.113281 0.25 3.03125 -0.242188 2.25 -1.234375 C 1.300781 -2.429688 0.828125 -4.375 0.828125 -7.0625 Z M 2.640625 -7.0625 C 2.640625 -4.707031 2.910156 -3.140625 3.453125 -2.359375 C 4.003906 -1.585938 4.6875 -1.203125 5.5 -1.203125 C 6.300781 -1.203125 6.976562 -1.59375 7.53125 -2.375 C 8.082031 -3.15625 8.359375 -4.71875 8.359375 -7.0625 C 8.359375 -9.414062 8.082031 -10.976562 7.53125 -11.75 C 6.976562 -12.53125 6.296875 -12.921875 5.484375 -12.921875 C 4.671875 -12.921875 4.023438 -12.578125 3.546875 -11.890625 C 2.941406 -11.023438 2.640625 -9.414062 2.640625 -7.0625 Z M 2.640625 -7.0625 "></path>
</symbol>
<symbol overflow="visible" id="glyph0-19">
<path style="stroke:none;" d="M 1.8125 0 L 1.8125 -2 L 3.8125 -2 L 3.8125 0 Z M 1.8125 0 "></path>
</symbol>
<symbol overflow="visible" id="glyph0-20">
<path style="stroke:none;" d="M 6.46875 0 L 6.46875 -3.421875 L 0.25 -3.421875 L 0.25 -5.046875 L 6.78125 -14.3125 L 8.21875 -14.3125 L 8.21875 -5.046875 L 10.15625 -5.046875 L 10.15625 -3.421875 L 8.21875 -3.421875 L 8.21875 0 Z M 6.46875 -5.046875 L 6.46875 -11.5 L 1.984375 -5.046875 Z M 6.46875 -5.046875 "></path>
</symbol>
<symbol overflow="visible" id="glyph1-0">
<path style="stroke:none;" d="M 0 -2.5 L -12.5 -2.5 L -12.5 -12.5 L 0 -12.5 Z M -0.3125 -2.8125 L -0.3125 -12.1875 L -12.1875 -12.1875 L -12.1875 -2.8125 Z M -0.3125 -2.8125 "></path>
</symbol>
<symbol overflow="visible" id="glyph1-1">
<path style="stroke:none;" d="M 4.203125 -4.671875 C 2.984375 -3.703125 1.554688 -2.882812 -0.078125 -2.21875 C -1.722656 -1.550781 -3.425781 -1.21875 -5.1875 -1.21875 C -6.738281 -1.21875 -8.222656 -1.46875 -9.640625 -1.96875 C -11.285156 -2.550781 -12.925781 -3.453125 -14.5625 -4.671875 L -14.5625 -5.9375 C -13.207031 -5.144531 -12.238281 -4.625 -11.65625 -4.375 C -10.757812 -3.976562 -9.820312 -3.664062 -8.84375 -3.4375 C -7.625 -3.15625 -6.398438 -3.015625 -5.171875 -3.015625 C -2.046875 -3.015625 1.078125 -3.988281 4.203125 -5.9375 Z M 4.203125 -4.671875 "></path>
</symbol>
<symbol overflow="visible" id="glyph1-2">
<path style="stroke:none;" d="M -3.09375 -0.609375 L -3.375 -2.359375 C -2.675781 -2.453125 -2.140625 -2.722656 -1.765625 -3.171875 C -1.398438 -3.617188 -1.21875 -4.242188 -1.21875 -5.046875 C -1.21875 -5.847656 -1.378906 -6.441406 -1.703125 -6.828125 C -2.035156 -7.222656 -2.421875 -7.421875 -2.859375 -7.421875 C -3.253906 -7.421875 -3.566406 -7.25 -3.796875 -6.90625 C -3.953125 -6.664062 -4.148438 -6.066406 -4.390625 -5.109375 C -4.722656 -3.816406 -5.003906 -2.921875 -5.234375 -2.421875 C -5.472656 -1.929688 -5.800781 -1.554688 -6.21875 -1.296875 C -6.644531 -1.035156 -7.113281 -0.90625 -7.625 -0.90625 C -8.082031 -0.90625 -8.507812 -1.007812 -8.90625 -1.21875 C -9.300781 -1.4375 -9.628906 -1.726562 -9.890625 -2.09375 C -10.085938 -2.363281 -10.253906 -2.734375 -10.390625 -3.203125 C -10.535156 -3.679688 -10.609375 -4.191406 -10.609375 -4.734375 C -10.609375 -5.546875 -10.488281 -6.257812 -10.25 -6.875 C -10.019531 -7.488281 -9.703125 -7.941406 -9.296875 -8.234375 C -8.898438 -8.523438 -8.367188 -8.726562 -7.703125 -8.84375 L -7.46875 -7.125 C -8 -7.039062 -8.410156 -6.8125 -8.703125 -6.4375 C -9.003906 -6.0625 -9.15625 -5.535156 -9.15625 -4.859375 C -9.15625 -4.046875 -9.019531 -3.46875 -8.75 -3.125 C -8.488281 -2.78125 -8.179688 -2.609375 -7.828125 -2.609375 C -7.597656 -2.609375 -7.390625 -2.679688 -7.203125 -2.828125 C -7.015625 -2.960938 -6.859375 -3.1875 -6.734375 -3.5 C -6.671875 -3.675781 -6.523438 -4.191406 -6.296875 -5.046875 C -5.960938 -6.296875 -5.6875 -7.164062 -5.46875 -7.65625 C -5.257812 -8.144531 -4.953125 -8.53125 -4.546875 -8.8125 C -4.148438 -9.09375 -3.648438 -9.234375 -3.046875 -9.234375 C -2.460938 -9.234375 -1.910156 -9.0625 -1.390625 -8.71875 C -0.867188 -8.375 -0.46875 -7.878906 -0.1875 -7.234375 C 0.09375 -6.585938 0.234375 -5.859375 0.234375 -5.046875 C 0.234375 -3.703125 -0.046875 -2.675781 -0.609375 -1.96875 C -1.171875 -1.257812 -2 -0.804688 -3.09375 -0.609375 Z M -3.09375 -0.609375 "></path>
</symbol>
<symbol overflow="visible" id="glyph1-3">
<path style="stroke:none;" d="M 4.203125 -2.46875 L 4.203125 -1.21875 C 1.078125 -3.15625 -2.046875 -4.125 -5.171875 -4.125 C -6.398438 -4.125 -7.613281 -3.988281 -8.8125 -3.71875 C -9.789062 -3.488281 -10.726562 -3.175781 -11.625 -2.78125 C -12.21875 -2.53125 -13.195312 -2.007812 -14.5625 -1.21875 L -14.5625 -2.46875 C -12.925781 -3.695312 -11.285156 -4.601562 -9.640625 -5.1875 C -8.222656 -5.6875 -6.738281 -5.9375 -5.1875 -5.9375 C -3.425781 -5.9375 -1.722656 -5.597656 -0.078125 -4.921875 C 1.554688 -4.253906 2.984375 -3.4375 4.203125 -2.46875 Z M 4.203125 -2.46875 "></path>
</symbol>
<symbol overflow="visible" id="glyph2-0">
<path style="stroke:none;" d="M 0 -1.625 L -8.125 -1.625 L -8.125 -8.125 L 0 -8.125 Z M -0.203125 -1.828125 L -0.203125 -7.921875 L -7.921875 -7.921875 L -7.921875 -1.828125 Z M -0.203125 -1.828125 "></path>
</symbol>
<symbol overflow="visible" id="glyph2-1">
<path style="stroke:none;" d="M -2.796875 -0.40625 L -3.9375 -0.40625 L -3.9375 -3.921875 L -2.796875 -3.921875 Z M -2.796875 -0.40625 "></path>
</symbol>
<symbol overflow="visible" id="glyph2-2">
<path style="stroke:none;" d="M 0 -4.84375 L 0 -3.703125 L -7.28125 -3.703125 C -7.019531 -3.421875 -6.753906 -3.054688 -6.484375 -2.609375 C -6.222656 -2.171875 -6.03125 -1.773438 -5.90625 -1.421875 L -7.015625 -1.421875 C -7.304688 -2.054688 -7.664062 -2.613281 -8.09375 -3.09375 C -8.519531 -3.570312 -8.9375 -3.910156 -9.34375 -4.109375 L -9.34375 -4.84375 Z M 0 -4.84375 "></path>
</symbol>
</g>
</defs>
<g id="surface1">
<path style="fill:none;stroke-width:0.5;stroke-linecap:butt;stroke-linejoin:round;stroke:rgb(13.725491%,13.725491%,13.725491%);stroke-opacity:0.14902;stroke-miterlimit:10;" d="M -196.284765 -37.79433 L -196.284765 -124.184061 " transform="matrix(3.542449,0,0,3.542449,814.942123,449.657937)"></path>
<path style="fill:none;stroke-width:0.5;stroke-linecap:butt;stroke-linejoin:round;stroke:rgb(13.725491%,13.725491%,13.725491%);stroke-opacity:0.14902;stroke-miterlimit:10;" d="M -179.006598 -37.79433 L -179.006598 -124.184061 " transform="matrix(3.542449,0,0,3.542449,814.942123,449.657937)"></path>
<path style="fill:none;stroke-width:0.5;stroke-linecap:butt;stroke-linejoin:round;stroke:rgb(13.725491%,13.725491%,13.725491%);stroke-opacity:0.14902;stroke-miterlimit:10;" d="M -161.728431 -37.79433 L -161.728431 -124.184061 " transform="matrix(3.542449,0,0,3.542449,814.942123,449.657937)"></path>
<path style="fill:none;stroke-width:0.5;stroke-linecap:butt;stroke-linejoin:round;stroke:rgb(13.725491%,13.725491%,13.725491%);stroke-opacity:0.14902;stroke-miterlimit:10;" d="M -144.450265 -37.79433 L -144.450265 -124.184061 " transform="matrix(3.542449,0,0,3.542449,814.942123,449.657937)"></path>
<path style="fill:none;stroke-width:0.5;stroke-linecap:butt;stroke-linejoin:round;stroke:rgb(13.725491%,13.725491%,13.725491%);stroke-opacity:0.14902;stroke-miterlimit:10;" d="M -127.172098 -37.79433 L -127.172098 -124.184061 " transform="matrix(3.542449,0,0,3.542449,814.942123,449.657937)"></path>
<path style="fill:none;stroke-width:0.130895;stroke-linecap:butt;stroke-linejoin:round;stroke:rgb(13.725491%,13.725491%,13.725491%);stroke-opacity:0.14902;stroke-miterlimit:10;" d="M -118.533566 -37.79433 L -204.923297 -37.79433 " transform="matrix(3.542449,0,0,3.542449,814.942123,449.657937)"></path>
<path style="fill:none;stroke-width:0.5;stroke-linecap:square;stroke-linejoin:round;stroke:rgb(13.725491%,13.725491%,13.725491%);stroke-opacity:1;stroke-miterlimit:10;" d="M -204.923297 -37.79433 L -118.533566 -37.79433 " transform="matrix(3.542449,0,0,3.542449,814.942123,449.657937)"></path>
<path style="fill:none;stroke-width:0.5;stroke-linecap:square;stroke-linejoin:round;stroke:rgb(13.725491%,13.725491%,13.725491%);stroke-opacity:1;stroke-miterlimit:10;" d="M -196.284765 -37.79433 L -196.284765 -38.657742 " transform="matrix(3.542449,0,0,3.542449,814.942123,449.657937)"></path>
<path style="fill:none;stroke-width:0.5;stroke-linecap:square;stroke-linejoin:round;stroke:rgb(13.725491%,13.725491%,13.725491%);stroke-opacity:1;stroke-miterlimit:10;" d="M -179.006598 -37.79433 L -179.006598 -38.657742 " transform="matrix(3.542449,0,0,3.542449,814.942123,449.657937)"></path>
<path style="fill:none;stroke-width:0.5;stroke-linecap:square;stroke-linejoin:round;stroke:rgb(13.725491%,13.725491%,13.725491%);stroke-opacity:1;stroke-miterlimit:10;" d="M -161.728431 -37.79433 L -161.728431 -38.657742 " transform="matrix(3.542449,0,0,3.542449,814.942123,449.657937)"></path>
<path style="fill:none;stroke-width:0.5;stroke-linecap:square;stroke-linejoin:round;stroke:rgb(13.725491%,13.725491%,13.725491%);stroke-opacity:1;stroke-miterlimit:10;" d="M -144.450265 -37.79433 L -144.450265 -38.657742 " transform="matrix(3.542449,0,0,3.542449,814.942123,449.657937)"></path>
<path style="fill:none;stroke-width:0.5;stroke-linecap:square;stroke-linejoin:round;stroke:rgb(13.725491%,13.725491%,13.725491%);stroke-opacity:1;stroke-miterlimit:10;" d="M -127.172098 -37.79433 L -127.172098 -38.657742 " transform="matrix(3.542449,0,0,3.542449,814.942123,449.657937)"></path>
<path style="fill:none;stroke-width:0.5;stroke-linecap:square;stroke-linejoin:round;stroke:rgb(13.725491%,13.725491%,13.725491%);stroke-opacity:1;stroke-miterlimit:10;" d="M -204.923297 -37.79433 L -204.923297 -124.184061 " transform="matrix(3.542449,0,0,3.542449,814.942123,449.657937)"></path>
<path style="fill:none;stroke-width:0.5;stroke-linecap:square;stroke-linejoin:round;stroke:rgb(13.725491%,13.725491%,13.725491%);stroke-opacity:1;stroke-miterlimit:10;" d="M -204.923297 -37.79433 L -204.059885 -37.79433 " transform="matrix(3.542449,0,0,3.542449,814.942123,449.657937)"></path>
<path style="fill:none;stroke-width:0.5;stroke-linecap:square;stroke-linejoin:round;stroke:rgb(13.725491%,13.725491%,13.725491%);stroke-opacity:1;stroke-miterlimit:10;" d="M -204.923297 -53.501153 L -204.059885 -53.501153 " transform="matrix(3.542449,0,0,3.542449,814.942123,449.657937)"></path>
<path style="fill:none;stroke-width:0.5;stroke-linecap:square;stroke-linejoin:round;stroke:rgb(13.725491%,13.725491%,13.725491%);stroke-opacity:1;stroke-miterlimit:10;" d="M -204.923297 -69.209078 L -204.059885 -69.209078 " transform="matrix(3.542449,0,0,3.542449,814.942123,449.657937)"></path>
<path style="fill:none;stroke-width:0.5;stroke-linecap:square;stroke-linejoin:round;stroke:rgb(13.725491%,13.725491%,13.725491%);stroke-opacity:1;stroke-miterlimit:10;" d="M -204.923297 -84.915901 L -204.059885 -84.915901 " transform="matrix(3.542449,0,0,3.542449,814.942123,449.657937)"></path>
<path style="fill:none;stroke-width:0.5;stroke-linecap:square;stroke-linejoin:round;stroke:rgb(13.725491%,13.725491%,13.725491%);stroke-opacity:1;stroke-miterlimit:10;" d="M -204.923297 -100.622724 L -204.059885 -100.622724 " transform="matrix(3.542449,0,0,3.542449,814.942123,449.657937)"></path>
<path style="fill:none;stroke-width:0.5;stroke-linecap:square;stroke-linejoin:round;stroke:rgb(13.725491%,13.725491%,13.725491%);stroke-opacity:1;stroke-miterlimit:10;" d="M -204.923297 -116.33065 L -204.059885 -116.33065 " transform="matrix(3.542449,0,0,3.542449,814.942123,449.657937)"></path>
<path style=" stroke:none;fill-rule:nonzero;fill:rgb(12.941177%,26.666668%,47.058824%);fill-opacity:1;" d="M 119.613281 276.742188 C 120.890625 276.742188 121.933594 277.78125 121.933594 279.058594 C 121.933594 280.34375 120.890625 281.378906 119.613281 281.378906 C 118.335938 281.378906 117.296875 280.34375 117.296875 279.058594 C 117.296875 277.78125 118.335938 276.742188 119.613281 276.742188 Z M 119.613281 275.8125 C 117.820312 275.8125 116.367188 277.265625 116.367188 279.058594 C 116.367188 280.851562 117.820312 282.304688 119.613281 282.304688 C 121.40625 282.304688 122.859375 280.851562 122.859375 279.058594 C 122.859375 277.265625 121.40625 275.8125 119.613281 275.8125 Z M 119.613281 275.8125 "></path>
<path style=" stroke:none;fill-rule:nonzero;fill:rgb(12.941177%,26.666668%,47.058824%);fill-opacity:1;" d="M 119.613281 251.402344 C 120.890625 251.402344 121.933594 252.4375 121.933594 253.71875 C 121.933594 255 120.890625 256.039062 119.613281 256.039062 C 118.335938 256.039062 117.296875 255 117.296875 253.71875 C 117.296875 252.4375 118.335938 251.402344 119.613281 251.402344 Z M 119.613281 250.472656 C 117.820312 250.472656 116.367188 251.925781 116.367188 253.71875 C 116.367188 255.511719 117.820312 256.964844 119.613281 256.964844 C 121.40625 256.964844 122.859375 255.511719 122.859375 253.71875 C 122.859375 251.925781 121.40625 250.472656 119.613281 250.472656 Z M 119.613281 250.472656 "></path>
<path style=" stroke:none;fill-rule:nonzero;fill:rgb(12.941177%,26.666668%,47.058824%);fill-opacity:1;" d="M 119.613281 280.617188 C 120.890625 280.617188 121.933594 281.65625 121.933594 282.9375 C 121.933594 284.21875 120.890625 285.253906 119.613281 285.253906 C 118.335938 285.253906 117.296875 284.21875 117.296875 282.9375 C 117.296875 281.65625 118.335938 280.617188 119.613281 280.617188 Z M 119.613281 279.691406 C 117.820312 279.691406 116.367188 281.144531 116.367188 282.9375 C 116.367188 284.730469 117.820312 286.183594 119.613281 286.183594 C 121.40625 286.183594 122.859375 284.730469 122.859375 282.9375 C 122.859375 281.144531 121.40625 279.691406 119.613281 279.691406 Z M 119.613281 279.691406 "></path>
<path style=" stroke:none;fill-rule:nonzero;fill:rgb(12.941177%,26.666668%,47.058824%);fill-opacity:1;" d="M 119.613281 282.792969 C 120.890625 282.792969 121.933594 283.828125 121.933594 285.109375 C 121.933594 286.386719 120.890625 287.429688 119.613281 287.429688 C 118.335938 287.429688 117.296875 286.386719 117.296875 285.109375 C 117.296875 283.828125 118.335938 282.792969 119.613281 282.792969 Z M 119.613281 281.863281 C 117.820312 281.863281 116.367188 283.316406 116.367188 285.109375 C 116.367188 286.902344 117.820312 288.355469 119.613281 288.355469 C 121.40625 288.355469 122.859375 286.902344 122.859375 285.109375 C 122.859375 283.316406 121.40625 281.863281 119.613281 281.863281 Z M 119.613281 281.863281 "></path>
<path style=" stroke:none;fill-rule:nonzero;fill:rgb(12.941177%,26.666668%,47.058824%);fill-opacity:1;" d="M 119.613281 240.046875 C 120.890625 240.046875 121.933594 241.085938 121.933594 242.363281 C 121.933594 243.640625 120.890625 244.683594 119.613281 244.683594 C 118.335938 244.683594 117.296875 243.640625 117.296875 242.363281 C 117.296875 241.085938 118.335938 240.046875 119.613281 240.046875 Z M 119.613281 239.117188 C 117.820312 239.117188 116.367188 240.570312 116.367188 242.363281 C 116.367188 244.15625 117.820312 245.609375 119.613281 245.609375 C 121.40625 245.609375 122.859375 244.15625 122.859375 242.363281 C 122.859375 240.570312 121.40625 239.117188 119.613281 239.117188 Z M 119.613281 239.117188 "></path>
<path style=" stroke:none;fill-rule:nonzero;fill:rgb(12.941177%,26.666668%,47.058824%);fill-opacity:1;" d="M 119.613281 269.828125 C 120.890625 269.828125 121.933594 270.871094 121.933594 272.148438 C 121.933594 273.429688 120.890625 274.464844 119.613281 274.464844 C 118.335938 274.464844 117.296875 273.429688 117.296875 272.148438 C 117.296875 270.871094 118.335938 269.828125 119.613281 269.828125 Z M 119.613281 268.902344 C 117.820312 268.902344 116.367188 270.359375 116.367188 272.148438 C 116.367188 273.941406 117.820312 275.394531 119.613281 275.394531 C 121.40625 275.394531 122.859375 273.941406 122.859375 272.148438 C 122.859375 270.359375 121.40625 268.902344 119.613281 268.902344 Z M 119.613281 268.902344 "></path>
<path style=" stroke:none;fill-rule:nonzero;fill:rgb(12.941177%,26.666668%,47.058824%);fill-opacity:1;" d="M 119.613281 262.984375 C 120.890625 262.984375 121.933594 264.019531 121.933594 265.300781 C 121.933594 266.582031 120.890625 267.621094 119.613281 267.621094 C 118.335938 267.621094 117.296875 266.582031 117.296875 265.300781 C 117.296875 264.019531 118.335938 262.984375 119.613281 262.984375 Z M 119.613281 262.054688 C 117.820312 262.054688 116.367188 263.507812 116.367188 265.300781 C 116.367188 267.09375 117.820312 268.546875 119.613281 268.546875 C 121.40625 268.546875 122.859375 267.09375 122.859375 265.300781 C 122.859375 263.507812 121.40625 262.054688 119.613281 262.054688 Z M 119.613281 262.054688 "></path>
<path style=" stroke:none;fill-rule:nonzero;fill:rgb(12.941177%,26.666668%,47.058824%);fill-opacity:1;" d="M 119.613281 290.699219 C 120.890625 290.699219 121.933594 291.734375 121.933594 293.015625 C 121.933594 294.296875 120.890625 295.335938 119.613281 295.335938 C 118.335938 295.335938 117.296875 294.296875 117.296875 293.015625 C 117.296875 291.734375 118.335938 290.699219 119.613281 290.699219 Z M 119.613281 289.773438 C 117.820312 289.773438 116.367188 291.222656 116.367188 293.015625 C 116.367188 294.8125 117.820312 296.261719 119.613281 296.261719 C 121.40625 296.261719 122.859375 294.8125 122.859375 293.015625 C 122.859375 291.222656 121.40625 289.773438 119.613281 289.773438 Z M 119.613281 289.773438 "></path>
<path style=" stroke:none;fill-rule:nonzero;fill:rgb(12.941177%,26.666668%,47.058824%);fill-opacity:1;" d="M 119.613281 300.03125 C 120.890625 300.03125 121.933594 301.066406 121.933594 302.347656 C 121.933594 303.628906 120.890625 304.667969 119.613281 304.667969 C 118.335938 304.667969 117.296875 303.628906 117.296875 302.347656 C 117.296875 301.066406 118.335938 300.03125 119.613281 300.03125 Z M 119.613281 299.101562 C 117.820312 299.101562 116.367188 300.554688 116.367188 302.347656 C 116.367188 304.140625 117.820312 305.59375 119.613281 305.59375 C 121.40625 305.59375 122.859375 304.140625 122.859375 302.347656 C 122.859375 300.554688 121.40625 299.101562 119.613281 299.101562 Z M 119.613281 299.101562 "></path>
<path style=" stroke:none;fill-rule:nonzero;fill:rgb(12.941177%,26.666668%,47.058824%);fill-opacity:1;" d="M 119.613281 309.90625 C 120.890625 309.90625 121.933594 310.949219 121.933594 312.226562 C 121.933594 313.507812 120.890625 314.542969 119.613281 314.542969 C 118.335938 314.542969 117.296875 313.507812 117.296875 312.226562 C 117.296875 310.949219 118.335938 309.90625 119.613281 309.90625 Z M 119.613281 308.980469 C 117.820312 308.980469 116.367188 310.4375 116.367188 312.226562 C 116.367188 314.019531 117.820312 315.472656 119.613281 315.472656 C 121.40625 315.472656 122.859375 314.019531 122.859375 312.226562 C 122.859375 310.4375 121.40625 308.980469 119.613281 308.980469 Z M 119.613281 308.980469 "></path>
<path style=" stroke:none;fill-rule:nonzero;fill:rgb(12.941177%,26.666668%,47.058824%);fill-opacity:0.2;" d="M 104.3125 293.015625 L 134.914062 293.015625 L 134.914062 265.300781 L 104.3125 265.300781 Z M 104.3125 293.015625 "></path>
<path style="fill:none;stroke-width:0.5;stroke-linecap:butt;stroke-linejoin:round;stroke:rgb(13.725491%,13.725491%,13.725491%);stroke-opacity:1;stroke-miterlimit:10;" d="M -196.284765 -38.043539 L -196.284765 -44.218645 " transform="matrix(3.542449,0,0,3.542449,814.942123,449.657937)"></path>
<path style="fill:none;stroke-width:0.5;stroke-linecap:butt;stroke-linejoin:round;stroke:rgb(13.725491%,13.725491%,13.725491%);stroke-opacity:1;stroke-miterlimit:10;" d="M -196.284765 -52.042284 L -196.284765 -58.517324 " transform="matrix(3.542449,0,0,3.542449,814.942123,449.657937)"></path>
<path style="fill:none;stroke-width:0.5;stroke-linecap:butt;stroke-linejoin:round;stroke:rgb(13.725491%,13.725491%,13.725491%);stroke-opacity:1;stroke-miterlimit:10;" d="M -198.444949 -38.043539 L -194.124581 -38.043539 " transform="matrix(3.542449,0,0,3.542449,814.942123,449.657937)"></path>
<path style="fill:none;stroke-width:0.5;stroke-linecap:butt;stroke-linejoin:round;stroke:rgb(13.725491%,13.725491%,13.725491%);stroke-opacity:1;stroke-miterlimit:10;" d="M -198.444949 -58.517324 L -194.124581 -58.517324 " transform="matrix(3.542449,0,0,3.542449,814.942123,449.657937)"></path>
<path style="fill:none;stroke-width:0.5;stroke-linecap:butt;stroke-linejoin:round;stroke:rgb(12.941177%,26.666668%,47.058824%);stroke-opacity:1;stroke-miterlimit:10;" d="M -200.604031 -47.611645 L -191.965499 -47.611645 " transform="matrix(3.542449,0,0,3.542449,814.942123,449.657937)"></path>
<path style="fill:none;stroke-width:0.5;stroke-linecap:butt;stroke-linejoin:miter;stroke:rgb(12.941177%,26.666668%,47.058824%);stroke-opacity:1;stroke-miterlimit:10;" d="M -200.604031 -44.218645 L -191.965499 -44.218645 L -191.965499 -52.042284 L -200.604031 -52.042284 L -200.604031 -44.218645 " transform="matrix(3.542449,0,0,3.542449,814.942123,449.657937)"></path>
<path style=" stroke:none;fill-rule:nonzero;fill:rgb(23.921569%,58.039218%,29.803923%);fill-opacity:1;" d="M 180.820312 236.261719 C 182.097656 236.261719 183.136719 237.304688 183.136719 238.582031 C 183.136719 239.863281 182.097656 240.898438 180.820312 240.898438 C 179.542969 240.898438 178.5 239.863281 178.5 238.582031 C 178.5 237.304688 179.542969 236.261719 180.820312 236.261719 Z M 180.820312 235.335938 C 179.027344 235.335938 177.574219 236.789062 177.574219 238.582031 C 177.574219 240.375 179.027344 241.828125 180.820312 241.828125 C 182.613281 241.828125 184.066406 240.375 184.066406 238.582031 C 184.066406 236.789062 182.613281 235.335938 180.820312 235.335938 Z M 180.820312 235.335938 "></path>
<path style=" stroke:none;fill-rule:nonzero;fill:rgb(23.921569%,58.039218%,29.803923%);fill-opacity:1;" d="M 180.820312 236.796875 C 182.097656 236.796875 183.136719 237.832031 183.136719 239.113281 C 183.136719 240.394531 182.097656 241.433594 180.820312 241.433594 C 179.542969 241.433594 178.5 240.394531 178.5 239.113281 C 178.5 237.832031 179.542969 236.796875 180.820312 236.796875 Z M 180.820312 235.867188 C 179.027344 235.867188 177.574219 237.320312 177.574219 239.113281 C 177.574219 240.90625 179.027344 242.359375 180.820312 242.359375 C 182.613281 242.359375 184.066406 240.90625 184.066406 239.113281 C 184.066406 237.320312 182.613281 235.867188 180.820312 235.867188 Z M 180.820312 235.867188 "></path>
<path style=" stroke:none;fill-rule:nonzero;fill:rgb(23.921569%,58.039218%,29.803923%);fill-opacity:1;" d="M 180.820312 241.765625 C 182.097656 241.765625 183.136719 242.800781 183.136719 244.085938 C 183.136719 245.363281 182.097656 246.402344 180.820312 246.402344 C 179.542969 246.402344 178.5 245.363281 178.5 244.085938 C 178.5 242.800781 179.542969 241.765625 180.820312 241.765625 Z M 180.820312 240.839844 C 179.027344 240.839844 177.574219 242.289062 177.574219 244.085938 C 177.574219 245.878906 179.027344 247.328125 180.820312 247.328125 C 182.613281 247.328125 184.066406 245.878906 184.066406 244.085938 C 184.066406 242.289062 182.613281 240.839844 180.820312 240.839844 Z M 180.820312 240.839844 "></path>
<path style=" stroke:none;fill-rule:nonzero;fill:rgb(23.921569%,58.039218%,29.803923%);fill-opacity:1;" d="M 180.820312 256.324219 C 182.097656 256.324219 183.136719 257.363281 183.136719 258.644531 C 183.136719 259.925781 182.097656 260.960938 180.820312 260.960938 C 179.542969 260.960938 178.5 259.925781 178.5 258.644531 C 178.5 257.363281 179.542969 256.324219 180.820312 256.324219 Z M 180.820312 255.398438 C 179.027344 255.398438 177.574219 256.851562 177.574219 258.644531 C 177.574219 260.4375 179.027344 261.890625 180.820312 261.890625 C 182.613281 261.890625 184.066406 260.4375 184.066406 258.644531 C 184.066406 256.851562 182.613281 255.398438 180.820312 255.398438 Z M 180.820312 255.398438 "></path>
<path style=" stroke:none;fill-rule:nonzero;fill:rgb(23.921569%,58.039218%,29.803923%);fill-opacity:1;" d="M 180.820312 229.296875 C 182.097656 229.296875 183.136719 230.335938 183.136719 231.617188 C 183.136719 232.898438 182.097656 233.933594 180.820312 233.933594 C 179.542969 233.933594 178.5 232.898438 178.5 231.617188 C 178.5 230.335938 179.542969 229.296875 180.820312 229.296875 Z M 180.820312 228.371094 C 179.027344 228.371094 177.574219 229.820312 177.574219 231.617188 C 177.574219 233.410156 179.027344 234.859375 180.820312 234.859375 C 182.613281 234.859375 184.066406 233.410156 184.066406 231.617188 C 184.066406 229.820312 182.613281 228.371094 180.820312 228.371094 Z M 180.820312 228.371094 "></path>
<path style=" stroke:none;fill-rule:nonzero;fill:rgb(23.921569%,58.039218%,29.803923%);fill-opacity:1;" d="M 180.820312 276.980469 C 182.097656 276.980469 183.136719 278.019531 183.136719 279.300781 C 183.136719 280.582031 182.097656 281.617188 180.820312 281.617188 C 179.542969 281.617188 178.5 280.582031 178.5 279.300781 C 178.5 278.019531 179.542969 276.980469 180.820312 276.980469 Z M 180.820312 276.054688 C 179.027344 276.054688 177.574219 277.507812 177.574219 279.300781 C 177.574219 281.09375 179.027344 282.542969 180.820312 282.542969 C 182.613281 282.542969 184.066406 281.09375 184.066406 279.300781 C 184.066406 277.507812 182.613281 276.054688 180.820312 276.054688 Z M 180.820312 276.054688 "></path>
<path style=" stroke:none;fill-rule:nonzero;fill:rgb(23.921569%,58.039218%,29.803923%);fill-opacity:1;" d="M 180.820312 196.933594 C 182.097656 196.933594 183.136719 197.96875 183.136719 199.25 C 183.136719 200.53125 182.097656 201.570312 180.820312 201.570312 C 179.542969 201.570312 178.5 200.53125 178.5 199.25 C 178.5 197.96875 179.542969 196.933594 180.820312 196.933594 Z M 180.820312 196.003906 C 179.027344 196.003906 177.574219 197.457031 177.574219 199.25 C 177.574219 201.042969 179.027344 202.496094 180.820312 202.496094 C 182.613281 202.496094 184.066406 201.042969 184.066406 199.25 C 184.066406 197.457031 182.613281 196.003906 180.820312 196.003906 Z M 180.820312 196.003906 "></path>
<path style=" stroke:none;fill-rule:nonzero;fill:rgb(23.921569%,58.039218%,29.803923%);fill-opacity:1;" d="M 180.820312 243.972656 C 182.097656 243.972656 183.136719 245.007812 183.136719 246.289062 C 183.136719 247.570312 182.097656 248.609375 180.820312 248.609375 C 179.542969 248.609375 178.5 247.570312 178.5 246.289062 C 178.5 245.007812 179.542969 243.972656 180.820312 243.972656 Z M 180.820312 243.042969 C 179.027344 243.042969 177.574219 244.496094 177.574219 246.289062 C 177.574219 248.082031 179.027344 249.535156 180.820312 249.535156 C 182.613281 249.535156 184.066406 248.082031 184.066406 246.289062 C 184.066406 244.496094 182.613281 243.042969 180.820312 243.042969 Z M 180.820312 243.042969 "></path>
<path style=" stroke:none;fill-rule:nonzero;fill:rgb(23.921569%,58.039218%,29.803923%);fill-opacity:1;" d="M 180.820312 285.59375 C 182.097656 285.59375 183.136719 286.632812 183.136719 287.914062 C 183.136719 289.191406 182.097656 290.230469 180.820312 290.230469 C 179.542969 290.230469 178.5 289.191406 178.5 287.914062 C 178.5 286.632812 179.542969 285.59375 180.820312 285.59375 Z M 180.820312 284.667969 C 179.027344 284.667969 177.574219 286.121094 177.574219 287.914062 C 177.574219 289.707031 179.027344 291.160156 180.820312 291.160156 C 182.613281 291.160156 184.066406 289.707031 184.066406 287.914062 C 184.066406 286.121094 182.613281 284.667969 180.820312 284.667969 Z M 180.820312 284.667969 "></path>
<path style=" stroke:none;fill-rule:nonzero;fill:rgb(23.921569%,58.039218%,29.803923%);fill-opacity:1;" d="M 180.820312 276.957031 C 182.097656 276.957031 183.136719 277.992188 183.136719 279.273438 C 183.136719 280.550781 182.097656 281.59375 180.820312 281.59375 C 179.542969 281.59375 178.5 280.550781 178.5 279.273438 C 178.5 277.992188 179.542969 276.957031 180.820312 276.957031 Z M 180.820312 276.027344 C 179.027344 276.027344 177.574219 277.480469 177.574219 279.273438 C 177.574219 281.0625 179.027344 282.519531 180.820312 282.519531 C 182.613281 282.519531 184.066406 281.0625 184.066406 279.273438 C 184.066406 277.480469 182.613281 276.027344 180.820312 276.027344 Z M 180.820312 276.027344 "></path>
<path style=" stroke:none;fill-rule:nonzero;fill:rgb(23.921569%,58.039218%,29.803923%);fill-opacity:0.2;" d="M 165.519531 279.273438 L 196.121094 279.273438 L 196.121094 238.582031 L 165.519531 238.582031 Z M 165.519531 279.273438 "></path>
<path style="fill:none;stroke-width:0.5;stroke-linecap:butt;stroke-linejoin:round;stroke:rgb(13.725491%,13.725491%,13.725491%);stroke-opacity:1;stroke-miterlimit:10;" d="M -179.006598 -45.658768 L -179.006598 -48.097935 " transform="matrix(3.542449,0,0,3.542449,814.942123,449.657937)"></path>
<path style="fill:none;stroke-width:0.5;stroke-linecap:butt;stroke-linejoin:round;stroke:rgb(13.725491%,13.725491%,13.725491%);stroke-opacity:1;stroke-miterlimit:10;" d="M -179.006598 -59.584735 L -179.006598 -70.687796 " transform="matrix(3.542449,0,0,3.542449,814.942123,449.657937)"></path>
<path style="fill:none;stroke-width:0.5;stroke-linecap:butt;stroke-linejoin:round;stroke:rgb(13.725491%,13.725491%,13.725491%);stroke-opacity:1;stroke-miterlimit:10;" d="M -181.166783 -45.658768 L -176.846414 -45.658768 " transform="matrix(3.542449,0,0,3.542449,814.942123,449.657937)"></path>
<path style="fill:none;stroke-width:0.5;stroke-linecap:butt;stroke-linejoin:round;stroke:rgb(13.725491%,13.725491%,13.725491%);stroke-opacity:1;stroke-miterlimit:10;" d="M -181.166783 -70.687796 L -176.846414 -70.687796 " transform="matrix(3.542449,0,0,3.542449,814.942123,449.657937)"></path>
<path style="fill:none;stroke-width:0.5;stroke-linecap:butt;stroke-linejoin:round;stroke:rgb(23.921569%,58.039218%,29.803923%);stroke-opacity:1;stroke-miterlimit:10;" d="M -183.325864 -57.721176 L -174.687332 -57.721176 " transform="matrix(3.542449,0,0,3.542449,814.942123,449.657937)"></path>
<path style="fill:none;stroke-width:0.5;stroke-linecap:butt;stroke-linejoin:miter;stroke:rgb(23.921569%,58.039218%,29.803923%);stroke-opacity:1;stroke-miterlimit:10;" d="M -183.325864 -48.097935 L -174.687332 -48.097935 L -174.687332 -59.584735 L -183.325864 -59.584735 L -183.325864 -48.097935 " transform="matrix(3.542449,0,0,3.542449,814.942123,449.657937)"></path>
<path style=" stroke:none;fill-rule:nonzero;fill:rgb(85.09804%,70.588237%,14.117648%);fill-opacity:1;" d="M 242.027344 159.890625 C 243.304688 159.890625 244.34375 160.925781 244.34375 162.207031 C 244.34375 163.484375 243.304688 164.527344 242.027344 164.527344 C 240.746094 164.527344 239.707031 163.484375 239.707031 162.207031 C 239.707031 160.925781 240.746094 159.890625 242.027344 159.890625 Z M 242.027344 158.960938 C 240.234375 158.960938 238.78125 160.414062 238.78125 162.207031 C 238.78125 163.996094 240.234375 165.453125 242.027344 165.453125 C 243.820312 165.453125 245.273438 163.996094 245.273438 162.207031 C 245.273438 160.414062 243.820312 158.960938 242.027344 158.960938 Z M 242.027344 158.960938 "></path>
<path style=" stroke:none;fill-rule:nonzero;fill:rgb(85.09804%,70.588237%,14.117648%);fill-opacity:1;" d="M 242.027344 210.195312 C 243.304688 210.195312 244.34375 211.230469 244.34375 212.515625 C 244.34375 213.792969 243.304688 214.832031 242.027344 214.832031 C 240.746094 214.832031 239.707031 213.792969 239.707031 212.515625 C 239.707031 211.230469 240.746094 210.195312 242.027344 210.195312 Z M 242.027344 209.269531 C 240.234375 209.269531 238.78125 210.71875 238.78125 212.515625 C 238.78125 214.308594 240.234375 215.757812 242.027344 215.757812 C 243.820312 215.757812 245.273438 214.308594 245.273438 212.515625 C 245.273438 210.71875 243.820312 209.269531 242.027344 209.269531 Z M 242.027344 209.269531 "></path>
<path style=" stroke:none;fill-rule:nonzero;fill:rgb(85.09804%,70.588237%,14.117648%);fill-opacity:1;" d="M 242.027344 177.898438 C 243.304688 177.898438 244.34375 178.941406 244.34375 180.21875 C 244.34375 181.5 243.304688 182.539062 242.027344 182.539062 C 240.746094 182.539062 239.707031 181.5 239.707031 180.21875 C 239.707031 178.941406 240.746094 177.898438 242.027344 177.898438 Z M 242.027344 176.972656 C 240.234375 176.972656 238.78125 178.425781 238.78125 180.21875 C 238.78125 182.011719 240.234375 183.464844 242.027344 183.464844 C 243.820312 183.464844 245.273438 182.011719 245.273438 180.21875 C 245.273438 178.425781 243.820312 176.972656 242.027344 176.972656 Z M 242.027344 176.972656 "></path>
<path style=" stroke:none;fill-rule:nonzero;fill:rgb(85.09804%,70.588237%,14.117648%);fill-opacity:1;" d="M 242.027344 174.5 C 243.304688 174.5 244.34375 175.539062 244.34375 176.816406 C 244.34375 178.097656 243.304688 179.136719 242.027344 179.136719 C 240.746094 179.136719 239.707031 178.097656 239.707031 176.816406 C 239.707031 175.539062 240.746094 174.5 242.027344 174.5 Z M 242.027344 173.570312 C 240.234375 173.570312 238.78125 175.023438 238.78125 176.816406 C 238.78125 178.609375 240.234375 180.0625 242.027344 180.0625 C 243.820312 180.0625 245.273438 178.609375 245.273438 176.816406 C 245.273438 175.023438 243.820312 173.570312 242.027344 173.570312 Z M 242.027344 173.570312 "></path>
<path style=" stroke:none;fill-rule:nonzero;fill:rgb(85.09804%,70.588237%,14.117648%);fill-opacity:1;" d="M 242.027344 183.785156 C 243.304688 183.785156 244.34375 184.824219 244.34375 186.101562 C 244.34375 187.382812 243.304688 188.421875 242.027344 188.421875 C 240.746094 188.421875 239.707031 187.382812 239.707031 186.101562 C 239.707031 184.824219 240.746094 183.785156 242.027344 183.785156 Z M 242.027344 182.855469 C 240.234375 182.855469 238.78125 184.308594 238.78125 186.101562 C 238.78125 187.894531 240.234375 189.347656 242.027344 189.347656 C 243.820312 189.347656 245.273438 187.894531 245.273438 186.101562 C 245.273438 184.308594 243.820312 182.855469 242.027344 182.855469 Z M 242.027344 182.855469 "></path>
<path style=" stroke:none;fill-rule:nonzero;fill:rgb(85.09804%,70.588237%,14.117648%);fill-opacity:1;" d="M 242.027344 167.851562 C 243.304688 167.851562 244.34375 168.886719 244.34375 170.167969 C 244.34375 171.449219 243.304688 172.488281 242.027344 172.488281 C 240.746094 172.488281 239.707031 171.449219 239.707031 170.167969 C 239.707031 168.886719 240.746094 167.851562 242.027344 167.851562 Z M 242.027344 166.925781 C 240.234375 166.925781 238.78125 168.375 238.78125 170.167969 C 238.78125 171.964844 240.234375 173.414062 242.027344 173.414062 C 243.820312 173.414062 245.273438 171.964844 245.273438 170.167969 C 245.273438 168.375 243.820312 166.925781 242.027344 166.925781 Z M 242.027344 166.925781 "></path>
<path style=" stroke:none;fill-rule:nonzero;fill:rgb(85.09804%,70.588237%,14.117648%);fill-opacity:1;" d="M 242.027344 159.605469 C 243.304688 159.605469 244.34375 160.644531 244.34375 161.925781 C 244.34375 163.207031 243.304688 164.242188 242.027344 164.242188 C 240.746094 164.242188 239.707031 163.207031 239.707031 161.925781 C 239.707031 160.644531 240.746094 159.605469 242.027344 159.605469 Z M 242.027344 158.679688 C 240.234375 158.679688 238.78125 160.132812 238.78125 161.925781 C 238.78125 163.71875 240.234375 165.171875 242.027344 165.171875 C 243.820312 165.171875 245.273438 163.71875 245.273438 161.925781 C 245.273438 160.132812 243.820312 158.679688 242.027344 158.679688 Z M 242.027344 158.679688 "></path>
<path style=" stroke:none;fill-rule:nonzero;fill:rgb(85.09804%,70.588237%,14.117648%);fill-opacity:1;" d="M 242.027344 212.363281 C 243.304688 212.363281 244.34375 213.398438 244.34375 214.675781 C 244.34375 215.957031 243.304688 216.996094 242.027344 216.996094 C 240.746094 216.996094 239.707031 215.957031 239.707031 214.675781 C 239.707031 213.398438 240.746094 212.363281 242.027344 212.363281 Z M 242.027344 211.429688 C 240.234375 211.429688 238.78125 212.886719 238.78125 214.675781 C 238.78125 216.46875 240.234375 217.925781 242.027344 217.925781 C 243.820312 217.925781 245.273438 216.46875 245.273438 214.675781 C 245.273438 212.886719 243.820312 211.429688 242.027344 211.429688 Z M 242.027344 211.429688 "></path>
<path style=" stroke:none;fill-rule:nonzero;fill:rgb(85.09804%,70.588237%,14.117648%);fill-opacity:1;" d="M 242.027344 217.582031 C 243.304688 217.582031 244.34375 218.617188 244.34375 219.898438 C 244.34375 221.179688 243.304688 222.21875 242.027344 222.21875 C 240.746094 222.21875 239.707031 221.179688 239.707031 219.898438 C 239.707031 218.617188 240.746094 217.582031 242.027344 217.582031 Z M 242.027344 216.652344 C 240.234375 216.652344 238.78125 218.105469 238.78125 219.898438 C 238.78125 221.691406 240.234375 223.144531 242.027344 223.144531 C 243.820312 223.144531 245.273438 221.691406 245.273438 219.898438 C 245.273438 218.105469 243.820312 216.652344 242.027344 216.652344 Z M 242.027344 216.652344 "></path>
<path style=" stroke:none;fill-rule:nonzero;fill:rgb(85.09804%,70.588237%,14.117648%);fill-opacity:1;" d="M 242.027344 179.507812 C 243.304688 179.507812 244.34375 180.546875 244.34375 181.828125 C 244.34375 183.109375 243.304688 184.144531 242.027344 184.144531 C 240.746094 184.144531 239.707031 183.109375 239.707031 181.828125 C 239.707031 180.546875 240.746094 179.507812 242.027344 179.507812 Z M 242.027344 178.582031 C 240.234375 178.582031 238.78125 180.035156 238.78125 181.828125 C 238.78125 183.621094 240.234375 185.074219 242.027344 185.074219 C 243.820312 185.074219 245.273438 183.621094 245.273438 181.828125 C 245.273438 180.035156 243.820312 178.582031 242.027344 178.582031 Z M 242.027344 178.582031 "></path>
<path style=" stroke:none;fill-rule:nonzero;fill:rgb(85.09804%,70.588237%,14.117648%);fill-opacity:0.2;" d="M 226.726562 212.515625 L 257.328125 212.515625 L 257.328125 170.167969 L 226.726562 170.167969 Z M 226.726562 212.515625 "></path>
<path style="fill:none;stroke-width:0.5;stroke-linecap:butt;stroke-linejoin:round;stroke:rgb(13.725491%,13.725491%,13.725491%);stroke-opacity:1;stroke-miterlimit:10;" d="M -161.728431 -64.858937 L -161.728431 -66.943035 " transform="matrix(3.542449,0,0,3.542449,814.942123,449.657937)"></path>
<path style="fill:none;stroke-width:0.5;stroke-linecap:butt;stroke-linejoin:round;stroke:rgb(13.725491%,13.725491%,13.725491%);stroke-opacity:1;stroke-miterlimit:10;" d="M -161.728431 -78.897378 L -161.728431 -81.22407 " transform="matrix(3.542449,0,0,3.542449,814.942123,449.657937)"></path>
<path style="fill:none;stroke-width:0.5;stroke-linecap:butt;stroke-linejoin:round;stroke:rgb(13.725491%,13.725491%,13.725491%);stroke-opacity:1;stroke-miterlimit:10;" d="M -163.888616 -64.858937 L -159.56935 -64.858937 " transform="matrix(3.542449,0,0,3.542449,814.942123,449.657937)"></path>
<path style="fill:none;stroke-width:0.5;stroke-linecap:butt;stroke-linejoin:round;stroke:rgb(13.725491%,13.725491%,13.725491%);stroke-opacity:1;stroke-miterlimit:10;" d="M -163.888616 -81.22407 L -159.56935 -81.22407 " transform="matrix(3.542449,0,0,3.542449,814.942123,449.657937)"></path>
<path style="fill:none;stroke-width:0.5;stroke-linecap:butt;stroke-linejoin:round;stroke:rgb(85.09804%,70.588237%,14.117648%);stroke-opacity:1;stroke-miterlimit:10;" d="M -166.047697 -75.832982 L -157.409165 -75.832982 " transform="matrix(3.542449,0,0,3.542449,814.942123,449.657937)"></path>
<path style="fill:none;stroke-width:0.5;stroke-linecap:butt;stroke-linejoin:miter;stroke:rgb(85.09804%,70.588237%,14.117648%);stroke-opacity:1;stroke-miterlimit:10;" d="M -166.047697 -66.943035 L -157.409165 -66.943035 L -157.409165 -78.897378 L -166.047697 -78.897378 L -166.047697 -66.943035 " transform="matrix(3.542449,0,0,3.542449,814.942123,449.657937)"></path>
<path style=" stroke:none;fill-rule:nonzero;fill:rgb(100%,49.803922%,16.470589%);fill-opacity:1;" d="M 303.234375 216.050781 C 304.511719 216.050781 305.550781 217.085938 305.550781 218.367188 C 305.550781 219.644531 304.511719 220.6875 303.234375 220.6875 C 301.953125 220.6875 300.914062 219.644531 300.914062 218.367188 C 300.914062 217.085938 301.953125 216.050781 303.234375 216.050781 Z M 303.234375 215.121094 C 301.441406 215.121094 299.988281 216.574219 299.988281 218.367188 C 299.988281 220.160156 301.441406 221.613281 303.234375 221.613281 C 305.027344 221.613281 306.480469 220.160156 306.480469 218.367188 C 306.480469 216.574219 305.027344 215.121094 303.234375 215.121094 Z M 303.234375 215.121094 "></path>
<path style=" stroke:none;fill-rule:nonzero;fill:rgb(100%,49.803922%,16.470589%);fill-opacity:1;" d="M 303.234375 150.425781 C 304.511719 150.425781 305.550781 151.464844 305.550781 152.746094 C 305.550781 154.023438 304.511719 155.0625 303.234375 155.0625 C 301.953125 155.0625 300.914062 154.023438 300.914062 152.746094 C 300.914062 151.464844 301.953125 150.425781 303.234375 150.425781 Z M 303.234375 149.5 C 301.441406 149.5 299.988281 150.953125 299.988281 152.746094 C 299.988281 154.539062 301.441406 155.992188 303.234375 155.992188 C 305.027344 155.992188 306.480469 154.539062 306.480469 152.746094 C 306.480469 150.953125 305.027344 149.5 303.234375 149.5 Z M 303.234375 149.5 "></path>
<path style=" stroke:none;fill-rule:nonzero;fill:rgb(100%,49.803922%,16.470589%);fill-opacity:1;" d="M 303.234375 237.316406 C 304.511719 237.316406 305.550781 238.351562 305.550781 239.636719 C 305.550781 240.914062 304.511719 241.953125 303.234375 241.953125 C 301.953125 241.953125 300.914062 240.914062 300.914062 239.636719 C 300.914062 238.351562 301.953125 237.316406 303.234375 237.316406 Z M 303.234375 236.390625 C 301.441406 236.390625 299.988281 237.84375 299.988281 239.636719 C 299.988281 241.429688 301.441406 242.882812 303.234375 242.882812 C 305.027344 242.882812 306.480469 241.429688 306.480469 239.636719 C 306.480469 237.84375 305.027344 236.390625 303.234375 236.390625 Z M 303.234375 236.390625 "></path>
<path style=" stroke:none;fill-rule:nonzero;fill:rgb(100%,49.803922%,16.470589%);fill-opacity:1;" d="M 303.234375 183.503906 C 304.511719 183.503906 305.550781 184.539062 305.550781 185.824219 C 305.550781 187.101562 304.511719 188.140625 303.234375 188.140625 C 301.953125 188.140625 300.914062 187.101562 300.914062 185.824219 C 300.914062 184.539062 301.953125 183.503906 303.234375 183.503906 Z M 303.234375 182.578125 C 301.441406 182.578125 299.988281 184.03125 299.988281 185.824219 C 299.988281 187.617188 301.441406 189.070312 303.234375 189.070312 C 305.027344 189.070312 306.480469 187.617188 306.480469 185.824219 C 306.480469 184.03125 305.027344 182.578125 303.234375 182.578125 Z M 303.234375 182.578125 "></path>
<path style=" stroke:none;fill-rule:nonzero;fill:rgb(100%,49.803922%,16.470589%);fill-opacity:1;" d="M 303.234375 99.4375 C 304.511719 99.4375 305.550781 100.476562 305.550781 101.753906 C 305.550781 103.035156 304.511719 104.074219 303.234375 104.074219 C 301.953125 104.074219 300.914062 103.035156 300.914062 101.753906 C 300.914062 100.476562 301.953125 99.4375 303.234375 99.4375 Z M 303.234375 98.507812 C 301.441406 98.507812 299.988281 99.964844 299.988281 101.753906 C 299.988281 103.546875 301.441406 105 303.234375 105 C 305.027344 105 306.480469 103.546875 306.480469 101.753906 C 306.480469 99.964844 305.027344 98.507812 303.234375 98.507812 Z M 303.234375 98.507812 "></path>
<path style=" stroke:none;fill-rule:nonzero;fill:rgb(100%,49.803922%,16.470589%);fill-opacity:1;" d="M 303.234375 118.292969 C 304.511719 118.292969 305.550781 119.332031 305.550781 120.609375 C 305.550781 121.890625 304.511719 122.929688 303.234375 122.929688 C 301.953125 122.929688 300.914062 121.890625 300.914062 120.609375 C 300.914062 119.332031 301.953125 118.292969 303.234375 118.292969 Z M 303.234375 117.363281 C 301.441406 117.363281 299.988281 118.816406 299.988281 120.609375 C 299.988281 122.402344 301.441406 123.855469 303.234375 123.855469 C 305.027344 123.855469 306.480469 122.402344 306.480469 120.609375 C 306.480469 118.816406 305.027344 117.363281 303.234375 117.363281 Z M 303.234375 117.363281 "></path>
<path style=" stroke:none;fill-rule:nonzero;fill:rgb(100%,49.803922%,16.470589%);fill-opacity:1;" d="M 303.234375 165.203125 C 304.511719 165.203125 305.550781 166.238281 305.550781 167.523438 C 305.550781 168.800781 304.511719 169.839844 303.234375 169.839844 C 301.953125 169.839844 300.914062 168.800781 300.914062 167.523438 C 300.914062 166.238281 301.953125 165.203125 303.234375 165.203125 Z M 303.234375 164.277344 C 301.441406 164.277344 299.988281 165.726562 299.988281 167.523438 C 299.988281 169.316406 301.441406 170.765625 303.234375 170.765625 C 305.027344 170.765625 306.480469 169.316406 306.480469 167.523438 C 306.480469 165.726562 305.027344 164.277344 303.234375 164.277344 Z M 303.234375 164.277344 "></path>
<path style=" stroke:none;fill-rule:nonzero;fill:rgb(100%,49.803922%,16.470589%);fill-opacity:1;" d="M 303.234375 107.277344 C 304.511719 107.277344 305.550781 108.320312 305.550781 109.597656 C 305.550781 110.878906 304.511719 111.914062 303.234375 111.914062 C 301.953125 111.914062 300.914062 110.878906 300.914062 109.597656 C 300.914062 108.320312 301.953125 107.277344 303.234375 107.277344 Z M 303.234375 106.351562 C 301.441406 106.351562 299.988281 107.808594 299.988281 109.597656 C 299.988281 111.390625 301.441406 112.84375 303.234375 112.84375 C 305.027344 112.84375 306.480469 111.390625 306.480469 109.597656 C 306.480469 107.808594 305.027344 106.351562 303.234375 106.351562 Z M 303.234375 106.351562 "></path>
<path style=" stroke:none;fill-rule:nonzero;fill:rgb(100%,49.803922%,16.470589%);fill-opacity:1;" d="M 303.234375 159.671875 C 304.511719 159.671875 305.550781 160.710938 305.550781 161.988281 C 305.550781 163.273438 304.511719 164.308594 303.234375 164.308594 C 301.953125 164.308594 300.914062 163.273438 300.914062 161.988281 C 300.914062 160.710938 301.953125 159.671875 303.234375 159.671875 Z M 303.234375 158.746094 C 301.441406 158.746094 299.988281 160.195312 299.988281 161.988281 C 299.988281 163.785156 301.441406 165.234375 303.234375 165.234375 C 305.027344 165.234375 306.480469 163.785156 306.480469 161.988281 C 306.480469 160.195312 305.027344 158.746094 303.234375 158.746094 Z M 303.234375 158.746094 "></path>
<path style=" stroke:none;fill-rule:nonzero;fill:rgb(100%,49.803922%,16.470589%);fill-opacity:1;" d="M 303.234375 177.734375 C 304.511719 177.734375 305.550781 178.769531 305.550781 180.050781 C 305.550781 181.332031 304.511719 182.371094 303.234375 182.371094 C 301.953125 182.371094 300.914062 181.332031 300.914062 180.050781 C 300.914062 178.769531 301.953125 177.734375 303.234375 177.734375 Z M 303.234375 176.804688 C 301.441406 176.804688 299.988281 178.257812 299.988281 180.050781 C 299.988281 181.84375 301.441406 183.296875 303.234375 183.296875 C 305.027344 183.296875 306.480469 181.84375 306.480469 180.050781 C 306.480469 178.257812 305.027344 176.804688 303.234375 176.804688 Z M 303.234375 176.804688 "></path>
<path style=" stroke:none;fill-rule:nonzero;fill:rgb(100%,49.803922%,16.470589%);fill-opacity:0.2;" d="M 287.933594 185.824219 L 318.535156 185.824219 L 318.535156 120.609375 L 287.933594 120.609375 Z M 287.933594 185.824219 "></path>
<path style="fill:none;stroke-width:0.5;stroke-linecap:butt;stroke-linejoin:round;stroke:rgb(13.725491%,13.725491%,13.725491%);stroke-opacity:1;stroke-miterlimit:10;" d="M -144.450265 -59.287006 L -144.450265 -74.477767 " transform="matrix(3.542449,0,0,3.542449,814.942123,449.657937)"></path>
<path style="fill:none;stroke-width:0.5;stroke-linecap:butt;stroke-linejoin:round;stroke:rgb(13.725491%,13.725491%,13.725491%);stroke-opacity:1;stroke-miterlimit:10;" d="M -144.450265 -92.887301 L -144.450265 -98.210022 " transform="matrix(3.542449,0,0,3.542449,814.942123,449.657937)"></path>
<path style="fill:none;stroke-width:0.5;stroke-linecap:butt;stroke-linejoin:round;stroke:rgb(13.725491%,13.725491%,13.725491%);stroke-opacity:1;stroke-miterlimit:10;" d="M -146.610449 -59.287006 L -142.291183 -59.287006 " transform="matrix(3.542449,0,0,3.542449,814.942123,449.657937)"></path>
<path style="fill:none;stroke-width:0.5;stroke-linecap:butt;stroke-linejoin:round;stroke:rgb(13.725491%,13.725491%,13.725491%);stroke-opacity:1;stroke-miterlimit:10;" d="M -146.610449 -98.210022 L -142.291183 -98.210022 " transform="matrix(3.542449,0,0,3.542449,814.942123,449.657937)"></path>
<path style="fill:none;stroke-width:0.5;stroke-linecap:butt;stroke-linejoin:round;stroke:rgb(100%,63.921571%,6.666667%);stroke-opacity:1;stroke-miterlimit:10;" d="M -148.769531 -80.425717 L -140.130998 -80.425717 " transform="matrix(3.542449,0,0,3.542449,814.942123,449.657937)"></path>
<path style="fill:none;stroke-width:0.5;stroke-linecap:butt;stroke-linejoin:miter;stroke:rgb(100%,49.803922%,16.470589%);stroke-opacity:1;stroke-miterlimit:10;" d="M -148.769531 -74.477767 L -140.130998 -74.477767 L -140.130998 -92.887301 L -148.769531 -92.887301 L -148.769531 -74.477767 " transform="matrix(3.542449,0,0,3.542449,814.942123,449.657937)"></path>
<path style=" stroke:none;fill-rule:nonzero;fill:rgb(100%,15.686275%,0%);fill-opacity:1;" d="M 364.441406 41.609375 C 365.71875 41.609375 366.757812 42.648438 366.757812 43.925781 C 366.757812 45.210938 365.71875 46.246094 364.441406 46.246094 C 363.160156 46.246094 362.121094 45.210938 362.121094 43.925781 C 362.121094 42.648438 363.160156 41.609375 364.441406 41.609375 Z M 364.441406 40.683594 C 362.648438 40.683594 361.195312 42.132812 361.195312 43.925781 C 361.195312 45.722656 362.648438 47.171875 364.441406 47.171875 C 366.234375 47.171875 367.6875 45.722656 367.6875 43.925781 C 367.6875 42.132812 366.234375 40.683594 364.441406 40.683594 Z M 364.441406 40.683594 "></path>
<path style=" stroke:none;fill-rule:nonzero;fill:rgb(100%,15.686275%,0%);fill-opacity:1;" d="M 364.441406 179.585938 C 365.71875 179.585938 366.757812 180.625 366.757812 181.902344 C 366.757812 183.1875 365.71875 184.222656 364.441406 184.222656 C 363.160156 184.222656 362.121094 183.1875 362.121094 181.902344 C 362.121094 180.625 363.160156 179.585938 364.441406 179.585938 Z M 364.441406 178.65625 C 362.648438 178.65625 361.195312 180.113281 361.195312 181.902344 C 361.195312 183.695312 362.648438 185.148438 364.441406 185.148438 C 366.234375 185.148438 367.6875 183.695312 367.6875 181.902344 C 367.6875 180.113281 366.234375 178.65625 364.441406 178.65625 Z M 364.441406 178.65625 "></path>
<path style=" stroke:none;fill-rule:nonzero;fill:rgb(100%,15.686275%,0%);fill-opacity:1;" d="M 364.441406 63.488281 C 365.71875 63.488281 366.757812 64.527344 366.757812 65.808594 C 366.757812 67.085938 365.71875 68.125 364.441406 68.125 C 363.160156 68.125 362.121094 67.085938 362.121094 65.808594 C 362.121094 64.527344 363.160156 63.488281 364.441406 63.488281 Z M 364.441406 62.5625 C 362.648438 62.5625 361.195312 64.015625 361.195312 65.808594 C 361.195312 67.597656 362.648438 69.054688 364.441406 69.054688 C 366.234375 69.054688 367.6875 67.597656 367.6875 65.808594 C 367.6875 64.015625 366.234375 62.5625 364.441406 62.5625 Z M 364.441406 62.5625 "></path>
<path style=" stroke:none;fill-rule:nonzero;fill:rgb(100%,15.686275%,0%);fill-opacity:1;" d="M 364.441406 33.964844 C 365.71875 33.964844 366.757812 35.003906 366.757812 36.285156 C 366.757812 37.566406 365.71875 38.601562 364.441406 38.601562 C 363.160156 38.601562 362.121094 37.566406 362.121094 36.285156 C 362.121094 35.003906 363.160156 33.964844 364.441406 33.964844 Z M 364.441406 33.039062 C 362.648438 33.039062 361.195312 34.492188 361.195312 36.285156 C 361.195312 38.078125 362.648438 39.53125 364.441406 39.53125 C 366.234375 39.53125 367.6875 38.078125 367.6875 36.285156 C 367.6875 34.492188 366.234375 33.039062 364.441406 33.039062 Z M 364.441406 33.039062 "></path>
<path style=" stroke:none;fill-rule:nonzero;fill:rgb(100%,15.686275%,0%);fill-opacity:1;" d="M 364.441406 72.039062 C 365.71875 72.039062 366.757812 73.074219 366.757812 74.355469 C 366.757812 75.636719 365.71875 76.675781 364.441406 76.675781 C 363.160156 76.675781 362.121094 75.636719 362.121094 74.355469 C 362.121094 73.074219 363.160156 72.039062 364.441406 72.039062 Z M 364.441406 71.109375 C 362.648438 71.109375 361.195312 72.5625 361.195312 74.355469 C 361.195312 76.148438 362.648438 77.601562 364.441406 77.601562 C 366.234375 77.601562 367.6875 76.148438 367.6875 74.355469 C 367.6875 72.5625 366.234375 71.109375 364.441406 71.109375 Z M 364.441406 71.109375 "></path>
<path style=" stroke:none;fill-rule:nonzero;fill:rgb(100%,15.686275%,0%);fill-opacity:1;" d="M 364.441406 156.609375 C 365.71875 156.609375 366.757812 157.648438 366.757812 158.929688 C 366.757812 160.207031 365.71875 161.246094 364.441406 161.246094 C 363.160156 161.246094 362.121094 160.207031 362.121094 158.929688 C 362.121094 157.648438 363.160156 156.609375 364.441406 156.609375 Z M 364.441406 155.683594 C 362.648438 155.683594 361.195312 157.136719 361.195312 158.929688 C 361.195312 160.722656 362.648438 162.175781 364.441406 162.175781 C 366.234375 162.175781 367.6875 160.722656 367.6875 158.929688 C 367.6875 157.136719 366.234375 155.683594 364.441406 155.683594 Z M 364.441406 155.683594 "></path>
<path style=" stroke:none;fill-rule:nonzero;fill:rgb(100%,15.686275%,0%);fill-opacity:1;" d="M 364.441406 133.65625 C 365.71875 133.65625 366.757812 134.695312 366.757812 135.976562 C 366.757812 137.253906 365.71875 138.296875 364.441406 138.296875 C 363.160156 138.296875 362.121094 137.253906 362.121094 135.976562 C 362.121094 134.695312 363.160156 133.65625 364.441406 133.65625 Z M 364.441406 132.730469 C 362.648438 132.730469 361.195312 134.183594 361.195312 135.976562 C 361.195312 137.765625 362.648438 139.222656 364.441406 139.222656 C 366.234375 139.222656 367.6875 137.765625 367.6875 135.976562 C 367.6875 134.183594 366.234375 132.730469 364.441406 132.730469 Z M 364.441406 132.730469 "></path>
<path style=" stroke:none;fill-rule:nonzero;fill:rgb(100%,15.686275%,0%);fill-opacity:1;" d="M 364.441406 211.355469 C 365.71875 211.355469 366.757812 212.390625 366.757812 213.671875 C 366.757812 214.953125 365.71875 215.992188 364.441406 215.992188 C 363.160156 215.992188 362.121094 214.953125 362.121094 213.671875 C 362.121094 212.390625 363.160156 211.355469 364.441406 211.355469 Z M 364.441406 210.425781 C 362.648438 210.425781 361.195312 211.878906 361.195312 213.671875 C 361.195312 215.460938 362.648438 216.917969 364.441406 216.917969 C 366.234375 216.917969 367.6875 215.460938 367.6875 213.671875 C 367.6875 211.878906 366.234375 210.425781 364.441406 210.425781 Z M 364.441406 210.425781 "></path>
<path style=" stroke:none;fill-rule:nonzero;fill:rgb(100%,15.686275%,0%);fill-opacity:1;" d="M 364.441406 149.34375 C 365.71875 149.34375 366.757812 150.382812 366.757812 151.664062 C 366.757812 152.945312 365.71875 153.980469 364.441406 153.980469 C 363.160156 153.980469 362.121094 152.945312 362.121094 151.664062 C 362.121094 150.382812 363.160156 149.34375 364.441406 149.34375 Z M 364.441406 148.417969 C 362.648438 148.417969 361.195312 149.871094 361.195312 151.664062 C 361.195312 153.457031 362.648438 154.90625 364.441406 154.90625 C 366.234375 154.90625 367.6875 153.457031 367.6875 151.664062 C 367.6875 149.871094 366.234375 148.417969 364.441406 148.417969 Z M 364.441406 148.417969 "></path>
<path style=" stroke:none;fill-rule:nonzero;fill:rgb(100%,15.686275%,0%);fill-opacity:1;" d="M 364.441406 178.019531 C 365.71875 178.019531 366.757812 179.058594 366.757812 180.339844 C 366.757812 181.617188 365.71875 182.65625 364.441406 182.65625 C 363.160156 182.65625 362.121094 181.617188 362.121094 180.339844 C 362.121094 179.058594 363.160156 178.019531 364.441406 178.019531 Z M 364.441406 177.09375 C 362.648438 177.09375 361.195312 178.546875 361.195312 180.339844 C 361.195312 182.132812 362.648438 183.585938 364.441406 183.585938 C 366.234375 183.585938 367.6875 182.132812 367.6875 180.339844 C 367.6875 178.546875 366.234375 177.09375 364.441406 177.09375 Z M 364.441406 177.09375 "></path>
<path style=" stroke:none;fill-rule:nonzero;fill:rgb(100%,15.686275%,0%);fill-opacity:0.2;" d="M 349.136719 180.339844 L 379.742188 180.339844 L 379.742188 65.808594 L 349.136719 65.808594 Z M 349.136719 180.339844 "></path>
<path style="fill:none;stroke-width:0.5;stroke-linecap:butt;stroke-linejoin:round;stroke:rgb(13.725491%,13.725491%,13.725491%);stroke-opacity:1;stroke-miterlimit:10;" d="M -127.172098 -66.616637 L -127.172098 -76.025954 " transform="matrix(3.542449,0,0,3.542449,814.942123,449.657937)"></path>
<path style="fill:none;stroke-width:0.5;stroke-linecap:butt;stroke-linejoin:round;stroke:rgb(13.725491%,13.725491%,13.725491%);stroke-opacity:1;stroke-miterlimit:10;" d="M -127.172098 -108.357044 L -127.172098 -116.691232 " transform="matrix(3.542449,0,0,3.542449,814.942123,449.657937)"></path>
<path style="fill:none;stroke-width:0.5;stroke-linecap:butt;stroke-linejoin:round;stroke:rgb(13.725491%,13.725491%,13.725491%);stroke-opacity:1;stroke-miterlimit:10;" d="M -129.332282 -66.616637 L -125.013016 -66.616637 " transform="matrix(3.542449,0,0,3.542449,814.942123,449.657937)"></path>
<path style="fill:none;stroke-width:0.5;stroke-linecap:butt;stroke-linejoin:round;stroke:rgb(13.725491%,13.725491%,13.725491%);stroke-opacity:1;stroke-miterlimit:10;" d="M -129.332282 -116.691232 L -125.013016 -116.691232 " transform="matrix(3.542449,0,0,3.542449,814.942123,449.657937)"></path>
<path style="fill:none;stroke-width:0.5;stroke-linecap:butt;stroke-linejoin:round;stroke:rgb(100%,15.686275%,0%);stroke-opacity:1;stroke-miterlimit:10;" d="M -131.492466 -86.335073 L -122.852832 -86.335073 " transform="matrix(3.542449,0,0,3.542449,814.942123,449.657937)"></path>
<path style="fill:none;stroke-width:0.5;stroke-linecap:butt;stroke-linejoin:miter;stroke:rgb(100%,15.686275%,0%);stroke-opacity:1;stroke-miterlimit:10;" d="M -131.492466 -76.025954 L -122.852832 -76.025954 L -122.852832 -108.357044 L -131.492466 -108.357044 L -131.492466 -76.025954 " transform="matrix(3.542449,0,0,3.542449,814.942123,449.657937)"></path>
<g style="fill:rgb(0%,0%,0%);fill-opacity:1;"> <use xlink:href="#glyph0-1" x="167.65625" y="360.93564"></use> <use xlink:href="#glyph0-2" x="173.208624" y="360.93564"></use> <use xlink:href="#glyph0-3" x="184.32721" y="360.93564"></use> <use xlink:href="#glyph0-4" x="200.977414" y="360.93564"></use> <use xlink:href="#glyph0-2" x="212.096001" y="360.93564"></use> <use xlink:href="#glyph0-5" x="223.214587" y="360.93564"></use> <use xlink:href="#glyph0-6" x="229.870517" y="360.93564"></use> <use xlink:href="#glyph0-1" x="240.989103" y="360.93564"></use> <use xlink:href="#glyph0-7" x="246.541477" y="360.93564"></use> <use xlink:href="#glyph0-5" x="257.660064" y="360.93564"></use> <use xlink:href="#glyph0-2" x="264.315994" y="360.93564"></use> <use xlink:href="#glyph0-8" x="275.43458" y="360.93564"></use> <use xlink:href="#glyph0-9" x="280.986954" y="360.93564"></use> <use xlink:href="#glyph0-10" x="287.642885" y="360.93564"></use> <use xlink:href="#glyph0-11" x="295.637612" y="360.93564"></use> <use xlink:href="#glyph0-12" x="310.073785" y="360.93564"></use>
</g>
<g style="fill:rgb(0%,0%,0%);fill-opacity:1;"> <use xlink:href="#glyph0-13" x="107.84375" y="337.490327"></use> <use xlink:href="#glyph0-14" x="118.962336" y="337.490327"></use>
</g>
<g style="fill:rgb(0%,0%,0%);fill-opacity:1;"> <use xlink:href="#glyph0-15" x="169.925781" y="337.490327"></use> <use xlink:href="#glyph0-15" x="181.044367" y="337.490327"></use>
</g>
<g style="fill:rgb(0%,0%,0%);fill-opacity:1;"> <use xlink:href="#glyph0-15" x="231.0625" y="337.490327"></use> <use xlink:href="#glyph0-16" x="242.181086" y="337.490327"></use>
</g>
<g style="fill:rgb(0%,0%,0%);fill-opacity:1;"> <use xlink:href="#glyph0-17" x="292.171875" y="337.490327"></use> <use xlink:href="#glyph0-18" x="303.290461" y="337.490327"></use>
</g>
<g style="fill:rgb(0%,0%,0%);fill-opacity:1;"> <use xlink:href="#glyph0-17" x="353.355469" y="337.490327"></use> <use xlink:href="#glyph0-17" x="364.474055" y="337.490327"></use>
</g>
<path style=" stroke:none;fill-rule:nonzero;fill:rgb(0%,0%,0%);fill-opacity:1;" d="M 9.34375 203.175781 C 9.34375 203.175781 9.070312 203.175781 9.070312 203.488281 C 9.070312 204.074219 9.265625 205.871094 9.34375 206.535156 C 9.34375 206.730469 9.382812 207.003906 9.8125 207.003906 C 10.125 207.003906 10.125 206.769531 10.125 206.417969 C 10.125 205.207031 10.28125 205.167969 10.554688 205.167969 L 11.0625 205.246094 L 25.394531 208.839844 C 25.746094 208.957031 25.785156 208.957031 25.941406 208.957031 C 26.527344 208.957031 26.644531 208.449219 26.644531 208.214844 C 26.644531 207.902344 26.410156 207.550781 26.136719 207.394531 C 25.902344 207.277344 21.292969 206.144531 20.667969 205.988281 C 20.746094 205.128906 21.136719 203.097656 22.777344 203.097656 C 22.972656 203.097656 23.050781 203.097656 23.324219 203.175781 C 23.597656 203.214844 23.910156 203.253906 24.183594 203.253906 C 25.628906 203.253906 26.644531 202.277344 26.644531 200.988281 C 26.644531 200.246094 26.253906 199.546875 25.316406 199 C 24.222656 198.375 22.855469 198.101562 22.816406 198.101562 C 22.542969 198.101562 22.542969 198.335938 22.542969 198.414062 C 22.542969 198.648438 22.660156 198.6875 23.011719 198.765625 C 24.808594 199.273438 26.097656 199.820312 26.097656 200.910156 C 26.097656 201.417969 25.824219 201.730469 24.925781 201.730469 C 24.496094 201.730469 23.910156 201.613281 23.519531 201.535156 C 23.089844 201.417969 23.011719 201.417969 22.738281 201.417969 C 21.136719 201.417969 20.4375 202.980469 20.125 205.128906 C 19.695312 204.347656 18.914062 203.527344 18.289062 202.980469 C 16.960938 201.769531 15.90625 200.636719 15.90625 199.429688 C 15.90625 199.273438 15.90625 199.234375 15.945312 199.195312 C 15.984375 198.882812 15.984375 198.882812 16.140625 198.648438 C 16.140625 198.609375 16.179688 198.609375 16.21875 198.570312 C 16.296875 199.742188 17.273438 199.976562 17.585938 199.976562 C 17.976562 199.976562 18.445312 199.703125 18.445312 199.039062 C 18.445312 198.375 17.898438 197.671875 16.921875 197.671875 C 16.179688 197.671875 15.359375 198.257812 15.359375 199.351562 C 15.359375 200.054688 15.554688 201.183594 17.546875 202.980469 C 18.484375 203.839844 19.5 204.816406 19.851562 205.753906 Z M 9.34375 203.175781 "></path>
<path style=" stroke:none;fill-rule:nonzero;fill:rgb(0%,0%,0%);fill-opacity:1;" d="M 23.230469 190.25 L 23.230469 188.574219 C 23.230469 188.222656 23.230469 187.988281 22.84375 187.988281 C 22.609375 187.988281 22.609375 188.222656 22.609375 188.535156 L 22.609375 190.132812 C 20.382812 189.742188 19.601562 189.625 19.09375 189.46875 C 18.703125 189.390625 18.351562 189.003906 18.351562 188.574219 C 18.351562 188.574219 18.351562 188.105469 18.546875 187.753906 C 18.78125 188.496094 19.40625 188.535156 19.484375 188.535156 C 19.875 188.535156 20.148438 188.222656 20.148438 187.832031 C 20.148438 187.363281 19.757812 186.855469 19.09375 186.855469 C 18.273438 186.855469 17.84375 187.675781 17.84375 188.574219 C 17.84375 189.351562 18.273438 190.210938 19.132812 190.679688 C 19.796875 191.03125 20.578125 191.148438 22.609375 191.539062 L 22.609375 192.90625 C 22.609375 193.257812 22.609375 193.492188 23 193.492188 C 23.230469 193.492188 23.230469 193.257812 23.230469 192.945312 L 23.230469 191.65625 C 23.347656 191.65625 29.597656 192.75 31.472656 193.179688 C 31.863281 193.257812 33.152344 193.570312 33.152344 194.390625 C 33.152344 194.429688 33.152344 194.820312 32.957031 195.171875 C 32.722656 194.46875 32.097656 194.390625 32.019531 194.390625 C 31.628906 194.390625 31.355469 194.703125 31.355469 195.09375 C 31.355469 195.5625 31.746094 196.070312 32.410156 196.070312 C 33.191406 196.070312 33.660156 195.25 33.660156 194.390625 C 33.660156 193.296875 32.527344 192.515625 32.136719 192.320312 C 30.964844 191.695312 28.816406 191.265625 28.621094 191.226562 Z M 23.230469 190.25 "></path>
<path style=" stroke:none;fill-rule:nonzero;fill:rgb(0%,0%,0%);fill-opacity:1;" d="M 18.546875 180.777344 C 18.507812 180.777344 18.273438 180.699219 18.273438 180.699219 C 18.15625 180.699219 18 180.777344 18 181.011719 C 18 181.363281 18.15625 182.808594 18.195312 183.238281 C 18.195312 183.355469 18.234375 183.589844 18.585938 183.589844 C 18.820312 183.589844 18.820312 183.355469 18.820312 183.160156 C 18.820312 182.300781 18.976562 182.300781 19.09375 182.300781 C 19.210938 182.300781 19.328125 182.339844 19.484375 182.378906 L 28.074219 184.566406 C 28.269531 184.605469 28.464844 184.605469 28.621094 184.605469 C 29.753906 184.605469 30.261719 183.628906 30.261719 182.808594 C 30.261719 182.378906 30.144531 181.832031 29.363281 181.402344 C 28.699219 181.011719 27.683594 180.777344 27.605469 180.777344 C 27.371094 180.777344 27.371094 181.011719 27.371094 181.050781 C 27.371094 181.324219 27.488281 181.363281 27.800781 181.402344 C 28.660156 181.636719 29.792969 181.988281 29.792969 182.730469 C 29.792969 183.199219 29.363281 183.316406 28.933594 183.316406 C 28.738281 183.316406 28.425781 183.277344 28.230469 183.199219 Z M 18.546875 180.777344 "></path>
<path style=" stroke:none;fill-rule:nonzero;fill:rgb(0%,0%,0%);fill-opacity:1;" d="M 19.210938 173.632812 C 18.9375 173.632812 18.546875 173.867188 18.546875 174.332031 C 18.546875 174.800781 19.015625 175.308594 19.523438 175.308594 C 19.796875 175.308594 20.1875 175.113281 20.1875 174.605469 C 20.1875 174.140625 19.679688 173.632812 19.210938 173.632812 Z M 28.074219 177.183594 C 28.308594 177.261719 28.503906 177.339844 28.816406 177.339844 C 29.636719 177.339844 30.261719 176.675781 30.261719 175.699219 C 30.261719 173.984375 27.878906 173.203125 27.605469 173.203125 C 27.371094 173.203125 27.371094 173.4375 27.371094 173.476562 C 27.371094 173.710938 27.488281 173.75 27.683594 173.828125 C 29.089844 174.21875 29.792969 174.957031 29.792969 175.660156 C 29.792969 176.011719 29.558594 176.089844 29.167969 176.089844 C 28.777344 176.089844 28.464844 175.972656 28.074219 175.816406 C 27.605469 175.621094 27.136719 175.425781 26.667969 175.269531 C 26.238281 175.113281 24.675781 174.449219 24.441406 174.410156 C 24.285156 174.332031 24.089844 174.292969 23.894531 174.292969 C 23.078125 174.292969 22.414062 174.996094 22.414062 175.933594 C 22.414062 177.691406 24.792969 178.472656 25.105469 178.472656 C 25.300781 178.472656 25.300781 178.238281 25.300781 178.160156 C 25.300781 177.925781 25.222656 177.925781 25.027344 177.847656 C 23.542969 177.417969 22.921875 176.636719 22.921875 176.011719 C 22.921875 175.738281 23.039062 175.582031 23.503906 175.582031 C 23.933594 175.582031 24.167969 175.660156 25.261719 176.089844 Z M 28.074219 177.183594 "></path>
<path style=" stroke:none;fill-rule:nonzero;fill:rgb(0%,0%,0%);fill-opacity:1;" d="M 32.214844 170.960938 C 32.722656 171.078125 32.839844 171.117188 32.839844 171.78125 C 32.839844 172.015625 32.839844 172.25 33.230469 172.25 C 33.425781 172.25 33.503906 172.09375 33.503906 172.015625 C 33.503906 171.585938 33.425781 171 33.425781 170.53125 C 33.425781 169.945312 33.503906 169.28125 33.503906 168.695312 C 33.503906 168.539062 33.425781 168.34375 33.113281 168.34375 C 32.839844 168.34375 32.839844 168.578125 32.839844 168.8125 C 32.839844 169.203125 32.839844 169.671875 32.644531 169.671875 C 32.566406 169.671875 32.097656 169.515625 31.863281 169.476562 C 30.925781 169.242188 29.988281 169.007812 29.246094 168.8125 C 29.597656 168.617188 30.261719 168.070312 30.261719 167.015625 C 30.261719 164.910156 27.917969 162.566406 25.339844 162.566406 C 23.308594 162.566406 22.414062 163.972656 22.414062 165.144531 C 22.414062 166.234375 23.152344 167.171875 23.660156 167.640625 C 22.648438 167.914062 22.414062 168.890625 22.414062 169.4375 C 22.414062 170.101562 22.882812 170.53125 23.347656 170.804688 C 23.933594 171.15625 24.988281 171.429688 25.105469 171.429688 C 25.300781 171.429688 25.300781 171.195312 25.300781 171.117188 C 25.300781 170.882812 25.261719 170.882812 24.792969 170.765625 C 23.777344 170.492188 22.921875 170.140625 22.921875 169.476562 C 22.921875 169.007812 23.308594 168.890625 23.777344 168.890625 C 23.972656 168.890625 24.167969 168.929688 24.285156 168.96875 Z M 24.519531 167.640625 C 23.152344 166.625 22.921875 165.769531 22.921875 165.222656 C 22.921875 164.519531 23.425781 163.933594 24.597656 163.933594 C 25.300781 163.933594 27.097656 164.324219 28.113281 164.832031 C 28.972656 165.300781 29.792969 166.117188 29.792969 167.015625 C 29.792969 168.265625 28.464844 168.578125 28.269531 168.578125 C 28.191406 168.578125 28.074219 168.539062 27.996094 168.539062 Z M 24.519531 167.640625 "></path>
<g style="fill:rgb(0%,0%,0%);fill-opacity:1;"> <use xlink:href="#glyph1-1" x="27.931733" y="150.707031"></use> <use xlink:href="#glyph1-2" x="27.931733" y="144.051101"></use>
</g>
<g style="fill:rgb(0%,0%,0%);fill-opacity:1;"> <use xlink:href="#glyph2-1" x="22.734248" y="134.058594"></use> <use xlink:href="#glyph2-2" x="22.734248" y="129.730855"></use>
</g>
<g style="fill:rgb(0%,0%,0%);fill-opacity:1;"> <use xlink:href="#glyph1-3" x="27.931733" y="122.503906"></use>
</g>
<g style="fill:rgb(0%,0%,0%);fill-opacity:1;"> <use xlink:href="#glyph0-13" x="73.074219" y="44.74814"></use>
</g>
<g style="fill:rgb(0%,0%,0%);fill-opacity:1;"> <use xlink:href="#glyph0-18" x="53.605469" y="100.267671"></use> <use xlink:href="#glyph0-19" x="64.724055" y="100.267671"></use> <use xlink:href="#glyph0-14" x="70.276429" y="100.267671"></use>
</g>
<g style="fill:rgb(0%,0%,0%);fill-opacity:1;"> <use xlink:href="#glyph0-18" x="53.644531" y="155.912202"></use> <use xlink:href="#glyph0-19" x="64.763117" y="155.912202"></use> <use xlink:href="#glyph0-16" x="70.315492" y="155.912202"></use>
</g>
<g style="fill:rgb(0%,0%,0%);fill-opacity:1;"> <use xlink:href="#glyph0-18" x="53.695312" y="211.552827"></use> <use xlink:href="#glyph0-19" x="64.813899" y="211.552827"></use> <use xlink:href="#glyph0-20" x="70.366273" y="211.552827"></use>
</g>
<g style="fill:rgb(0%,0%,0%);fill-opacity:1;"> <use xlink:href="#glyph0-18" x="53.78125" y="267.197358"></use> <use xlink:href="#glyph0-19" x="64.899836" y="267.197358"></use> <use xlink:href="#glyph0-15" x="70.45221" y="267.197358"></use>
</g>
<g style="fill:rgb(0%,0%,0%);fill-opacity:1;"> <use xlink:href="#glyph0-18" x="70.359375" y="322.837983"></use>
</g>
</g>
</svg>
