<?xml version="1.0"?>

<svg xmlns="http://www.w3.org/2000/svg" xmlns:xlink="http://www.w3.org/1999/xlink" width="405" height="374" viewBox="0 0 405 374" version="1.1">
<defs>
<g>
<symbol overflow="visible" id="glyph0-0">
<path style="stroke:none;" d="M 2.5 0 L 2.5 -12.5 L 12.5 -12.5 L 12.5 0 Z M 2.8125 -0.3125 L 12.1875 -0.3125 L 12.1875 -12.1875 L 2.8125 -12.1875 Z M 2.8125 -0.3125 "></path>
</symbol>
<symbol overflow="visible" id="glyph0-1">
<path style="stroke:none;" d="M 5.15625 -1.578125 L 5.40625 -0.015625 C 4.914062 0.0859375 4.472656 0.140625 4.078125 0.140625 C 3.441406 0.140625 2.945312 0.0390625 2.59375 -0.15625 C 2.25 -0.363281 2.003906 -0.628906 1.859375 -0.953125 C 1.710938 -1.285156 1.640625 -1.976562 1.640625 -3.03125 L 1.640625 -9 L 0.359375 -9 L 0.359375 -10.375 L 1.640625 -10.375 L 1.640625 -12.9375 L 3.390625 -14 L 3.390625 -10.375 L 5.15625 -10.375 L 5.15625 -9 L 3.390625 -9 L 3.390625 -2.9375 C 3.390625 -2.4375 3.421875 -2.113281 3.484375 -1.96875 C 3.546875 -1.832031 3.644531 -1.71875 3.78125 -1.625 C 3.925781 -1.539062 4.128906 -1.5 4.390625 -1.5 C 4.578125 -1.5 4.832031 -1.523438 5.15625 -1.578125 Z M 5.15625 -1.578125 "></path>
</symbol>
<symbol overflow="visible" id="glyph0-2">
<path style="stroke:none;" d="M 8.421875 -3.34375 L 10.234375 -3.109375 C 9.953125 -2.054688 9.421875 -1.234375 8.640625 -0.640625 C 7.867188 -0.0546875 6.878906 0.234375 5.671875 0.234375 C 4.160156 0.234375 2.957031 -0.226562 2.0625 -1.15625 C 1.175781 -2.09375 0.734375 -3.40625 0.734375 -5.09375 C 0.734375 -6.84375 1.179688 -8.195312 2.078125 -9.15625 C 2.972656 -10.125 4.140625 -10.609375 5.578125 -10.609375 C 6.960938 -10.609375 8.09375 -10.132812 8.96875 -9.1875 C 9.851562 -8.25 10.296875 -6.921875 10.296875 -5.203125 C 10.296875 -5.097656 10.289062 -4.941406 10.28125 -4.734375 L 2.546875 -4.734375 C 2.609375 -3.597656 2.929688 -2.726562 3.515625 -2.125 C 4.097656 -1.519531 4.820312 -1.21875 5.6875 -1.21875 C 6.332031 -1.21875 6.878906 -1.382812 7.328125 -1.71875 C 7.785156 -2.0625 8.148438 -2.601562 8.421875 -3.34375 Z M 2.640625 -6.1875 L 8.4375 -6.1875 C 8.363281 -7.050781 8.144531 -7.703125 7.78125 -8.140625 C 7.21875 -8.816406 6.488281 -9.15625 5.59375 -9.15625 C 4.789062 -9.15625 4.113281 -8.882812 3.5625 -8.34375 C 3.007812 -7.8125 2.703125 -7.09375 2.640625 -6.1875 Z M 2.640625 -6.1875 "></path>
</symbol>
<symbol overflow="visible" id="glyph0-3">
<path style="stroke:none;" d="M 1.3125 0 L 1.3125 -10.375 L 2.890625 -10.375 L 2.890625 -8.921875 C 3.210938 -9.421875 3.644531 -9.828125 4.1875 -10.140625 C 4.726562 -10.453125 5.34375 -10.609375 6.03125 -10.609375 C 6.800781 -10.609375 7.429688 -10.445312 7.921875 -10.125 C 8.410156 -9.8125 8.757812 -9.367188 8.96875 -8.796875 C 9.789062 -10.003906 10.859375 -10.609375 12.171875 -10.609375 C 13.203125 -10.609375 13.992188 -10.320312 14.546875 -9.75 C 15.097656 -9.175781 15.375 -8.300781 15.375 -7.125 L 15.375 0 L 13.625 0 L 13.625 -6.53125 C 13.625 -7.238281 13.566406 -7.742188 13.453125 -8.046875 C 13.335938 -8.359375 13.128906 -8.609375 12.828125 -8.796875 C 12.535156 -8.984375 12.1875 -9.078125 11.78125 -9.078125 C 11.050781 -9.078125 10.441406 -8.832031 9.953125 -8.34375 C 9.472656 -7.863281 9.234375 -7.09375 9.234375 -6.03125 L 9.234375 0 L 7.484375 0 L 7.484375 -6.734375 C 7.484375 -7.515625 7.335938 -8.097656 7.046875 -8.484375 C 6.765625 -8.878906 6.296875 -9.078125 5.640625 -9.078125 C 5.148438 -9.078125 4.691406 -8.945312 4.265625 -8.6875 C 3.847656 -8.425781 3.546875 -8.046875 3.359375 -7.546875 C 3.171875 -7.046875 3.078125 -6.320312 3.078125 -5.375 L 3.078125 0 Z M 1.3125 0 "></path>
</symbol>
<symbol overflow="visible" id="glyph0-4">
<path style="stroke:none;" d="M 1.3125 3.96875 L 1.3125 -10.375 L 2.921875 -10.375 L 2.921875 -9.03125 C 3.296875 -9.550781 3.71875 -9.941406 4.1875 -10.203125 C 4.664062 -10.472656 5.242188 -10.609375 5.921875 -10.609375 C 6.804688 -10.609375 7.585938 -10.378906 8.265625 -9.921875 C 8.941406 -9.460938 9.453125 -8.816406 9.796875 -7.984375 C 10.148438 -7.160156 10.328125 -6.253906 10.328125 -5.265625 C 10.328125 -4.203125 10.132812 -3.242188 9.75 -2.390625 C 9.375 -1.546875 8.820312 -0.894531 8.09375 -0.4375 C 7.363281 0.0078125 6.597656 0.234375 5.796875 0.234375 C 5.210938 0.234375 4.6875 0.109375 4.21875 -0.140625 C 3.757812 -0.390625 3.378906 -0.703125 3.078125 -1.078125 L 3.078125 3.96875 Z M 2.90625 -5.125 C 2.90625 -3.789062 3.175781 -2.804688 3.71875 -2.171875 C 4.257812 -1.535156 4.914062 -1.21875 5.6875 -1.21875 C 6.46875 -1.21875 7.132812 -1.546875 7.6875 -2.203125 C 8.25 -2.859375 8.53125 -3.882812 8.53125 -5.28125 C 8.53125 -6.59375 8.253906 -7.578125 7.703125 -8.234375 C 7.160156 -8.898438 6.515625 -9.234375 5.765625 -9.234375 C 5.015625 -9.234375 4.347656 -8.878906 3.765625 -8.171875 C 3.191406 -7.472656 2.90625 -6.457031 2.90625 -5.125 Z M 2.90625 -5.125 "></path>
</symbol>
<symbol overflow="visible" id="glyph0-5">
<path style="stroke:none;" d="M 1.296875 0 L 1.296875 -10.375 L 2.875 -10.375 L 2.875 -8.796875 C 3.28125 -9.535156 3.65625 -10.019531 4 -10.25 C 4.34375 -10.488281 4.71875 -10.609375 5.125 -10.609375 C 5.71875 -10.609375 6.320312 -10.421875 6.9375 -10.046875 L 6.328125 -8.40625 C 5.898438 -8.664062 5.472656 -8.796875 5.046875 -8.796875 C 4.660156 -8.796875 4.3125 -8.675781 4 -8.4375 C 3.695312 -8.207031 3.476562 -7.890625 3.34375 -7.484375 C 3.15625 -6.859375 3.0625 -6.175781 3.0625 -5.4375 L 3.0625 0 Z M 1.296875 0 "></path>
</symbol>
<symbol overflow="visible" id="glyph0-6">
<path style="stroke:none;" d="M 8.09375 -1.28125 C 7.4375 -0.726562 6.804688 -0.335938 6.203125 -0.109375 C 5.597656 0.117188 4.953125 0.234375 4.265625 0.234375 C 3.128906 0.234375 2.253906 -0.0390625 1.640625 -0.59375 C 1.023438 -1.15625 0.71875 -1.867188 0.71875 -2.734375 C 0.71875 -3.242188 0.832031 -3.707031 1.0625 -4.125 C 1.300781 -4.539062 1.609375 -4.875 1.984375 -5.125 C 2.359375 -5.382812 2.78125 -5.582031 3.25 -5.71875 C 3.59375 -5.800781 4.113281 -5.890625 4.8125 -5.984375 C 6.226562 -6.148438 7.269531 -6.347656 7.9375 -6.578125 C 7.945312 -6.816406 7.953125 -6.972656 7.953125 -7.046875 C 7.953125 -7.753906 7.785156 -8.257812 7.453125 -8.5625 C 7.003906 -8.957031 6.335938 -9.15625 5.453125 -9.15625 C 4.617188 -9.15625 4.003906 -9.007812 3.609375 -8.71875 C 3.222656 -8.425781 2.9375 -7.910156 2.75 -7.171875 L 1.03125 -7.40625 C 1.1875 -8.144531 1.441406 -8.738281 1.796875 -9.1875 C 2.148438 -9.644531 2.664062 -9.992188 3.34375 -10.234375 C 4.019531 -10.484375 4.804688 -10.609375 5.703125 -10.609375 C 6.585938 -10.609375 7.304688 -10.503906 7.859375 -10.296875 C 8.410156 -10.085938 8.816406 -9.820312 9.078125 -9.5 C 9.335938 -9.1875 9.519531 -8.789062 9.625 -8.3125 C 9.6875 -8.007812 9.71875 -7.46875 9.71875 -6.6875 L 9.71875 -4.34375 C 9.71875 -2.707031 9.753906 -1.671875 9.828125 -1.234375 C 9.898438 -0.804688 10.050781 -0.394531 10.28125 0 L 8.4375 0 C 8.257812 -0.363281 8.144531 -0.789062 8.09375 -1.28125 Z M 7.9375 -5.203125 C 7.300781 -4.941406 6.34375 -4.722656 5.0625 -4.546875 C 4.34375 -4.441406 3.832031 -4.320312 3.53125 -4.1875 C 3.238281 -4.0625 3.007812 -3.875 2.84375 -3.625 C 2.675781 -3.375 2.59375 -3.09375 2.59375 -2.78125 C 2.59375 -2.3125 2.769531 -1.921875 3.125 -1.609375 C 3.476562 -1.296875 4 -1.140625 4.6875 -1.140625 C 5.363281 -1.140625 5.960938 -1.285156 6.484375 -1.578125 C 7.015625 -1.878906 7.40625 -2.285156 7.65625 -2.796875 C 7.84375 -3.203125 7.9375 -3.789062 7.9375 -4.5625 Z M 7.9375 -5.203125 "></path>
</symbol>
<symbol overflow="visible" id="glyph0-7">
<path style="stroke:none;" d="M 8.109375 0 L 8.109375 -1.53125 C 7.304688 -0.351562 6.210938 0.234375 4.828125 0.234375 C 4.210938 0.234375 3.640625 0.117188 3.109375 -0.109375 C 2.578125 -0.347656 2.179688 -0.644531 1.921875 -1 C 1.671875 -1.351562 1.492188 -1.789062 1.390625 -2.3125 C 1.316406 -2.65625 1.28125 -3.203125 1.28125 -3.953125 L 1.28125 -10.375 L 3.03125 -10.375 L 3.03125 -4.625 C 3.03125 -3.707031 3.066406 -3.085938 3.140625 -2.765625 C 3.253906 -2.304688 3.488281 -1.941406 3.84375 -1.671875 C 4.207031 -1.410156 4.648438 -1.28125 5.171875 -1.28125 C 5.703125 -1.28125 6.195312 -1.414062 6.65625 -1.6875 C 7.125 -1.957031 7.453125 -2.320312 7.640625 -2.78125 C 7.835938 -3.25 7.9375 -3.925781 7.9375 -4.8125 L 7.9375 -10.375 L 9.6875 -10.375 L 9.6875 0 Z M 8.109375 0 "></path>
</symbol>
<symbol overflow="visible" id="glyph0-8">
<path style="stroke:none;" d=""></path>
</symbol>
<symbol overflow="visible" id="glyph0-9">
<path style="stroke:none;" d="M 4.671875 4.203125 C 3.703125 2.984375 2.882812 1.554688 2.21875 -0.078125 C 1.550781 -1.722656 1.21875 -3.425781 1.21875 -5.1875 C 1.21875 -6.738281 1.46875 -8.222656 1.96875 -9.640625 C 2.550781 -11.285156 3.453125 -12.925781 4.671875 -14.5625 L 5.9375 -14.5625 C 5.144531 -13.207031 4.625 -12.238281 4.375 -11.65625 C 3.976562 -10.757812 3.664062 -9.820312 3.4375 -8.84375 C 3.15625 -7.625 3.015625 -6.398438 3.015625 -5.171875 C 3.015625 -2.046875 3.988281 1.078125 5.9375 4.203125 Z M 4.671875 4.203125 "></path>
</symbol>
<symbol overflow="visible" id="glyph0-10">
<path style="stroke:none;" d="M 1.25 -11.859375 C 1.25 -12.609375 1.515625 -13.242188 2.046875 -13.765625 C 2.578125 -14.296875 3.210938 -14.5625 3.953125 -14.5625 C 4.710938 -14.5625 5.351562 -14.296875 5.875 -13.765625 C 6.40625 -13.242188 6.671875 -12.609375 6.671875 -11.859375 C 6.671875 -11.109375 6.40625 -10.46875 5.875 -9.9375 C 5.34375 -9.40625 4.703125 -9.140625 3.953125 -9.140625 C 3.210938 -9.140625 2.578125 -9.398438 2.046875 -9.921875 C 1.515625 -10.453125 1.25 -11.097656 1.25 -11.859375 Z M 2.3125 -11.859375 C 2.3125 -11.398438 2.472656 -11.007812 2.796875 -10.6875 C 3.117188 -10.363281 3.507812 -10.203125 3.96875 -10.203125 C 4.414062 -10.203125 4.800781 -10.363281 5.125 -10.6875 C 5.445312 -11.007812 5.609375 -11.398438 5.609375 -11.859375 C 5.609375 -12.316406 5.445312 -12.703125 5.125 -13.015625 C 4.800781 -13.335938 4.414062 -13.5 3.96875 -13.5 C 3.507812 -13.5 3.117188 -13.335938 2.796875 -13.015625 C 2.472656 -12.703125 2.3125 -12.316406 2.3125 -11.859375 Z M 2.3125 -11.859375 "></path>
</symbol>
<symbol overflow="visible" id="glyph0-11">
<path style="stroke:none;" d="M 11.765625 -5.015625 L 13.65625 -4.546875 C 13.257812 -2.984375 12.546875 -1.789062 11.515625 -0.96875 C 10.484375 -0.15625 9.21875 0.25 7.71875 0.25 C 6.175781 0.25 4.921875 -0.0625 3.953125 -0.6875 C 2.992188 -1.320312 2.257812 -2.234375 1.75 -3.421875 C 1.25 -4.617188 1 -5.898438 1 -7.265625 C 1 -8.753906 1.28125 -10.050781 1.84375 -11.15625 C 2.414062 -12.269531 3.226562 -13.113281 4.28125 -13.6875 C 5.332031 -14.269531 6.488281 -14.5625 7.75 -14.5625 C 9.1875 -14.5625 10.390625 -14.195312 11.359375 -13.46875 C 12.335938 -12.738281 13.019531 -11.710938 13.40625 -10.390625 L 11.546875 -9.953125 C 11.210938 -10.992188 10.726562 -11.75 10.09375 -12.21875 C 9.46875 -12.695312 8.675781 -12.9375 7.71875 -12.9375 C 6.613281 -12.9375 5.691406 -12.671875 4.953125 -12.140625 C 4.210938 -11.617188 3.691406 -10.910156 3.390625 -10.015625 C 3.097656 -9.128906 2.953125 -8.21875 2.953125 -7.28125 C 2.953125 -6.0625 3.128906 -4.992188 3.484375 -4.078125 C 3.835938 -3.171875 4.390625 -2.492188 5.140625 -2.046875 C 5.890625 -1.597656 6.695312 -1.375 7.5625 -1.375 C 8.625 -1.375 9.523438 -1.679688 10.265625 -2.296875 C 11.003906 -2.910156 11.503906 -3.816406 11.765625 -5.015625 Z M 11.765625 -5.015625 "></path>
</symbol>
<symbol overflow="visible" id="glyph0-12">
<path style="stroke:none;" d="M 2.46875 4.203125 L 1.21875 4.203125 C 3.15625 1.078125 4.125 -2.046875 4.125 -5.171875 C 4.125 -6.398438 3.988281 -7.613281 3.71875 -8.8125 C 3.488281 -9.789062 3.175781 -10.726562 2.78125 -11.625 C 2.53125 -12.21875 2.007812 -13.195312 1.21875 -14.5625 L 2.46875 -14.5625 C 3.695312 -12.925781 4.601562 -11.285156 5.1875 -9.640625 C 5.6875 -8.222656 5.9375 -6.738281 5.9375 -5.1875 C 5.9375 -3.425781 5.597656 -1.722656 4.921875 -0.078125 C 4.253906 1.554688 3.4375 2.984375 2.46875 4.203125 Z M 2.46875 4.203125 "></path>
</symbol>
<symbol overflow="visible" id="glyph0-13">
<path style="stroke:none;" d="M 7.453125 0 L 5.6875 0 L 5.6875 -11.203125 C 5.269531 -10.796875 4.71875 -10.390625 4.03125 -9.984375 C 3.34375 -9.585938 2.722656 -9.285156 2.171875 -9.078125 L 2.171875 -10.78125 C 3.160156 -11.238281 4.019531 -11.796875 4.75 -12.453125 C 5.488281 -13.117188 6.007812 -13.757812 6.3125 -14.375 L 7.453125 -14.375 Z M 7.453125 0 "></path>
</symbol>
<symbol overflow="visible" id="glyph0-14">
<path style="stroke:none;" d="M 3.53125 -7.765625 C 2.800781 -8.035156 2.257812 -8.414062 1.90625 -8.90625 C 1.5625 -9.40625 1.390625 -10 1.390625 -10.6875 C 1.390625 -11.726562 1.765625 -12.601562 2.515625 -13.3125 C 3.265625 -14.019531 4.257812 -14.375 5.5 -14.375 C 6.75 -14.375 7.753906 -14.007812 8.515625 -13.28125 C 9.273438 -12.5625 9.65625 -11.679688 9.65625 -10.640625 C 9.65625 -9.972656 9.476562 -9.394531 9.125 -8.90625 C 8.78125 -8.414062 8.253906 -8.035156 7.546875 -7.765625 C 8.429688 -7.472656 9.101562 -7.007812 9.5625 -6.375 C 10.019531 -5.738281 10.25 -4.976562 10.25 -4.09375 C 10.25 -2.863281 9.8125 -1.832031 8.9375 -1 C 8.070312 -0.164062 6.9375 0.25 5.53125 0.25 C 4.113281 0.25 2.972656 -0.164062 2.109375 -1 C 1.242188 -1.84375 0.8125 -2.890625 0.8125 -4.140625 C 0.8125 -5.066406 1.046875 -5.84375 1.515625 -6.46875 C 1.992188 -7.101562 2.664062 -7.535156 3.53125 -7.765625 Z M 3.1875 -10.75 C 3.1875 -10.070312 3.40625 -9.515625 3.84375 -9.078125 C 4.28125 -8.648438 4.84375 -8.4375 5.53125 -8.4375 C 6.207031 -8.4375 6.765625 -8.648438 7.203125 -9.078125 C 7.640625 -9.503906 7.859375 -10.023438 7.859375 -10.640625 C 7.859375 -11.285156 7.632812 -11.828125 7.1875 -12.265625 C 6.738281 -12.710938 6.179688 -12.9375 5.515625 -12.9375 C 4.847656 -12.9375 4.289062 -12.71875 3.84375 -12.28125 C 3.40625 -11.851562 3.1875 -11.34375 3.1875 -10.75 Z M 2.625 -4.125 C 2.625 -3.625 2.738281 -3.140625 2.96875 -2.671875 C 3.207031 -2.203125 3.5625 -1.835938 4.03125 -1.578125 C 4.5 -1.328125 5.003906 -1.203125 5.546875 -1.203125 C 6.390625 -1.203125 7.082031 -1.472656 7.625 -2.015625 C 8.175781 -2.554688 8.453125 -3.242188 8.453125 -4.078125 C 8.453125 -4.921875 8.171875 -5.617188 7.609375 -6.171875 C 7.046875 -6.722656 6.335938 -7 5.484375 -7 C 4.660156 -7 3.976562 -6.722656 3.4375 -6.171875 C 2.894531 -5.628906 2.625 -4.945312 2.625 -4.125 Z M 2.625 -4.125 "></path>
</symbol>
<symbol overflow="visible" id="glyph0-15">
<path style="stroke:none;" d="M 10.0625 -1.6875 L 10.0625 0 L 0.609375 0 C 0.597656 -0.425781 0.664062 -0.832031 0.8125 -1.21875 C 1.050781 -1.863281 1.4375 -2.5 1.96875 -3.125 C 2.5 -3.75 3.265625 -4.472656 4.265625 -5.296875 C 5.828125 -6.566406 6.878906 -7.570312 7.421875 -8.3125 C 7.972656 -9.0625 8.25 -9.769531 8.25 -10.4375 C 8.25 -11.132812 8 -11.722656 7.5 -12.203125 C 7 -12.679688 6.347656 -12.921875 5.546875 -12.921875 C 4.703125 -12.921875 4.023438 -12.664062 3.515625 -12.15625 C 3.003906 -11.644531 2.75 -10.941406 2.75 -10.046875 L 0.9375 -10.234375 C 1.0625 -11.578125 1.523438 -12.601562 2.328125 -13.3125 C 3.140625 -14.019531 4.226562 -14.375 5.59375 -14.375 C 6.957031 -14.375 8.039062 -13.992188 8.84375 -13.234375 C 9.644531 -12.472656 10.046875 -11.53125 10.046875 -10.40625 C 10.046875 -9.832031 9.925781 -9.265625 9.6875 -8.703125 C 9.457031 -8.148438 9.070312 -7.566406 8.53125 -6.953125 C 7.988281 -6.347656 7.085938 -5.507812 5.828125 -4.4375 C 4.765625 -3.550781 4.082031 -2.953125 3.78125 -2.640625 C 3.488281 -2.328125 3.242188 -2.007812 3.046875 -1.6875 Z M 10.0625 -1.6875 "></path>
</symbol>
<symbol overflow="visible" id="glyph0-16">
<path style="stroke:none;" d="M 9.953125 -10.8125 L 8.203125 -10.671875 C 8.046875 -11.359375 7.828125 -11.859375 7.546875 -12.171875 C 7.066406 -12.679688 6.476562 -12.9375 5.78125 -12.9375 C 5.21875 -12.9375 4.726562 -12.78125 4.3125 -12.46875 C 3.757812 -12.0625 3.320312 -11.46875 3 -10.6875 C 2.675781 -9.914062 2.507812 -8.816406 2.5 -7.390625 C 2.925781 -8.023438 3.441406 -8.5 4.046875 -8.8125 C 4.660156 -9.125 5.304688 -9.28125 5.984375 -9.28125 C 7.148438 -9.28125 8.144531 -8.847656 8.96875 -7.984375 C 9.789062 -7.128906 10.203125 -6.019531 10.203125 -4.65625 C 10.203125 -3.75 10.007812 -2.910156 9.625 -2.140625 C 9.238281 -1.367188 8.707031 -0.773438 8.03125 -0.359375 C 7.351562 0.046875 6.582031 0.25 5.71875 0.25 C 4.257812 0.25 3.066406 -0.285156 2.140625 -1.359375 C 1.210938 -2.441406 0.75 -4.222656 0.75 -6.703125 C 0.75 -9.460938 1.257812 -11.472656 2.28125 -12.734375 C 3.175781 -13.828125 4.378906 -14.375 5.890625 -14.375 C 7.015625 -14.375 7.9375 -14.054688 8.65625 -13.421875 C 9.375 -12.796875 9.804688 -11.925781 9.953125 -10.8125 Z M 2.78125 -4.640625 C 2.78125 -4.035156 2.90625 -3.457031 3.15625 -2.90625 C 3.414062 -2.351562 3.773438 -1.929688 4.234375 -1.640625 C 4.703125 -1.347656 5.1875 -1.203125 5.6875 -1.203125 C 6.4375 -1.203125 7.078125 -1.5 7.609375 -2.09375 C 8.140625 -2.695312 8.40625 -3.515625 8.40625 -4.546875 C 8.40625 -5.535156 8.140625 -6.3125 7.609375 -6.875 C 7.085938 -7.445312 6.425781 -7.734375 5.625 -7.734375 C 4.832031 -7.734375 4.160156 -7.445312 3.609375 -6.875 C 3.054688 -6.3125 2.78125 -5.566406 2.78125 -4.640625 Z M 2.78125 -4.640625 "></path>
</symbol>
<symbol overflow="visible" id="glyph0-17">
<path style="stroke:none;" d="M 0.84375 -3.78125 L 2.59375 -4.015625 C 2.800781 -3.015625 3.144531 -2.296875 3.625 -1.859375 C 4.113281 -1.421875 4.707031 -1.203125 5.40625 -1.203125 C 6.226562 -1.203125 6.921875 -1.488281 7.484375 -2.0625 C 8.054688 -2.632812 8.34375 -3.34375 8.34375 -4.1875 C 8.34375 -5 8.078125 -5.664062 7.546875 -6.1875 C 7.023438 -6.707031 6.359375 -6.96875 5.546875 -6.96875 C 5.210938 -6.96875 4.800781 -6.90625 4.3125 -6.78125 L 4.5 -8.328125 C 4.613281 -8.304688 4.707031 -8.296875 4.78125 -8.296875 C 5.53125 -8.296875 6.203125 -8.488281 6.796875 -8.875 C 7.398438 -9.269531 7.703125 -9.875 7.703125 -10.6875 C 7.703125 -11.332031 7.484375 -11.867188 7.046875 -12.296875 C 6.609375 -12.722656 6.046875 -12.9375 5.359375 -12.9375 C 4.679688 -12.9375 4.113281 -12.71875 3.65625 -12.28125 C 3.195312 -11.851562 2.90625 -11.210938 2.78125 -10.359375 L 1.015625 -10.671875 C 1.234375 -11.847656 1.722656 -12.757812 2.484375 -13.40625 C 3.242188 -14.050781 4.191406 -14.375 5.328125 -14.375 C 6.109375 -14.375 6.828125 -14.207031 7.484375 -13.875 C 8.140625 -13.539062 8.640625 -13.082031 8.984375 -12.5 C 9.335938 -11.914062 9.515625 -11.300781 9.515625 -10.65625 C 9.515625 -10.039062 9.347656 -9.476562 9.015625 -8.96875 C 8.679688 -8.457031 8.191406 -8.050781 7.546875 -7.75 C 8.390625 -7.5625 9.046875 -7.15625 9.515625 -6.53125 C 9.984375 -5.914062 10.21875 -5.148438 10.21875 -4.234375 C 10.21875 -2.984375 9.757812 -1.921875 8.84375 -1.046875 C 7.9375 -0.179688 6.785156 0.25 5.390625 0.25 C 4.128906 0.25 3.082031 -0.125 2.25 -0.875 C 1.425781 -1.625 0.957031 -2.59375 0.84375 -3.78125 Z M 0.84375 -3.78125 "></path>
</symbol>
<symbol overflow="visible" id="glyph0-18">
<path style="stroke:none;" d="M 0.828125 -7.0625 C 0.828125 -8.75 1 -10.109375 1.34375 -11.140625 C 1.695312 -12.179688 2.21875 -12.976562 2.90625 -13.53125 C 3.59375 -14.09375 4.457031 -14.375 5.5 -14.375 C 6.269531 -14.375 6.941406 -14.21875 7.515625 -13.90625 C 8.097656 -13.601562 8.578125 -13.160156 8.953125 -12.578125 C 9.328125 -11.992188 9.625 -11.28125 9.84375 -10.4375 C 10.0625 -9.601562 10.171875 -8.476562 10.171875 -7.0625 C 10.171875 -5.382812 9.992188 -4.03125 9.640625 -3 C 9.296875 -1.96875 8.78125 -1.164062 8.09375 -0.59375 C 7.414062 -0.03125 6.550781 0.25 5.5 0.25 C 4.113281 0.25 3.03125 -0.242188 2.25 -1.234375 C 1.300781 -2.429688 0.828125 -4.375 0.828125 -7.0625 Z M 2.640625 -7.0625 C 2.640625 -4.707031 2.910156 -3.140625 3.453125 -2.359375 C 4.003906 -1.585938 4.6875 -1.203125 5.5 -1.203125 C 6.300781 -1.203125 6.976562 -1.59375 7.53125 -2.375 C 8.082031 -3.15625 8.359375 -4.71875 8.359375 -7.0625 C 8.359375 -9.414062 8.082031 -10.976562 7.53125 -11.75 C 6.976562 -12.53125 6.296875 -12.921875 5.484375 -12.921875 C 4.671875 -12.921875 4.023438 -12.578125 3.546875 -11.890625 C 2.941406 -11.023438 2.640625 -9.414062 2.640625 -7.0625 Z M 2.640625 -7.0625 "></path>
</symbol>
<symbol overflow="visible" id="glyph0-19">
<path style="stroke:none;" d="M 1.8125 0 L 1.8125 -2 L 3.8125 -2 L 3.8125 0 Z M 1.8125 0 "></path>
</symbol>
<symbol overflow="visible" id="glyph0-20">
<path style="stroke:none;" d="M 6.46875 0 L 6.46875 -3.421875 L 0.25 -3.421875 L 0.25 -5.046875 L 6.78125 -14.3125 L 8.21875 -14.3125 L 8.21875 -5.046875 L 10.15625 -5.046875 L 10.15625 -3.421875 L 8.21875 -3.421875 L 8.21875 0 Z M 6.46875 -5.046875 L 6.46875 -11.5 L 1.984375 -5.046875 Z M 6.46875 -5.046875 "></path>
</symbol>
<symbol overflow="visible" id="glyph1-0">
<path style="stroke:none;" d="M 0 -2.5 L -12.5 -2.5 L -12.5 -12.5 L 0 -12.5 Z M -0.3125 -2.8125 L -0.3125 -12.1875 L -12.1875 -12.1875 L -12.1875 -2.8125 Z M -0.3125 -2.8125 "></path>
</symbol>
<symbol overflow="visible" id="glyph1-1">
<path style="stroke:none;" d="M 4.203125 -4.671875 C 2.984375 -3.703125 1.554688 -2.882812 -0.078125 -2.21875 C -1.722656 -1.550781 -3.425781 -1.21875 -5.1875 -1.21875 C -6.738281 -1.21875 -8.222656 -1.46875 -9.640625 -1.96875 C -11.285156 -2.550781 -12.925781 -3.453125 -14.5625 -4.671875 L -14.5625 -5.9375 C -13.207031 -5.144531 -12.238281 -4.625 -11.65625 -4.375 C -10.757812 -3.976562 -9.820312 -3.664062 -8.84375 -3.4375 C -7.625 -3.15625 -6.398438 -3.015625 -5.171875 -3.015625 C -2.046875 -3.015625 1.078125 -3.988281 4.203125 -5.9375 Z M 4.203125 -4.671875 "></path>
</symbol>
<symbol overflow="visible" id="glyph1-2">
<path style="stroke:none;" d="M -3.09375 -0.609375 L -3.375 -2.359375 C -2.675781 -2.453125 -2.140625 -2.722656 -1.765625 -3.171875 C -1.398438 -3.617188 -1.21875 -4.242188 -1.21875 -5.046875 C -1.21875 -5.847656 -1.378906 -6.441406 -1.703125 -6.828125 C -2.035156 -7.222656 -2.421875 -7.421875 -2.859375 -7.421875 C -3.253906 -7.421875 -3.566406 -7.25 -3.796875 -6.90625 C -3.953125 -6.664062 -4.148438 -6.066406 -4.390625 -5.109375 C -4.722656 -3.816406 -5.003906 -2.921875 -5.234375 -2.421875 C -5.472656 -1.929688 -5.800781 -1.554688 -6.21875 -1.296875 C -6.644531 -1.035156 -7.113281 -0.90625 -7.625 -0.90625 C -8.082031 -0.90625 -8.507812 -1.007812 -8.90625 -1.21875 C -9.300781 -1.4375 -9.628906 -1.726562 -9.890625 -2.09375 C -10.085938 -2.363281 -10.253906 -2.734375 -10.390625 -3.203125 C -10.535156 -3.679688 -10.609375 -4.191406 -10.609375 -4.734375 C -10.609375 -5.546875 -10.488281 -6.257812 -10.25 -6.875 C -10.019531 -7.488281 -9.703125 -7.941406 -9.296875 -8.234375 C -8.898438 -8.523438 -8.367188 -8.726562 -7.703125 -8.84375 L -7.46875 -7.125 C -8 -7.039062 -8.410156 -6.8125 -8.703125 -6.4375 C -9.003906 -6.0625 -9.15625 -5.535156 -9.15625 -4.859375 C -9.15625 -4.046875 -9.019531 -3.46875 -8.75 -3.125 C -8.488281 -2.78125 -8.179688 -2.609375 -7.828125 -2.609375 C -7.597656 -2.609375 -7.390625 -2.679688 -7.203125 -2.828125 C -7.015625 -2.960938 -6.859375 -3.1875 -6.734375 -3.5 C -6.671875 -3.675781 -6.523438 -4.191406 -6.296875 -5.046875 C -5.960938 -6.296875 -5.6875 -7.164062 -5.46875 -7.65625 C -5.257812 -8.144531 -4.953125 -8.53125 -4.546875 -8.8125 C -4.148438 -9.09375 -3.648438 -9.234375 -3.046875 -9.234375 C -2.460938 -9.234375 -1.910156 -9.0625 -1.390625 -8.71875 C -0.867188 -8.375 -0.46875 -7.878906 -0.1875 -7.234375 C 0.09375 -6.585938 0.234375 -5.859375 0.234375 -5.046875 C 0.234375 -3.703125 -0.046875 -2.675781 -0.609375 -1.96875 C -1.171875 -1.257812 -2 -0.804688 -3.09375 -0.609375 Z M -3.09375 -0.609375 "></path>
</symbol>
<symbol overflow="visible" id="glyph1-3">
<path style="stroke:none;" d="M 4.203125 -2.46875 L 4.203125 -1.21875 C 1.078125 -3.15625 -2.046875 -4.125 -5.171875 -4.125 C -6.398438 -4.125 -7.613281 -3.988281 -8.8125 -3.71875 C -9.789062 -3.488281 -10.726562 -3.175781 -11.625 -2.78125 C -12.21875 -2.53125 -13.195312 -2.007812 -14.5625 -1.21875 L -14.5625 -2.46875 C -12.925781 -3.695312 -11.285156 -4.601562 -9.640625 -5.1875 C -8.222656 -5.6875 -6.738281 -5.9375 -5.1875 -5.9375 C -3.425781 -5.9375 -1.722656 -5.597656 -0.078125 -4.921875 C 1.554688 -4.253906 2.984375 -3.4375 4.203125 -2.46875 Z M 4.203125 -2.46875 "></path>
</symbol>
<symbol overflow="visible" id="glyph2-0">
<path style="stroke:none;" d="M 0 -1.625 L -8.125 -1.625 L -8.125 -8.125 L 0 -8.125 Z M -0.203125 -1.828125 L -0.203125 -7.921875 L -7.921875 -7.921875 L -7.921875 -1.828125 Z M -0.203125 -1.828125 "></path>
</symbol>
<symbol overflow="visible" id="glyph2-1">
<path style="stroke:none;" d="M -2.796875 -0.40625 L -3.9375 -0.40625 L -3.9375 -3.921875 L -2.796875 -3.921875 Z M -2.796875 -0.40625 "></path>
</symbol>
<symbol overflow="visible" id="glyph2-2">
<path style="stroke:none;" d="M 0 -4.84375 L 0 -3.703125 L -7.28125 -3.703125 C -7.019531 -3.421875 -6.753906 -3.054688 -6.484375 -2.609375 C -6.222656 -2.171875 -6.03125 -1.773438 -5.90625 -1.421875 L -7.015625 -1.421875 C -7.304688 -2.054688 -7.664062 -2.613281 -8.09375 -3.09375 C -8.519531 -3.570312 -8.9375 -3.910156 -9.34375 -4.109375 L -9.34375 -4.84375 Z M 0 -4.84375 "></path>
</symbol>
</g>
</defs>
<g id="surface1">
<g style="fill:rgb(0%,0%,0%);fill-opacity:1;"> <use xlink:href="#glyph0-1" x="167.65625" y="360.93564"></use> <use xlink:href="#glyph0-2" x="173.208624" y="360.93564"></use> <use xlink:href="#glyph0-3" x="184.32721" y="360.93564"></use> <use xlink:href="#glyph0-4" x="200.977414" y="360.93564"></use> <use xlink:href="#glyph0-2" x="212.096001" y="360.93564"></use> <use xlink:href="#glyph0-5" x="223.214587" y="360.93564"></use> <use xlink:href="#glyph0-6" x="229.870517" y="360.93564"></use> <use xlink:href="#glyph0-1" x="240.989103" y="360.93564"></use> <use xlink:href="#glyph0-7" x="246.541477" y="360.93564"></use> <use xlink:href="#glyph0-5" x="257.660064" y="360.93564"></use> <use xlink:href="#glyph0-2" x="264.315994" y="360.93564"></use> <use xlink:href="#glyph0-8" x="275.43458" y="360.93564"></use> <use xlink:href="#glyph0-9" x="280.986954" y="360.93564"></use> <use xlink:href="#glyph0-10" x="287.642885" y="360.93564"></use> <use xlink:href="#glyph0-11" x="295.637612" y="360.93564"></use> <use xlink:href="#glyph0-12" x="310.073785" y="360.93564"></use>
</g>
<g style="fill:rgb(0%,0%,0%);fill-opacity:1;"> <use xlink:href="#glyph0-13" x="107.84375" y="337.490327"></use> <use xlink:href="#glyph0-14" x="118.962336" y="337.490327"></use>
</g>
<g style="fill:rgb(0%,0%,0%);fill-opacity:1;"> <use xlink:href="#glyph0-15" x="169.925781" y="337.490327"></use> <use xlink:href="#glyph0-15" x="181.044367" y="337.490327"></use>
</g>
<g style="fill:rgb(0%,0%,0%);fill-opacity:1;"> <use xlink:href="#glyph0-15" x="231.0625" y="337.490327"></use> <use xlink:href="#glyph0-16" x="242.181086" y="337.490327"></use>
</g>
<g style="fill:rgb(0%,0%,0%);fill-opacity:1;"> <use xlink:href="#glyph0-17" x="292.171875" y="337.490327"></use> <use xlink:href="#glyph0-18" x="303.290461" y="337.490327"></use>
</g>
<g style="fill:rgb(0%,0%,0%);fill-opacity:1;"> <use xlink:href="#glyph0-17" x="353.355469" y="337.490327"></use> <use xlink:href="#glyph0-17" x="364.474055" y="337.490327"></use>
</g>
<g style="fill:rgb(0%,0%,0%);fill-opacity:1;"> <use xlink:href="#glyph0-13" x="73.074219" y="44.74814"></use>
</g>
<g style="fill:rgb(0%,0%,0%);fill-opacity:1;"> <use xlink:href="#glyph0-18" x="53.605469" y="100.267671"></use> <use xlink:href="#glyph0-19" x="64.724055" y="100.267671"></use> <use xlink:href="#glyph0-14" x="70.276429" y="100.267671"></use>
</g>
<g style="fill:rgb(0%,0%,0%);fill-opacity:1;"> <use xlink:href="#glyph0-18" x="53.644531" y="155.912202"></use> <use xlink:href="#glyph0-19" x="64.763117" y="155.912202"></use> <use xlink:href="#glyph0-16" x="70.315492" y="155.912202"></use>
</g>
<g style="fill:rgb(0%,0%,0%);fill-opacity:1;"> <use xlink:href="#glyph0-18" x="53.695312" y="211.552827"></use> <use xlink:href="#glyph0-19" x="64.813899" y="211.552827"></use> <use xlink:href="#glyph0-20" x="70.366273" y="211.552827"></use>
</g>
<g style="fill:rgb(0%,0%,0%);fill-opacity:1;"> <use xlink:href="#glyph0-18" x="53.78125" y="267.197358"></use> <use xlink:href="#glyph0-19" x="64.899836" y="267.197358"></use> <use xlink:href="#glyph0-15" x="70.45221" y="267.197358"></use>
</g>
<g style="fill:rgb(0%,0%,0%);fill-opacity:1;"> <use xlink:href="#glyph0-18" x="70.359375" y="322.837983"></use>
</g>
<g style="fill:rgb(0%,0%,0%);fill-opacity:1;"> <use xlink:href="#glyph1-1" x="27.931733" y="168.75"></use> <use xlink:href="#glyph1-2" x="27.931733" y="162.09407"></use>
</g>
<g style="fill:rgb(0%,0%,0%);fill-opacity:1;"> <use xlink:href="#glyph2-1" x="22.734248" y="152.097656"></use> <use xlink:href="#glyph2-2" x="22.734248" y="147.769918"></use>
</g>
<g style="fill:rgb(0%,0%,0%);fill-opacity:1;"> <use xlink:href="#glyph1-3" x="27.931733" y="140.542969"></use>
</g>
<path style=" stroke:none;fill-rule:nonzero;fill:rgb(0%,0%,0%);fill-opacity:1;" d="M 16.132812 186.660156 C 16.09375 186.660156 15.859375 186.660156 15.859375 186.96875 C 15.859375 187.554688 16.054688 189.390625 16.09375 190.015625 C 16.132812 190.210938 16.171875 190.484375 16.601562 190.484375 C 16.914062 190.484375 16.914062 190.289062 16.914062 189.898438 C 16.914062 188.6875 17.070312 188.648438 17.34375 188.648438 C 17.5 188.648438 18.671875 188.960938 19.335938 189.117188 L 25.464844 190.640625 C 25.816406 190.757812 26.519531 190.914062 26.558594 190.914062 C 26.832031 190.914062 26.871094 190.679688 26.871094 190.523438 L 26.871094 190.171875 C 26.558594 188.414062 25.582031 185.722656 23.199219 183.144531 C 20.152344 179.863281 16.757812 179.199219 16.523438 179.199219 C 16.09375 179.199219 15.859375 179.472656 15.859375 179.902344 C 15.859375 180.097656 15.976562 180.683594 16.679688 180.878906 C 22.339844 182.480469 25.113281 186.269531 26.050781 189.117188 Z M 16.132812 186.660156 "></path>
<path style="fill:none;stroke-width:0.5;stroke-linecap:butt;stroke-linejoin:round;stroke:rgb(13.725491%,13.725491%,13.725491%);stroke-opacity:0.14902;stroke-miterlimit:10;" d="M 196.010171 171.988646 L 196.010171 85.497467 " transform="matrix(3.542449,0,0,3.542449,-574.883449,-293.307947)"></path>
<path style="fill:none;stroke-width:0.5;stroke-linecap:butt;stroke-linejoin:round;stroke:rgb(13.725491%,13.725491%,13.725491%);stroke-opacity:0.14902;stroke-miterlimit:10;" d="M 213.308186 171.988646 L 213.308186 85.497467 " transform="matrix(3.542449,0,0,3.542449,-574.883449,-293.307947)"></path>
<path style="fill:none;stroke-width:0.5;stroke-linecap:butt;stroke-linejoin:round;stroke:rgb(13.725491%,13.725491%,13.725491%);stroke-opacity:0.14902;stroke-miterlimit:10;" d="M 230.606202 171.988646 L 230.606202 85.497467 " transform="matrix(3.542449,0,0,3.542449,-574.883449,-293.307947)"></path>
<path style="fill:none;stroke-width:0.5;stroke-linecap:butt;stroke-linejoin:round;stroke:rgb(13.725491%,13.725491%,13.725491%);stroke-opacity:0.14902;stroke-miterlimit:10;" d="M 247.904217 171.988646 L 247.904217 85.497467 " transform="matrix(3.542449,0,0,3.542449,-574.883449,-293.307947)"></path>
<path style="fill:none;stroke-width:0.5;stroke-linecap:butt;stroke-linejoin:round;stroke:rgb(13.725491%,13.725491%,13.725491%);stroke-opacity:0.14902;stroke-miterlimit:10;" d="M 265.202232 171.988646 L 265.202232 85.497467 " transform="matrix(3.542449,0,0,3.542449,-574.883449,-293.307947)"></path>
<path style="fill:none;stroke-width:0.5;stroke-linecap:square;stroke-linejoin:round;stroke:rgb(13.725491%,13.725491%,13.725491%);stroke-opacity:1;stroke-miterlimit:10;" d="M 187.360612 171.988646 L 273.851791 171.988646 " transform="matrix(3.542449,0,0,3.542449,-574.883449,-293.307947)"></path>
<path style="fill:none;stroke-width:0.5;stroke-linecap:square;stroke-linejoin:round;stroke:rgb(13.725491%,13.725491%,13.725491%);stroke-opacity:1;stroke-miterlimit:10;" d="M 196.010171 171.988646 L 196.010171 171.123029 " transform="matrix(3.542449,0,0,3.542449,-574.883449,-293.307947)"></path>
<path style="fill:none;stroke-width:0.5;stroke-linecap:square;stroke-linejoin:round;stroke:rgb(13.725491%,13.725491%,13.725491%);stroke-opacity:1;stroke-miterlimit:10;" d="M 213.308186 171.988646 L 213.308186 171.123029 " transform="matrix(3.542449,0,0,3.542449,-574.883449,-293.307947)"></path>
<path style="fill:none;stroke-width:0.5;stroke-linecap:square;stroke-linejoin:round;stroke:rgb(13.725491%,13.725491%,13.725491%);stroke-opacity:1;stroke-miterlimit:10;" d="M 230.606202 171.988646 L 230.606202 171.123029 " transform="matrix(3.542449,0,0,3.542449,-574.883449,-293.307947)"></path>
<path style="fill:none;stroke-width:0.5;stroke-linecap:square;stroke-linejoin:round;stroke:rgb(13.725491%,13.725491%,13.725491%);stroke-opacity:1;stroke-miterlimit:10;" d="M 247.904217 171.988646 L 247.904217 171.123029 " transform="matrix(3.542449,0,0,3.542449,-574.883449,-293.307947)"></path>
<path style="fill:none;stroke-width:0.5;stroke-linecap:square;stroke-linejoin:round;stroke:rgb(13.725491%,13.725491%,13.725491%);stroke-opacity:1;stroke-miterlimit:10;" d="M 265.202232 171.988646 L 265.202232 171.123029 " transform="matrix(3.542449,0,0,3.542449,-574.883449,-293.307947)"></path>
<path style="fill:none;stroke-width:0.5;stroke-linecap:square;stroke-linejoin:round;stroke:rgb(13.725491%,13.725491%,13.725491%);stroke-opacity:1;stroke-miterlimit:10;" d="M 187.360612 171.988646 L 187.360612 85.497467 " transform="matrix(3.542449,0,0,3.542449,-574.883449,-293.307947)"></path>
<path style="fill:none;stroke-width:0.5;stroke-linecap:square;stroke-linejoin:round;stroke:rgb(13.725491%,13.725491%,13.725491%);stroke-opacity:1;stroke-miterlimit:10;" d="M 187.360612 171.988646 L 188.225126 171.988646 " transform="matrix(3.542449,0,0,3.542449,-574.883449,-293.307947)"></path>
<path style="fill:none;stroke-width:0.5;stroke-linecap:square;stroke-linejoin:round;stroke:rgb(13.725491%,13.725491%,13.725491%);stroke-opacity:1;stroke-miterlimit:10;" d="M 187.360612 156.261975 L 188.225126 156.261975 " transform="matrix(3.542449,0,0,3.542449,-574.883449,-293.307947)"></path>
<path style="fill:none;stroke-width:0.5;stroke-linecap:square;stroke-linejoin:round;stroke:rgb(13.725491%,13.725491%,13.725491%);stroke-opacity:1;stroke-miterlimit:10;" d="M 187.360612 140.537509 L 188.225126 140.537509 " transform="matrix(3.542449,0,0,3.542449,-574.883449,-293.307947)"></path>
<path style="fill:none;stroke-width:0.5;stroke-linecap:square;stroke-linejoin:round;stroke:rgb(13.725491%,13.725491%,13.725491%);stroke-opacity:1;stroke-miterlimit:10;" d="M 187.360612 124.81194 L 188.225126 124.81194 " transform="matrix(3.542449,0,0,3.542449,-574.883449,-293.307947)"></path>
<path style="fill:none;stroke-width:0.5;stroke-linecap:square;stroke-linejoin:round;stroke:rgb(13.725491%,13.725491%,13.725491%);stroke-opacity:1;stroke-miterlimit:10;" d="M 187.360612 109.085269 L 188.225126 109.085269 " transform="matrix(3.542449,0,0,3.542449,-574.883449,-293.307947)"></path>
<path style="fill:none;stroke-width:0.5;stroke-linecap:square;stroke-linejoin:round;stroke:rgb(13.725491%,13.725491%,13.725491%);stroke-opacity:1;stroke-miterlimit:10;" d="M 187.360612 93.360802 L 188.225126 93.360802 " transform="matrix(3.542449,0,0,3.542449,-574.883449,-293.307947)"></path>
<path style=" stroke:none;fill-rule:nonzero;fill:rgb(12.941177%,26.666668%,47.058824%);fill-opacity:1;" d="M 119.472656 280.070312 C 120.773438 280.070312 121.832031 281.125 121.832031 282.429688 C 121.832031 283.730469 120.773438 284.789062 119.472656 284.789062 C 118.167969 284.789062 117.113281 283.730469 117.113281 282.429688 C 117.113281 281.125 118.167969 280.070312 119.472656 280.070312 Z M 119.472656 279.128906 C 117.648438 279.128906 116.171875 280.605469 116.171875 282.429688 C 116.171875 284.253906 117.648438 285.730469 119.472656 285.730469 C 121.292969 285.730469 122.773438 284.253906 122.773438 282.429688 C 122.773438 280.605469 121.292969 279.128906 119.472656 279.128906 Z M 119.472656 279.128906 "></path>
<path style=" stroke:none;fill-rule:nonzero;fill:rgb(12.941177%,26.666668%,47.058824%);fill-opacity:1;" d="M 119.472656 270.667969 C 120.773438 270.667969 121.832031 271.726562 121.832031 273.027344 C 121.832031 274.332031 120.773438 275.386719 119.472656 275.386719 C 118.167969 275.386719 117.113281 274.332031 117.113281 273.027344 C 117.113281 271.726562 118.167969 270.667969 119.472656 270.667969 Z M 119.472656 269.726562 C 117.648438 269.726562 116.171875 271.203125 116.171875 273.027344 C 116.171875 274.851562 117.648438 276.332031 119.472656 276.332031 C 121.292969 276.332031 122.773438 274.851562 122.773438 273.027344 C 122.773438 271.203125 121.292969 269.726562 119.472656 269.726562 Z M 119.472656 269.726562 "></path>
<path style=" stroke:none;fill-rule:nonzero;fill:rgb(12.941177%,26.666668%,47.058824%);fill-opacity:1;" d="M 119.472656 277.089844 C 120.773438 277.089844 121.832031 278.148438 121.832031 279.449219 C 121.832031 280.753906 120.773438 281.808594 119.472656 281.808594 C 118.167969 281.808594 117.113281 280.753906 117.113281 279.449219 C 117.113281 278.148438 118.167969 277.089844 119.472656 277.089844 Z M 119.472656 276.144531 C 117.648438 276.144531 116.171875 277.625 116.171875 279.449219 C 116.171875 281.273438 117.648438 282.75 119.472656 282.75 C 121.292969 282.75 122.773438 281.273438 122.773438 279.449219 C 122.773438 277.625 121.292969 276.144531 119.472656 276.144531 Z M 119.472656 276.144531 "></path>
<path style=" stroke:none;fill-rule:nonzero;fill:rgb(12.941177%,26.666668%,47.058824%);fill-opacity:0.2;" d="M 104.152344 281.683594 L 134.789062 281.683594 L 134.789062 274.636719 L 104.152344 274.636719 Z M 104.152344 281.683594 "></path>
<path style="fill:none;stroke-width:0.5;stroke-linecap:butt;stroke-linejoin:round;stroke:rgb(13.725491%,13.725491%,13.725491%);stroke-opacity:1;stroke-miterlimit:10;" d="M 196.010171 162.525297 L 196.010171 162.314681 " transform="matrix(3.542449,0,0,3.542449,-574.883449,-293.307947)"></path>
<path style="fill:none;stroke-width:0.5;stroke-linecap:butt;stroke-linejoin:round;stroke:rgb(13.725491%,13.725491%,13.725491%);stroke-opacity:1;stroke-miterlimit:10;" d="M 196.010171 160.325415 L 196.010171 159.871104 " transform="matrix(3.542449,0,0,3.542449,-574.883449,-293.307947)"></path>
<path style="fill:none;stroke-width:0.5;stroke-linecap:butt;stroke-linejoin:round;stroke:rgb(13.725491%,13.725491%,13.725491%);stroke-opacity:1;stroke-miterlimit:10;" d="M 193.847781 162.525297 L 198.17256 162.525297 " transform="matrix(3.542449,0,0,3.542449,-574.883449,-293.307947)"></path>
<path style="fill:none;stroke-width:0.5;stroke-linecap:butt;stroke-linejoin:round;stroke:rgb(13.725491%,13.725491%,13.725491%);stroke-opacity:1;stroke-miterlimit:10;" d="M 193.847781 159.871104 L 198.17256 159.871104 " transform="matrix(3.542449,0,0,3.542449,-574.883449,-293.307947)"></path>
<path style="fill:none;stroke-width:0.5;stroke-linecap:butt;stroke-linejoin:round;stroke:rgb(12.941177%,26.666668%,47.058824%);stroke-opacity:1;stroke-miterlimit:10;" d="M 191.685391 161.683938 L 200.333848 161.683938 " transform="matrix(3.542449,0,0,3.542449,-574.883449,-293.307947)"></path>
<path style="fill:none;stroke-width:0.5;stroke-linecap:butt;stroke-linejoin:miter;stroke:rgb(12.941177%,26.666668%,47.058824%);stroke-opacity:1;stroke-miterlimit:10;" d="M 191.685391 162.314681 L 200.333848 162.314681 L 200.333848 160.325415 L 191.685391 160.325415 L 191.685391 162.314681 " transform="matrix(3.542449,0,0,3.542449,-574.883449,-293.307947)"></path>
<path style=" stroke:none;fill-rule:nonzero;fill:rgb(23.921569%,58.039218%,29.803923%);fill-opacity:1;" d="M 180.75 281.328125 C 182.050781 281.328125 183.109375 282.382812 183.109375 283.6875 C 183.109375 284.988281 182.050781 286.046875 180.75 286.046875 C 179.445312 286.046875 178.390625 284.988281 178.390625 283.6875 C 178.390625 282.382812 179.445312 281.328125 180.75 281.328125 Z M 180.75 280.382812 C 178.925781 280.382812 177.449219 281.863281 177.449219 283.6875 C 177.449219 285.511719 178.925781 286.988281 180.75 286.988281 C 182.574219 286.988281 184.050781 285.511719 184.050781 283.6875 C 184.050781 281.863281 182.574219 280.382812 180.75 280.382812 Z M 180.75 280.382812 "></path>
<path style=" stroke:none;fill-rule:nonzero;fill:rgb(23.921569%,58.039218%,29.803923%);fill-opacity:1;" d="M 180.75 275.71875 C 182.050781 275.71875 183.109375 276.777344 183.109375 278.078125 C 183.109375 279.382812 182.050781 280.4375 180.75 280.4375 C 179.445312 280.4375 178.390625 279.382812 178.390625 278.078125 C 178.390625 276.777344 179.445312 275.71875 180.75 275.71875 Z M 180.75 274.773438 C 178.925781 274.773438 177.449219 276.253906 177.449219 278.078125 C 177.449219 279.902344 178.925781 281.378906 180.75 281.378906 C 182.574219 281.378906 184.050781 279.902344 184.050781 278.078125 C 184.050781 276.253906 182.574219 274.773438 180.75 274.773438 Z M 180.75 274.773438 "></path>
<path style=" stroke:none;fill-rule:nonzero;fill:rgb(23.921569%,58.039218%,29.803923%);fill-opacity:1;" d="M 180.75 284.195312 C 182.050781 284.195312 183.109375 285.253906 183.109375 286.554688 C 183.109375 287.859375 182.050781 288.914062 180.75 288.914062 C 179.445312 288.914062 178.390625 287.859375 178.390625 286.554688 C 178.390625 285.253906 179.445312 284.195312 180.75 284.195312 Z M 180.75 283.25 C 178.925781 283.25 177.449219 284.730469 177.449219 286.554688 C 177.449219 288.378906 178.925781 289.855469 180.75 289.855469 C 182.574219 289.855469 184.050781 288.378906 184.050781 286.554688 C 184.050781 284.730469 182.574219 283.25 180.75 283.25 Z M 180.75 283.25 "></path>
<path style=" stroke:none;fill-rule:nonzero;fill:rgb(23.921569%,58.039218%,29.803923%);fill-opacity:1;" d="M 180.75 266.730469 C 182.050781 266.730469 183.109375 267.789062 183.109375 269.089844 C 183.109375 270.394531 182.050781 271.449219 180.75 271.449219 C 179.445312 271.449219 178.390625 270.394531 178.390625 269.089844 C 178.390625 267.789062 179.445312 266.730469 180.75 266.730469 Z M 180.75 265.785156 C 178.925781 265.785156 177.449219 267.269531 177.449219 269.089844 C 177.449219 270.914062 178.925781 272.390625 180.75 272.390625 C 182.574219 272.390625 184.050781 270.914062 184.050781 269.089844 C 184.050781 267.269531 182.574219 265.785156 180.75 265.785156 Z M 180.75 265.785156 "></path>
<path style=" stroke:none;fill-rule:nonzero;fill:rgb(23.921569%,58.039218%,29.803923%);fill-opacity:1;" d="M 180.75 283.273438 C 182.050781 283.273438 183.109375 284.328125 183.109375 285.632812 C 183.109375 286.933594 182.050781 287.992188 180.75 287.992188 C 179.445312 287.992188 178.390625 286.933594 178.390625 285.632812 C 178.390625 284.328125 179.445312 283.273438 180.75 283.273438 Z M 180.75 282.332031 C 178.925781 282.332031 177.449219 283.808594 177.449219 285.632812 C 177.449219 287.457031 178.925781 288.933594 180.75 288.933594 C 182.574219 288.933594 184.050781 287.457031 184.050781 285.632812 C 184.050781 283.808594 182.574219 282.332031 180.75 282.332031 Z M 180.75 282.332031 "></path>
<path style=" stroke:none;fill-rule:nonzero;fill:rgb(23.921569%,58.039218%,29.803923%);fill-opacity:1;" d="M 180.75 218.589844 C 182.050781 218.589844 183.109375 219.644531 183.109375 220.949219 C 183.109375 222.25 182.050781 223.308594 180.75 223.308594 C 179.445312 223.308594 178.390625 222.25 178.390625 220.949219 C 178.390625 219.644531 179.445312 218.589844 180.75 218.589844 Z M 180.75 217.648438 C 178.925781 217.648438 177.449219 219.125 177.449219 220.949219 C 177.449219 222.769531 178.925781 224.253906 180.75 224.253906 C 182.574219 224.253906 184.050781 222.769531 184.050781 220.949219 C 184.050781 219.125 182.574219 217.648438 180.75 217.648438 Z M 180.75 217.648438 "></path>
<path style=" stroke:none;fill-rule:nonzero;fill:rgb(23.921569%,58.039218%,29.803923%);fill-opacity:1;" d="M 180.75 283.5 C 182.050781 283.5 183.109375 284.554688 183.109375 285.855469 C 183.109375 287.160156 182.050781 288.214844 180.75 288.214844 C 179.445312 288.214844 178.390625 287.160156 178.390625 285.855469 C 178.390625 284.554688 179.445312 283.5 180.75 283.5 Z M 180.75 282.554688 C 178.925781 282.554688 177.449219 284.03125 177.449219 285.855469 C 177.449219 287.679688 178.925781 289.160156 180.75 289.160156 C 182.574219 289.160156 184.050781 287.679688 184.050781 285.855469 C 184.050781 284.03125 182.574219 282.554688 180.75 282.554688 Z M 180.75 282.554688 "></path>
<path style=" stroke:none;fill-rule:nonzero;fill:rgb(23.921569%,58.039218%,29.803923%);fill-opacity:0.2;" d="M 165.429688 285.800781 L 196.070312 285.800781 L 196.070312 271.335938 L 165.429688 271.335938 Z M 165.429688 285.800781 "></path>
<path style="fill:none;stroke-width:0.5;stroke-linecap:butt;stroke-linejoin:round;stroke:rgb(13.725491%,13.725491%,13.725491%);stroke-opacity:1;stroke-miterlimit:10;" d="M 213.308186 163.689745 L 213.308186 163.476925 " transform="matrix(3.542449,0,0,3.542449,-574.883449,-293.307947)"></path>
<path style="fill:none;stroke-width:0.5;stroke-linecap:butt;stroke-linejoin:round;stroke:rgb(13.725491%,13.725491%,13.725491%);stroke-opacity:1;stroke-miterlimit:10;" d="M 213.308186 159.393636 L 213.308186 158.759585 " transform="matrix(3.542449,0,0,3.542449,-574.883449,-293.307947)"></path>
<path style="fill:none;stroke-width:0.5;stroke-linecap:butt;stroke-linejoin:round;stroke:rgb(13.725491%,13.725491%,13.725491%);stroke-opacity:1;stroke-miterlimit:10;" d="M 211.145796 163.689745 L 215.469473 163.689745 " transform="matrix(3.542449,0,0,3.542449,-574.883449,-293.307947)"></path>
<path style="fill:none;stroke-width:0.5;stroke-linecap:butt;stroke-linejoin:round;stroke:rgb(13.725491%,13.725491%,13.725491%);stroke-opacity:1;stroke-miterlimit:10;" d="M 211.145796 158.759585 L 215.469473 158.759585 " transform="matrix(3.542449,0,0,3.542449,-574.883449,-293.307947)"></path>
<path style="fill:none;stroke-width:0.5;stroke-linecap:butt;stroke-linejoin:round;stroke:rgb(23.921569%,58.039218%,29.803923%);stroke-opacity:1;stroke-miterlimit:10;" d="M 208.983407 162.880365 L 217.632966 162.880365 " transform="matrix(3.542449,0,0,3.542449,-574.883449,-293.307947)"></path>
<path style="fill:none;stroke-width:0.5;stroke-linecap:butt;stroke-linejoin:miter;stroke:rgb(23.921569%,58.039218%,29.803923%);stroke-opacity:1;stroke-miterlimit:10;" d="M 208.983407 163.476925 L 217.632966 163.476925 L 217.632966 159.393636 L 208.983407 159.393636 L 208.983407 163.476925 " transform="matrix(3.542449,0,0,3.542449,-574.883449,-293.307947)"></path>
<path style="fill:none;stroke-width:0.5;stroke-linecap:butt;stroke-linejoin:miter;stroke:rgb(100%,0%,0%);stroke-opacity:1;stroke-miterlimit:10;" d="M 213.308186 143.971309 L 213.308186 146.368573 M 212.109554 145.169941 L 214.506818 145.169941 " transform="matrix(3.542449,0,0,3.542449,-574.883449,-293.307947)"></path>
<path style=" stroke:none;fill-rule:nonzero;fill:rgb(85.09804%,70.588237%,14.117648%);fill-opacity:1;" d="M 242.027344 236.480469 C 243.328125 236.480469 244.386719 237.539062 244.386719 238.839844 C 244.386719 240.144531 243.328125 241.199219 242.027344 241.199219 C 240.726562 241.199219 239.667969 240.144531 239.667969 238.839844 C 239.667969 237.539062 240.726562 236.480469 242.027344 236.480469 Z M 242.027344 235.535156 C 240.203125 235.535156 238.726562 237.015625 238.726562 238.839844 C 238.726562 240.664062 240.203125 242.140625 242.027344 242.140625 C 243.851562 242.140625 245.328125 240.664062 245.328125 238.839844 C 245.328125 237.015625 243.851562 235.535156 242.027344 235.535156 Z M 242.027344 235.535156 "></path>
<path style=" stroke:none;fill-rule:nonzero;fill:rgb(85.09804%,70.588237%,14.117648%);fill-opacity:1;" d="M 242.027344 233.007812 C 243.328125 233.007812 244.386719 234.0625 244.386719 235.367188 C 244.386719 236.667969 243.328125 237.726562 242.027344 237.726562 C 240.726562 237.726562 239.667969 236.667969 239.667969 235.367188 C 239.667969 234.0625 240.726562 233.007812 242.027344 233.007812 Z M 242.027344 232.066406 C 240.203125 232.066406 238.726562 233.542969 238.726562 235.367188 C 238.726562 237.191406 240.203125 238.667969 242.027344 238.667969 C 243.851562 238.667969 245.328125 237.191406 245.328125 235.367188 C 245.328125 233.542969 243.851562 232.066406 242.027344 232.066406 Z M 242.027344 232.066406 "></path>
<path style=" stroke:none;fill-rule:nonzero;fill:rgb(85.09804%,70.588237%,14.117648%);fill-opacity:1;" d="M 242.027344 227.988281 C 243.328125 227.988281 244.386719 229.046875 244.386719 230.347656 C 244.386719 231.652344 243.328125 232.707031 242.027344 232.707031 C 240.726562 232.707031 239.667969 231.652344 239.667969 230.347656 C 239.667969 229.046875 240.726562 227.988281 242.027344 227.988281 Z M 242.027344 227.046875 C 240.203125 227.046875 238.726562 228.523438 238.726562 230.347656 C 238.726562 232.171875 240.203125 233.648438 242.027344 233.648438 C 243.851562 233.648438 245.328125 232.171875 245.328125 230.347656 C 245.328125 228.523438 243.851562 227.046875 242.027344 227.046875 Z M 242.027344 227.046875 "></path>
<path style=" stroke:none;fill-rule:nonzero;fill:rgb(85.09804%,70.588237%,14.117648%);fill-opacity:1;" d="M 242.027344 224.960938 C 243.328125 224.960938 244.386719 226.015625 244.386719 227.320312 C 244.386719 228.621094 243.328125 229.675781 242.027344 229.675781 C 240.726562 229.675781 239.667969 228.621094 239.667969 227.320312 C 239.667969 226.015625 240.726562 224.960938 242.027344 224.960938 Z M 242.027344 224.015625 C 240.203125 224.015625 238.726562 225.496094 238.726562 227.320312 C 238.726562 229.144531 240.203125 230.621094 242.027344 230.621094 C 243.851562 230.621094 245.328125 229.144531 245.328125 227.320312 C 245.328125 225.496094 243.851562 224.015625 242.027344 224.015625 Z M 242.027344 224.015625 "></path>
<path style=" stroke:none;fill-rule:nonzero;fill:rgb(85.09804%,70.588237%,14.117648%);fill-opacity:1;" d="M 242.027344 259.792969 C 243.328125 259.792969 244.386719 260.851562 244.386719 262.152344 C 244.386719 263.457031 243.328125 264.511719 242.027344 264.511719 C 240.726562 264.511719 239.667969 263.457031 239.667969 262.152344 C 239.667969 260.851562 240.726562 259.792969 242.027344 259.792969 Z M 242.027344 258.851562 C 240.203125 258.851562 238.726562 260.328125 238.726562 262.152344 C 238.726562 263.976562 240.203125 265.453125 242.027344 265.453125 C 243.851562 265.453125 245.328125 263.976562 245.328125 262.152344 C 245.328125 260.328125 243.851562 258.851562 242.027344 258.851562 Z M 242.027344 258.851562 "></path>
<path style=" stroke:none;fill-rule:nonzero;fill:rgb(85.09804%,70.588237%,14.117648%);fill-opacity:1;" d="M 242.027344 199.375 C 243.328125 199.375 244.386719 200.429688 244.386719 201.734375 C 244.386719 203.035156 243.328125 204.09375 242.027344 204.09375 C 240.726562 204.09375 239.667969 203.035156 239.667969 201.734375 C 239.667969 200.429688 240.726562 199.375 242.027344 199.375 Z M 242.027344 198.433594 C 240.203125 198.433594 238.726562 199.910156 238.726562 201.734375 C 238.726562 203.554688 240.203125 205.035156 242.027344 205.035156 C 243.851562 205.035156 245.328125 203.554688 245.328125 201.734375 C 245.328125 199.910156 243.851562 198.433594 242.027344 198.433594 Z M 242.027344 198.433594 "></path>
<path style=" stroke:none;fill-rule:nonzero;fill:rgb(85.09804%,70.588237%,14.117648%);fill-opacity:1;" d="M 242.027344 167.410156 C 243.328125 167.410156 244.386719 168.464844 244.386719 169.769531 C 244.386719 171.070312 243.328125 172.125 242.027344 172.125 C 240.726562 172.125 239.667969 171.070312 239.667969 169.769531 C 239.667969 168.464844 240.726562 167.410156 242.027344 167.410156 Z M 242.027344 166.464844 C 240.203125 166.464844 238.726562 167.941406 238.726562 169.769531 C 238.726562 171.59375 240.203125 173.070312 242.027344 173.070312 C 243.851562 173.070312 245.328125 171.59375 245.328125 169.769531 C 245.328125 167.941406 243.851562 166.464844 242.027344 166.464844 Z M 242.027344 166.464844 "></path>
<path style=" stroke:none;fill-rule:nonzero;fill:rgb(85.09804%,70.588237%,14.117648%);fill-opacity:1;" d="M 242.027344 215.542969 C 243.328125 215.542969 244.386719 216.597656 244.386719 217.902344 C 244.386719 219.203125 243.328125 220.261719 242.027344 220.261719 C 240.726562 220.261719 239.667969 219.203125 239.667969 217.902344 C 239.667969 216.597656 240.726562 215.542969 242.027344 215.542969 Z M 242.027344 214.601562 C 240.203125 214.601562 238.726562 216.078125 238.726562 217.902344 C 238.726562 219.726562 240.203125 221.203125 242.027344 221.203125 C 243.851562 221.203125 245.328125 219.726562 245.328125 217.902344 C 245.328125 216.078125 243.851562 214.601562 242.027344 214.601562 Z M 242.027344 214.601562 "></path>
<path style=" stroke:none;fill-rule:nonzero;fill:rgb(85.09804%,70.588237%,14.117648%);fill-opacity:0.2;" d="M 226.707031 237.101562 L 257.347656 237.101562 L 257.347656 209.816406 L 226.707031 209.816406 Z M 226.707031 237.101562 "></path>
<path style="fill:none;stroke-width:0.5;stroke-linecap:butt;stroke-linejoin:round;stroke:rgb(13.725491%,13.725491%,13.725491%);stroke-opacity:1;stroke-miterlimit:10;" d="M 230.606202 156.801194 L 230.606202 149.729595 " transform="matrix(3.542449,0,0,3.542449,-574.883449,-293.307947)"></path>
<path style="fill:none;stroke-width:0.5;stroke-linecap:butt;stroke-linejoin:round;stroke:rgb(13.725491%,13.725491%,13.725491%);stroke-opacity:1;stroke-miterlimit:10;" d="M 230.606202 142.027253 L 230.606202 130.722399 " transform="matrix(3.542449,0,0,3.542449,-574.883449,-293.307947)"></path>
<path style="fill:none;stroke-width:0.5;stroke-linecap:butt;stroke-linejoin:round;stroke:rgb(13.725491%,13.725491%,13.725491%);stroke-opacity:1;stroke-miterlimit:10;" d="M 228.443812 156.801194 L 232.767489 156.801194 " transform="matrix(3.542449,0,0,3.542449,-574.883449,-293.307947)"></path>
<path style="fill:none;stroke-width:0.5;stroke-linecap:butt;stroke-linejoin:round;stroke:rgb(13.725491%,13.725491%,13.725491%);stroke-opacity:1;stroke-miterlimit:10;" d="M 228.443812 130.722399 L 232.767489 130.722399 " transform="matrix(3.542449,0,0,3.542449,-574.883449,-293.307947)"></path>
<path style="fill:none;stroke-width:0.5;stroke-linecap:butt;stroke-linejoin:round;stroke:rgb(85.09804%,70.588237%,14.117648%);stroke-opacity:1;stroke-miterlimit:10;" d="M 226.281422 147.395185 L 234.930981 147.395185 " transform="matrix(3.542449,0,0,3.542449,-574.883449,-293.307947)"></path>
<path style="fill:none;stroke-width:0.5;stroke-linecap:butt;stroke-linejoin:miter;stroke:rgb(85.09804%,70.588237%,14.117648%);stroke-opacity:1;stroke-miterlimit:10;" d="M 226.281422 149.729595 L 234.930981 149.729595 L 234.930981 142.027253 L 226.281422 142.027253 L 226.281422 149.729595 " transform="matrix(3.542449,0,0,3.542449,-574.883449,-293.307947)"></path>
<path style=" stroke:none;fill-rule:nonzero;fill:rgb(100%,49.803922%,16.470589%);fill-opacity:1;" d="M 303.304688 226.632812 C 304.609375 226.632812 305.664062 227.6875 305.664062 228.992188 C 305.664062 230.292969 304.609375 231.351562 303.304688 231.351562 C 302.003906 231.351562 300.945312 230.292969 300.945312 228.992188 C 300.945312 227.6875 302.003906 226.632812 303.304688 226.632812 Z M 303.304688 225.691406 C 301.480469 225.691406 300 227.167969 300 228.992188 C 300 230.8125 301.480469 232.292969 303.304688 232.292969 C 305.128906 232.292969 306.605469 230.8125 306.605469 228.992188 C 306.605469 227.167969 305.128906 225.691406 303.304688 225.691406 Z M 303.304688 225.691406 "></path>
<path style=" stroke:none;fill-rule:nonzero;fill:rgb(100%,49.803922%,16.470589%);fill-opacity:1;" d="M 303.304688 157.171875 C 304.609375 157.171875 305.664062 158.230469 305.664062 159.53125 C 305.664062 160.835938 304.609375 161.886719 303.304688 161.886719 C 302.003906 161.886719 300.945312 160.835938 300.945312 159.53125 C 300.945312 158.230469 302.003906 157.171875 303.304688 157.171875 Z M 303.304688 156.226562 C 301.480469 156.226562 300 157.710938 300 159.53125 C 300 161.355469 301.480469 162.832031 303.304688 162.832031 C 305.128906 162.832031 306.605469 161.355469 306.605469 159.53125 C 306.605469 157.710938 305.128906 156.226562 303.304688 156.226562 Z M 303.304688 156.226562 "></path>
<path style=" stroke:none;fill-rule:nonzero;fill:rgb(100%,49.803922%,16.470589%);fill-opacity:1;" d="M 303.304688 176.285156 C 304.609375 176.285156 305.664062 177.34375 305.664062 178.644531 C 305.664062 179.949219 304.609375 181.003906 303.304688 181.003906 C 302.003906 181.003906 300.945312 179.949219 300.945312 178.644531 C 300.945312 177.34375 302.003906 176.285156 303.304688 176.285156 Z M 303.304688 175.34375 C 301.480469 175.34375 300 176.820312 300 178.644531 C 300 180.46875 301.480469 181.949219 303.304688 181.949219 C 305.128906 181.949219 306.605469 180.46875 306.605469 178.644531 C 306.605469 176.820312 305.128906 175.34375 303.304688 175.34375 Z M 303.304688 175.34375 "></path>
<path style=" stroke:none;fill-rule:nonzero;fill:rgb(100%,49.803922%,16.470589%);fill-opacity:1;" d="M 303.304688 204.527344 C 304.609375 204.527344 305.664062 205.585938 305.664062 206.886719 C 305.664062 208.1875 304.609375 209.246094 303.304688 209.246094 C 302.003906 209.246094 300.945312 208.1875 300.945312 206.886719 C 300.945312 205.585938 302.003906 204.527344 303.304688 204.527344 Z M 303.304688 203.585938 C 301.480469 203.585938 300 205.0625 300 206.886719 C 300 208.710938 301.480469 210.1875 303.304688 210.1875 C 305.128906 210.1875 306.605469 208.710938 306.605469 206.886719 C 306.605469 205.0625 305.128906 203.585938 303.304688 203.585938 Z M 303.304688 203.585938 "></path>
<path style=" stroke:none;fill-rule:nonzero;fill:rgb(100%,49.803922%,16.470589%);fill-opacity:1;" d="M 303.304688 154.746094 C 304.609375 154.746094 305.664062 155.800781 305.664062 157.105469 C 305.664062 158.40625 304.609375 159.464844 303.304688 159.464844 C 302.003906 159.464844 300.945312 158.40625 300.945312 157.105469 C 300.945312 155.800781 302.003906 154.746094 303.304688 154.746094 Z M 303.304688 153.800781 C 301.480469 153.800781 300 155.28125 300 157.105469 C 300 158.929688 301.480469 160.40625 303.304688 160.40625 C 305.128906 160.40625 306.605469 158.929688 306.605469 157.105469 C 306.605469 155.28125 305.128906 153.800781 303.304688 153.800781 Z M 303.304688 153.800781 "></path>
<path style=" stroke:none;fill-rule:nonzero;fill:rgb(100%,49.803922%,16.470589%);fill-opacity:1;" d="M 303.304688 273.691406 C 304.609375 273.691406 305.664062 274.75 305.664062 276.050781 C 305.664062 277.355469 304.609375 278.410156 303.304688 278.410156 C 302.003906 278.410156 300.945312 277.355469 300.945312 276.050781 C 300.945312 274.75 302.003906 273.691406 303.304688 273.691406 Z M 303.304688 272.75 C 301.480469 272.75 300 274.226562 300 276.050781 C 300 277.875 301.480469 279.351562 303.304688 279.351562 C 305.128906 279.351562 306.605469 277.875 306.605469 276.050781 C 306.605469 274.226562 305.128906 272.75 303.304688 272.75 Z M 303.304688 272.75 "></path>
<path style=" stroke:none;fill-rule:nonzero;fill:rgb(100%,49.803922%,16.470589%);fill-opacity:0.2;" d="M 287.984375 228.992188 L 318.625 228.992188 L 318.625 159.53125 L 287.984375 159.53125 Z M 287.984375 228.992188 "></path>
<path style="fill:none;stroke-width:0.5;stroke-linecap:butt;stroke-linejoin:round;stroke:rgb(13.725491%,13.725491%,13.725491%);stroke-opacity:1;stroke-miterlimit:10;" d="M 247.904217 160.724592 L 247.904217 147.440395 " transform="matrix(3.542449,0,0,3.542449,-574.883449,-293.307947)"></path>
<path style="fill:none;stroke-width:0.5;stroke-linecap:butt;stroke-linejoin:round;stroke:rgb(13.725491%,13.725491%,13.725491%);stroke-opacity:1;stroke-miterlimit:10;" d="M 247.904217 127.832228 L 247.904217 127.147453 " transform="matrix(3.542449,0,0,3.542449,-574.883449,-293.307947)"></path>
<path style="fill:none;stroke-width:0.5;stroke-linecap:butt;stroke-linejoin:round;stroke:rgb(13.725491%,13.725491%,13.725491%);stroke-opacity:1;stroke-miterlimit:10;" d="M 245.741827 160.724592 L 250.066607 160.724592 " transform="matrix(3.542449,0,0,3.542449,-574.883449,-293.307947)"></path>
<path style="fill:none;stroke-width:0.5;stroke-linecap:butt;stroke-linejoin:round;stroke:rgb(13.725491%,13.725491%,13.725491%);stroke-opacity:1;stroke-miterlimit:10;" d="M 245.741827 127.147453 L 250.066607 127.147453 " transform="matrix(3.542449,0,0,3.542449,-574.883449,-293.307947)"></path>
<path style="fill:none;stroke-width:0.5;stroke-linecap:butt;stroke-linejoin:round;stroke:rgb(100%,63.921571%,6.666667%);stroke-opacity:1;stroke-miterlimit:10;" d="M 243.579437 137.215081 L 252.228996 137.215081 " transform="matrix(3.542449,0,0,3.542449,-574.883449,-293.307947)"></path>
<path style="fill:none;stroke-width:0.5;stroke-linecap:butt;stroke-linejoin:miter;stroke:rgb(100%,49.803922%,16.470589%);stroke-opacity:1;stroke-miterlimit:10;" d="M 243.579437 147.440395 L 252.228996 147.440395 L 252.228996 127.832228 L 243.579437 127.832228 L 243.579437 147.440395 " transform="matrix(3.542449,0,0,3.542449,-574.883449,-293.307947)"></path>
<path style=" stroke:none;fill-rule:nonzero;fill:rgb(100%,15.686275%,0%);fill-opacity:1;" d="M 364.582031 221.75 C 365.886719 221.75 366.9375 222.808594 366.9375 224.109375 C 366.9375 225.414062 365.886719 226.46875 364.582031 226.46875 C 363.28125 226.46875 362.222656 225.414062 362.222656 224.109375 C 362.222656 222.808594 363.28125 221.75 364.582031 221.75 Z M 364.582031 220.804688 C 362.761719 220.804688 361.277344 222.289062 361.277344 224.109375 C 361.277344 225.933594 362.761719 227.410156 364.582031 227.410156 C 366.40625 227.410156 367.882812 225.933594 367.882812 224.109375 C 367.882812 222.289062 366.40625 220.804688 364.582031 220.804688 Z M 364.582031 220.804688 "></path>
<path style=" stroke:none;fill-rule:nonzero;fill:rgb(100%,15.686275%,0%);fill-opacity:1;" d="M 364.582031 211.898438 C 365.886719 211.898438 366.9375 212.953125 366.9375 214.257812 C 366.9375 215.558594 365.886719 216.617188 364.582031 216.617188 C 363.28125 216.617188 362.222656 215.558594 362.222656 214.257812 C 362.222656 212.953125 363.28125 211.898438 364.582031 211.898438 Z M 364.582031 210.957031 C 362.761719 210.957031 361.277344 212.433594 361.277344 214.257812 C 361.277344 216.082031 362.761719 217.558594 364.582031 217.558594 C 366.40625 217.558594 367.882812 216.082031 367.882812 214.257812 C 367.882812 212.433594 366.40625 210.957031 364.582031 210.957031 Z M 364.582031 210.957031 "></path>
<path style=" stroke:none;fill-rule:nonzero;fill:rgb(100%,15.686275%,0%);fill-opacity:1;" d="M 364.582031 152.066406 C 365.886719 152.066406 366.9375 153.121094 366.9375 154.425781 C 366.9375 155.726562 365.886719 156.785156 364.582031 156.785156 C 363.28125 156.785156 362.222656 155.726562 362.222656 154.425781 C 362.222656 153.121094 363.28125 152.066406 364.582031 152.066406 Z M 364.582031 151.125 C 362.761719 151.125 361.277344 152.601562 361.277344 154.425781 C 361.277344 156.25 362.761719 157.726562 364.582031 157.726562 C 366.40625 157.726562 367.882812 156.25 367.882812 154.425781 C 367.882812 152.601562 366.40625 151.125 364.582031 151.125 Z M 364.582031 151.125 "></path>
<path style=" stroke:none;fill-rule:nonzero;fill:rgb(100%,15.686275%,0%);fill-opacity:1;" d="M 364.582031 161.722656 C 365.886719 161.722656 366.9375 162.78125 366.9375 164.082031 C 366.9375 165.386719 365.886719 166.441406 364.582031 166.441406 C 363.28125 166.441406 362.222656 165.386719 362.222656 164.082031 C 362.222656 162.78125 363.28125 161.722656 364.582031 161.722656 Z M 364.582031 160.777344 C 362.761719 160.777344 361.277344 162.261719 361.277344 164.082031 C 361.277344 165.90625 362.761719 167.382812 364.582031 167.382812 C 366.40625 167.382812 367.882812 165.90625 367.882812 164.082031 C 367.882812 162.261719 366.40625 160.777344 364.582031 160.777344 Z M 364.582031 160.777344 "></path>
<path style=" stroke:none;fill-rule:nonzero;fill:rgb(100%,15.686275%,0%);fill-opacity:0.2;" d="M 349.265625 219.183594 L 379.902344 219.183594 L 379.902344 159.253906 L 349.265625 159.253906 Z M 349.265625 219.183594 "></path>
<path style="fill:none;stroke-width:0.5;stroke-linecap:butt;stroke-linejoin:round;stroke:rgb(13.725491%,13.725491%,13.725491%);stroke-opacity:1;stroke-miterlimit:10;" d="M 265.202232 146.062023 L 265.202232 144.671522 " transform="matrix(3.542449,0,0,3.542449,-574.883449,-293.307947)"></path>
<path style="fill:none;stroke-width:0.5;stroke-linecap:butt;stroke-linejoin:round;stroke:rgb(13.725491%,13.725491%,13.725491%);stroke-opacity:1;stroke-miterlimit:10;" d="M 265.202232 127.753937 L 265.202232 126.391003 " transform="matrix(3.542449,0,0,3.542449,-574.883449,-293.307947)"></path>
<path style="fill:none;stroke-width:0.5;stroke-linecap:butt;stroke-linejoin:round;stroke:rgb(13.725491%,13.725491%,13.725491%);stroke-opacity:1;stroke-miterlimit:10;" d="M 263.039843 146.062023 L 267.364622 146.062023 " transform="matrix(3.542449,0,0,3.542449,-574.883449,-293.307947)"></path>
<path style="fill:none;stroke-width:0.5;stroke-linecap:butt;stroke-linejoin:round;stroke:rgb(13.725491%,13.725491%,13.725491%);stroke-opacity:1;stroke-miterlimit:10;" d="M 263.039843 126.391003 L 267.364622 126.391003 " transform="matrix(3.542449,0,0,3.542449,-574.883449,-293.307947)"></path>
<path style="fill:none;stroke-width:0.5;stroke-linecap:butt;stroke-linejoin:round;stroke:rgb(100%,15.686275%,0%);stroke-opacity:1;stroke-miterlimit:10;" d="M 260.878555 136.199497 L 269.527012 136.199497 " transform="matrix(3.542449,0,0,3.542449,-574.883449,-293.307947)"></path>
<path style="fill:none;stroke-width:0.5;stroke-linecap:butt;stroke-linejoin:miter;stroke:rgb(100%,15.686275%,0%);stroke-opacity:1;stroke-miterlimit:10;" d="M 260.878555 144.671522 L 269.527012 144.671522 L 269.527012 127.753937 L 260.878555 127.753937 L 260.878555 144.671522 " transform="matrix(3.542449,0,0,3.542449,-574.883449,-293.307947)"></path>
<path style="fill:none;stroke-width:0.5;stroke-linecap:butt;stroke-linejoin:round;stroke:rgb(0%,0%,0%);stroke-opacity:0.25098;stroke-miterlimit:10;" d="M 213.308186 162.880365 L 230.606202 150.220295 L 247.904217 147.440395 " transform="matrix(3.542449,0,0,3.542449,-574.883449,-293.307947)"></path>
<path style="fill:none;stroke-width:0.5;stroke-linecap:butt;stroke-linejoin:round;stroke:rgb(0%,0%,0%);stroke-opacity:0.25098;stroke-miterlimit:10;" d="M 213.308186 161.296892 L 230.606202 149.239997 " transform="matrix(3.542449,0,0,3.542449,-574.883449,-293.307947)"></path>
<path style="fill:none;stroke-width:0.5;stroke-linecap:butt;stroke-linejoin:round;stroke:rgb(0%,0%,0%);stroke-opacity:0.25098;stroke-miterlimit:10;" d="M 230.606202 147.823031 L 247.904217 127.832228 " transform="matrix(3.542449,0,0,3.542449,-574.883449,-293.307947)"></path>
<path style="fill:none;stroke-width:0.5;stroke-linecap:butt;stroke-linejoin:round;stroke:rgb(0%,0%,0%);stroke-opacity:0.25098;stroke-miterlimit:10;" d="M 213.308186 163.689745 L 230.606202 146.968441 L 247.904217 133.227727 " transform="matrix(3.542449,0,0,3.542449,-574.883449,-293.307947)"></path>
<path style="fill:none;stroke-width:0.5;stroke-linecap:butt;stroke-linejoin:round;stroke:rgb(0%,0%,0%);stroke-opacity:0.25098;stroke-miterlimit:10;" d="M 213.308186 158.759585 L 230.606202 156.801194 L 247.904217 141.20023 " transform="matrix(3.542449,0,0,3.542449,-574.883449,-293.307947)"></path>
<path style="fill:none;stroke-width:0.5;stroke-linecap:butt;stroke-linejoin:round;stroke:rgb(0%,0%,0%);stroke-opacity:0.25098;stroke-miterlimit:10;" d="M 213.308186 163.429509 L 230.606202 139.745772 " transform="matrix(3.542449,0,0,3.542449,-574.883449,-293.307947)"></path>
<path style="fill:none;stroke-width:0.5;stroke-linecap:butt;stroke-linejoin:round;stroke:rgb(0%,0%,0%);stroke-opacity:0.25098;stroke-miterlimit:10;" d="M 196.010171 159.871104 L 213.308186 145.169941 L 230.606202 130.722399 L 247.904217 127.147453 " transform="matrix(3.542449,0,0,3.542449,-574.883449,-293.307947)"></path>
<path style="fill:none;stroke-width:0.5;stroke-linecap:butt;stroke-linejoin:round;stroke:rgb(0%,0%,0%);stroke-opacity:0.25098;stroke-miterlimit:10;" d="M 196.010171 161.683938 L 213.308186 163.492362 L 230.606202 144.309837 L 247.904217 160.724592 L 265.202232 146.062023 " transform="matrix(3.542449,0,0,3.542449,-574.883449,-293.307947)"></path>
</g>
</svg>
