<?xml version="1.0"?>

<svg xmlns="http://www.w3.org/2000/svg" xmlns:xlink="http://www.w3.org/1999/xlink" width="372" height="134" viewBox="0 0 372 134" version="1.1">
<g id="surface1">
<path style=" stroke:none;fill-rule:evenodd;fill:rgb(83.137256%,0%,0%);fill-opacity:1;" d="M 133.410156 67.011719 C 133.410156 87.601562 116.714844 104.296875 96.121094 104.296875 C 75.550781 104.296875 58.835938 87.601562 58.835938 67.011719 C 58.835938 46.421875 75.550781 29.722656 96.121094 29.722656 C 116.714844 29.722656 133.410156 46.421875 133.410156 67.011719 "></path>
<path style=" stroke:none;fill-rule:nonzero;fill:rgb(0%,0%,0%);fill-opacity:1;" d="M 86.238281 82.503906 L 106.003906 82.503906 L 106.003906 76.449219 L 93.363281 76.449219 L 93.363281 51.519531 L 86.238281 51.519531 Z M 86.238281 82.503906 "></path>
<path style="fill:none;stroke-width:0.176409;stroke-linecap:round;stroke-linejoin:miter;stroke:rgb(0%,0%,0%);stroke-opacity:1;stroke-miterlimit:4.28571;" d="M 111.137946 148.029858 C 111.862896 147.423637 112.932186 147.466196 113.607566 148.130452 C 114.281252 148.794708 114.336385 149.861338 113.736935 150.591609 C 113.136275 151.321879 112.076416 151.477606 111.291012 150.948522 L 111.121503 150.85083 " transform="matrix(16.154117,0,0,16.154117,-1482.749464,-2346.830744)"></path>
<path style=" stroke:none;fill-rule:evenodd;fill:rgb(0%,0%,0%);fill-opacity:1;" d="M 321.78125 103.476562 L 309.046875 88.160156 L 328.660156 91.566406 C 324.050781 93.589844 321.292969 98.398438 321.78125 103.476562 "></path>
<path style="fill:none;stroke-width:0.0661533;stroke-linecap:butt;stroke-linejoin:round;stroke:rgb(0%,0%,0%);stroke-opacity:1;stroke-miterlimit:4;" d="M 111.70717 151.683145 L 110.918865 150.735003 L 112.133 150.945862 C 111.847662 151.071121 111.676943 151.36879 111.70717 151.683145 Z M 111.70717 151.683145 " transform="matrix(16.154117,0,0,16.154117,-1482.749464,-2346.830744)"></path>
<path style=" stroke:none;fill-rule:evenodd;fill:rgb(0%,70.19608%,87.058824%);fill-opacity:1;" d="M 313.167969 67.011719 C 313.167969 87.601562 296.449219 104.296875 275.878906 104.296875 C 255.289062 104.296875 238.570312 87.601562 238.570312 67.011719 C 238.570312 46.421875 255.289062 29.722656 275.878906 29.722656 C 296.449219 29.722656 313.167969 46.421875 313.167969 67.011719 "></path>
<path style="fill:none;stroke-width:0.176409;stroke-linecap:round;stroke-linejoin:miter;stroke:rgb(0%,0%,0%);stroke-opacity:1;stroke-miterlimit:4.28571;" d="M 95.467115 148.029858 C 94.740713 147.423637 93.669972 147.466196 92.996286 148.130452 C 92.323808 148.794708 92.265774 149.861338 92.866675 150.591609 C 93.466125 151.321879 94.527194 151.477606 95.312597 150.948522 L 95.482107 150.85083 " transform="matrix(16.154117,0,0,16.154117,-1482.749464,-2346.830744)"></path>
<path style=" stroke:none;fill-rule:evenodd;fill:rgb(0%,0%,0%);fill-opacity:1;" d="M 43.296875 91.5 L 62.929688 88.136719 L 50.175781 103.40625 C 50.753906 98.398438 47.949219 93.613281 43.296875 91.5 "></path>
<path style="fill:none;stroke-width:0.0661533;stroke-linecap:butt;stroke-linejoin:round;stroke:rgb(0%,0%,0%);stroke-opacity:1;stroke-miterlimit:4;" d="M 94.46795 150.941751 L 95.683294 150.733552 L 94.89378 151.678793 C 94.929568 151.36879 94.755948 151.072571 94.46795 150.941751 Z M 94.46795 150.941751 " transform="matrix(16.154117,0,0,16.154117,-1482.749464,-2346.830744)"></path>
<path style="fill:none;stroke-width:0.176409;stroke-linecap:round;stroke-linejoin:miter;stroke:rgb(0%,0%,0%);stroke-opacity:1;stroke-miterlimit:4.28571;" d="M 99.24832 147.408403 C 101.451948 145.444652 104.768875 145.410315 107.012159 147.328363 L 107.089297 147.39462 " transform="matrix(16.154117,0,0,16.154117,-1482.749464,-2346.830744)"></path>
<path style=" stroke:none;fill-rule:evenodd;fill:rgb(0%,0%,0%);fill-opacity:1;" d="M 251.414062 37.828125 C 249.390625 40.230469 245.78125 40.5 243.378906 38.449219 C 240.996094 36.402344 240.730469 32.820312 242.753906 30.4375 C 244.800781 28.03125 248.386719 27.765625 250.789062 29.789062 C 253.195312 31.839844 253.460938 35.421875 251.414062 37.828125 "></path>
<path style="fill:none;stroke-width:0.0940848;stroke-linecap:butt;stroke-linejoin:miter;stroke:rgb(0%,0%,0%);stroke-opacity:1;stroke-miterlimit:4;" d="M 107.351179 147.619263 C 107.225921 147.767977 107.002487 147.784662 106.853773 147.657711 C 106.706268 147.531001 106.689825 147.30926 106.815083 147.161755 C 106.941792 147.0128 107.163775 146.996356 107.312489 147.121615 C 107.461445 147.248566 107.477888 147.470307 107.351179 147.619263 Z M 107.351179 147.619263 " transform="matrix(16.154117,0,0,16.154117,-1482.749464,-2346.830744)"></path>
<path style="fill:none;stroke-width:0.176409;stroke-linecap:round;stroke-linejoin:miter;stroke:rgb(0%,0%,0%);stroke-opacity:1;stroke-miterlimit:4.28571;" d="M 107.359401 151.441817 C 105.154564 153.405568 101.839088 153.440147 99.595561 151.521857 L 99.518423 151.455601 " transform="matrix(16.154117,0,0,16.154117,-1482.749464,-2346.830744)"></path>
<path style=" stroke:none;fill-rule:evenodd;fill:rgb(0%,0%,0%);fill-opacity:1;" d="M 120.652344 96.171875 C 122.679688 93.8125 126.285156 93.503906 128.667969 95.550781 C 131.070312 97.597656 131.359375 101.203125 129.3125 103.609375 C 127.265625 105.988281 123.660156 106.28125 121.277344 104.230469 C 118.871094 102.160156 118.605469 98.578125 120.652344 96.171875 "></path>
<path style="fill:none;stroke-width:0.0940848;stroke-linecap:butt;stroke-linejoin:miter;stroke:rgb(0%,0%,0%);stroke-opacity:1;stroke-miterlimit:4;" d="M 99.256542 151.230958 C 99.382042 151.084904 99.605234 151.065559 99.752739 151.19251 C 99.901453 151.319219 99.919347 151.542411 99.792638 151.691367 C 99.665928 151.83863 99.442736 151.856766 99.295232 151.729815 C 99.146276 151.601655 99.129833 151.379914 99.256542 151.230958 Z M 99.256542 151.230958 " transform="matrix(16.154117,0,0,16.154117,-1482.749464,-2346.830744)"></path>
<path style=" stroke:none;fill-rule:nonzero;fill:rgb(0%,0%,0%);fill-opacity:1;" d="M 148.964844 77.808594 L 152.4375 71.574219 L 161.164062 71.574219 L 162.234375 77.808594 L 164.992188 77.808594 L 161.429688 56.171875 L 157.957031 56.171875 L 145.757812 77.808594 Z M 157.15625 62.9375 C 158.136719 61.246094 158.847656 59.824219 159.382812 58.574219 C 159.382812 60 159.652344 61.78125 160.007812 63.917969 L 160.808594 69.351562 L 153.683594 69.351562 Z M 157.15625 62.9375 "></path>
<path style=" stroke:none;fill-rule:nonzero;fill:rgb(0%,0%,0%);fill-opacity:1;" d="M 170.742188 77.808594 L 172.792969 68.191406 L 176.175781 68.191406 C 177.332031 68.191406 178.132812 68.371094 178.667969 68.546875 C 179.203125 68.816406 179.648438 69.261719 180.183594 70.0625 C 180.894531 71.042969 181.519531 72.378906 182.050781 73.800781 L 183.65625 77.808594 L 186.859375 77.808594 L 185.167969 73.714844 C 184.632812 72.378906 183.921875 71.042969 183.03125 69.796875 C 182.585938 69.261719 182.050781 68.636719 181.25 68.101562 C 183.832031 67.746094 185.703125 67.035156 186.769531 65.789062 C 187.929688 64.71875 188.550781 63.207031 188.550781 61.425781 C 188.550781 60.179688 188.285156 59.109375 187.75 58.308594 C 187.214844 57.507812 186.503906 56.972656 185.613281 56.617188 C 184.632812 56.351562 183.296875 56.171875 181.519531 56.171875 L 172.433594 56.171875 L 167.894531 77.808594 Z M 174.839844 58.574219 L 181.875 58.574219 C 182.941406 58.574219 183.742188 58.664062 184.277344 58.84375 C 184.722656 59.019531 185.078125 59.289062 185.347656 59.824219 C 185.613281 60.265625 185.792969 60.800781 185.792969 61.425781 C 185.792969 62.136719 185.613281 62.851562 185.257812 63.472656 C 184.8125 64.183594 184.277344 64.71875 183.566406 65.074219 C 182.851562 65.433594 181.964844 65.699219 180.894531 65.789062 C 180.359375 65.789062 179.113281 65.878906 177.242188 65.878906 L 173.324219 65.878906 Z M 174.839844 58.574219 "></path>
<path style=" stroke:none;fill-rule:nonzero;fill:rgb(0%,0%,0%);fill-opacity:1;" d="M 197.675781 77.808594 L 201.683594 58.664062 L 208.71875 58.664062 L 209.25 56.171875 L 192.066406 56.171875 L 191.53125 58.664062 L 198.832031 58.664062 L 194.828125 77.808594 Z M 197.675781 77.808594 "></path>
<path style=" stroke:none;fill-rule:nonzero;fill:rgb(0%,0%,0%);fill-opacity:1;" d="M 210.464844 77.808594 L 212.511719 68.191406 L 215.894531 68.191406 C 217.054688 68.191406 217.855469 68.371094 218.386719 68.546875 C 218.921875 68.816406 219.367188 69.261719 219.902344 70.0625 C 220.613281 71.042969 221.238281 72.378906 221.773438 73.800781 L 223.375 77.808594 L 226.582031 77.808594 L 224.890625 73.714844 C 224.355469 72.378906 223.640625 71.042969 222.75 69.796875 C 222.304688 69.261719 221.773438 68.636719 220.972656 68.101562 C 223.554688 67.746094 225.421875 67.035156 226.492188 65.789062 C 227.648438 64.71875 228.273438 63.207031 228.273438 61.425781 C 228.273438 60.179688 228.003906 59.109375 227.472656 58.308594 C 226.9375 57.507812 226.222656 56.972656 225.332031 56.617188 C 224.355469 56.351562 223.019531 56.171875 221.238281 56.171875 L 212.15625 56.171875 L 207.613281 77.808594 Z M 214.558594 58.574219 L 221.59375 58.574219 C 222.664062 58.574219 223.464844 58.664062 224 58.84375 C 224.445312 59.019531 224.800781 59.289062 225.066406 59.824219 C 225.332031 60.265625 225.511719 60.800781 225.511719 61.425781 C 225.511719 62.136719 225.332031 62.851562 224.976562 63.472656 C 224.53125 64.183594 224 64.71875 223.285156 65.074219 C 222.574219 65.433594 221.683594 65.699219 220.613281 65.789062 C 220.082031 65.789062 218.832031 65.878906 216.964844 65.878906 L 213.046875 65.878906 Z M 214.558594 58.574219 "></path>
<path style=" stroke:none;fill-rule:nonzero;fill:rgb(0%,0%,0%);fill-opacity:1;" d="M 273.1875 65.246094 L 273.1875 57.320312 L 276.214844 57.320312 C 277.726562 57.320312 278.886719 57.585938 279.507812 58.210938 C 280.132812 58.832031 280.488281 59.8125 280.488281 61.238281 C 280.488281 62.664062 280.132812 63.730469 279.507812 64.265625 C 278.886719 64.976562 277.726562 65.246094 276.214844 65.246094 Z M 275.234375 70.765625 C 276.390625 70.765625 277.371094 71.03125 278.082031 71.65625 C 278.796875 72.191406 279.507812 73.257812 280.132812 74.773438 L 283.605469 82.519531 L 291.261719 82.519531 L 287.34375 73.703125 C 286.542969 71.921875 285.742188 70.585938 284.941406 69.699219 C 284.136719 68.808594 283.25 68.273438 282.269531 68.003906 C 284.136719 67.382812 285.472656 66.402344 286.363281 65.066406 C 287.253906 63.820312 287.609375 62.128906 287.609375 60.082031 C 287.609375 57.140625 286.808594 54.917969 285.117188 53.492188 C 283.425781 52.15625 280.664062 51.53125 277.015625 51.53125 L 266.0625 51.53125 L 266.0625 82.519531 L 273.1875 82.519531 L 273.1875 70.765625 Z M 275.234375 70.765625 "></path>
</g>
</svg>
