<?xml version="1.0"?>

<svg xmlns="http://www.w3.org/2000/svg" xmlns:xlink="http://www.w3.org/1999/xlink" width="224" height="169" viewBox="0 0 224 169" version="1.1">
<defs>
<g>
<symbol overflow="visible" id="glyph0-0">
<path style="stroke:none;" d="M 1.25 0 L 1.25 -6.234375 L 6.234375 -6.234375 L 6.234375 0 Z M 1.40625 -0.15625 L 6.078125 -0.15625 L 6.078125 -6.078125 L 1.40625 -6.078125 Z M 1.40625 -0.15625 "></path>
</symbol>
<symbol overflow="visible" id="glyph0-1">
<path style="stroke:none;" d="M 3.71875 0 L 2.84375 0 L 2.84375 -5.59375 C 2.632812 -5.394531 2.359375 -5.191406 2.015625 -4.984375 C 1.671875 -4.785156 1.363281 -4.632812 1.09375 -4.53125 L 1.09375 -5.375 C 1.582031 -5.613281 2.007812 -5.894531 2.375 -6.21875 C 2.738281 -6.550781 3 -6.867188 3.15625 -7.171875 L 3.71875 -7.171875 Z M 3.71875 0 "></path>
</symbol>
<symbol overflow="visible" id="glyph0-2">
<path style="stroke:none;" d="M 1.765625 -3.875 C 1.398438 -4.007812 1.128906 -4.195312 0.953125 -4.4375 C 0.773438 -4.6875 0.6875 -4.984375 0.6875 -5.328125 C 0.6875 -5.847656 0.875 -6.285156 1.25 -6.640625 C 1.625 -6.992188 2.125 -7.171875 2.75 -7.171875 C 3.375 -7.171875 3.875 -6.988281 4.25 -6.625 C 4.632812 -6.269531 4.828125 -5.832031 4.828125 -5.3125 C 4.828125 -4.976562 4.738281 -4.6875 4.5625 -4.4375 C 4.382812 -4.195312 4.117188 -4.007812 3.765625 -3.875 C 4.203125 -3.726562 4.535156 -3.492188 4.765625 -3.171875 C 4.992188 -2.859375 5.109375 -2.484375 5.109375 -2.046875 C 5.109375 -1.429688 4.890625 -0.914062 4.453125 -0.5 C 4.023438 -0.0820312 3.460938 0.125 2.765625 0.125 C 2.054688 0.125 1.484375 -0.0820312 1.046875 -0.5 C 0.617188 -0.914062 0.40625 -1.4375 0.40625 -2.0625 C 0.40625 -2.53125 0.519531 -2.921875 0.75 -3.234375 C 0.988281 -3.546875 1.328125 -3.757812 1.765625 -3.875 Z M 1.59375 -5.359375 C 1.59375 -5.023438 1.703125 -4.75 1.921875 -4.53125 C 2.140625 -4.320312 2.421875 -4.21875 2.765625 -4.21875 C 3.097656 -4.21875 3.375 -4.320312 3.59375 -4.53125 C 3.8125 -4.738281 3.921875 -5 3.921875 -5.3125 C 3.921875 -5.632812 3.804688 -5.90625 3.578125 -6.125 C 3.359375 -6.34375 3.082031 -6.453125 2.75 -6.453125 C 2.414062 -6.453125 2.140625 -6.34375 1.921875 -6.125 C 1.703125 -5.914062 1.59375 -5.660156 1.59375 -5.359375 Z M 1.3125 -2.0625 C 1.3125 -1.8125 1.367188 -1.566406 1.484375 -1.328125 C 1.597656 -1.097656 1.769531 -0.914062 2 -0.78125 C 2.238281 -0.65625 2.492188 -0.59375 2.765625 -0.59375 C 3.179688 -0.59375 3.523438 -0.726562 3.796875 -1 C 4.078125 -1.269531 4.21875 -1.613281 4.21875 -2.03125 C 4.21875 -2.457031 4.078125 -2.804688 3.796875 -3.078125 C 3.515625 -3.359375 3.160156 -3.5 2.734375 -3.5 C 2.328125 -3.5 1.988281 -3.359375 1.71875 -3.078125 C 1.445312 -2.804688 1.3125 -2.46875 1.3125 -2.0625 Z M 1.3125 -2.0625 "></path>
</symbol>
<symbol overflow="visible" id="glyph0-3">
<path style="stroke:none;" d="M 0.421875 -3.53125 C 0.421875 -4.375 0.503906 -5.050781 0.671875 -5.5625 C 0.847656 -6.082031 1.109375 -6.476562 1.453125 -6.75 C 1.796875 -7.03125 2.226562 -7.171875 2.75 -7.171875 C 3.125 -7.171875 3.457031 -7.09375 3.75 -6.9375 C 4.039062 -6.789062 4.28125 -6.570312 4.46875 -6.28125 C 4.65625 -5.988281 4.800781 -5.632812 4.90625 -5.21875 C 5.019531 -4.800781 5.078125 -4.238281 5.078125 -3.53125 C 5.078125 -2.6875 4.988281 -2.003906 4.8125 -1.484375 C 4.644531 -0.972656 4.390625 -0.578125 4.046875 -0.296875 C 3.703125 -0.015625 3.269531 0.125 2.75 0.125 C 2.0625 0.125 1.519531 -0.125 1.125 -0.625 C 0.65625 -1.21875 0.421875 -2.1875 0.421875 -3.53125 Z M 1.3125 -3.53125 C 1.3125 -2.351562 1.445312 -1.566406 1.71875 -1.171875 C 2 -0.785156 2.34375 -0.59375 2.75 -0.59375 C 3.144531 -0.59375 3.476562 -0.785156 3.75 -1.171875 C 4.03125 -1.566406 4.171875 -2.351562 4.171875 -3.53125 C 4.171875 -4.707031 4.03125 -5.488281 3.75 -5.875 C 3.476562 -6.257812 3.140625 -6.453125 2.734375 -6.453125 C 2.328125 -6.453125 2.003906 -6.28125 1.765625 -5.9375 C 1.460938 -5.5 1.3125 -4.695312 1.3125 -3.53125 Z M 1.3125 -3.53125 "></path>
</symbol>
<symbol overflow="visible" id="glyph0-4">
<path style="stroke:none;" d="M 0.90625 0 L 0.90625 -1 L 1.90625 -1 L 1.90625 0 Z M 0.90625 0 "></path>
</symbol>
<symbol overflow="visible" id="glyph0-5">
<path style="stroke:none;" d="M 5.03125 -0.84375 L 5.03125 0 L 0.296875 0 C 0.296875 -0.207031 0.332031 -0.410156 0.40625 -0.609375 C 0.519531 -0.929688 0.707031 -1.25 0.96875 -1.5625 C 1.238281 -1.875 1.625 -2.234375 2.125 -2.640625 C 2.90625 -3.273438 3.429688 -3.78125 3.703125 -4.15625 C 3.972656 -4.53125 4.109375 -4.882812 4.109375 -5.21875 C 4.109375 -5.5625 3.984375 -5.851562 3.734375 -6.09375 C 3.492188 -6.332031 3.171875 -6.453125 2.765625 -6.453125 C 2.347656 -6.453125 2.007812 -6.320312 1.75 -6.0625 C 1.5 -5.8125 1.375 -5.460938 1.375 -5.015625 L 0.46875 -5.109375 C 0.53125 -5.785156 0.757812 -6.296875 1.15625 -6.640625 C 1.5625 -6.992188 2.101562 -7.171875 2.78125 -7.171875 C 3.46875 -7.171875 4.007812 -6.976562 4.40625 -6.59375 C 4.8125 -6.21875 5.015625 -5.75 5.015625 -5.1875 C 5.015625 -4.90625 4.957031 -4.625 4.84375 -4.34375 C 4.726562 -4.070312 4.53125 -3.78125 4.25 -3.46875 C 3.976562 -3.164062 3.53125 -2.75 2.90625 -2.21875 C 2.375 -1.78125 2.035156 -1.476562 1.890625 -1.3125 C 1.742188 -1.15625 1.617188 -1 1.515625 -0.84375 Z M 5.03125 -0.84375 "></path>
</symbol>
<symbol overflow="visible" id="glyph0-6">
<path style="stroke:none;" d="M 0.421875 -1.875 L 1.328125 -1.953125 C 1.398438 -1.503906 1.5625 -1.164062 1.8125 -0.9375 C 2.0625 -0.707031 2.359375 -0.59375 2.703125 -0.59375 C 3.128906 -0.59375 3.488281 -0.753906 3.78125 -1.078125 C 4.070312 -1.398438 4.21875 -1.820312 4.21875 -2.34375 C 4.21875 -2.84375 4.078125 -3.238281 3.796875 -3.53125 C 3.515625 -3.820312 3.148438 -3.96875 2.703125 -3.96875 C 2.410156 -3.96875 2.148438 -3.898438 1.921875 -3.765625 C 1.703125 -3.640625 1.523438 -3.472656 1.390625 -3.265625 L 0.578125 -3.375 L 1.265625 -7.046875 L 4.8125 -7.046875 L 4.8125 -6.21875 L 1.96875 -6.21875 L 1.578125 -4.296875 C 2.003906 -4.585938 2.457031 -4.734375 2.9375 -4.734375 C 3.550781 -4.734375 4.070312 -4.515625 4.5 -4.078125 C 4.9375 -3.648438 5.15625 -3.097656 5.15625 -2.421875 C 5.15625 -1.773438 4.96875 -1.21875 4.59375 -0.75 C 4.132812 -0.164062 3.503906 0.125 2.703125 0.125 C 2.054688 0.125 1.523438 -0.0546875 1.109375 -0.421875 C 0.703125 -0.785156 0.472656 -1.269531 0.421875 -1.875 Z M 0.421875 -1.875 "></path>
</symbol>
<symbol overflow="visible" id="glyph0-7">
<path style="stroke:none;" d="M 2.578125 -0.78125 L 2.703125 -0.015625 C 2.453125 0.0351562 2.226562 0.0625 2.03125 0.0625 C 1.71875 0.0625 1.472656 0.015625 1.296875 -0.078125 C 1.117188 -0.179688 0.992188 -0.3125 0.921875 -0.46875 C 0.847656 -0.632812 0.8125 -0.984375 0.8125 -1.515625 L 0.8125 -4.5 L 0.171875 -4.5 L 0.171875 -5.171875 L 0.8125 -5.171875 L 0.8125 -6.453125 L 1.6875 -6.984375 L 1.6875 -5.171875 L 2.578125 -5.171875 L 2.578125 -4.5 L 1.6875 -4.5 L 1.6875 -1.46875 C 1.6875 -1.21875 1.703125 -1.054688 1.734375 -0.984375 C 1.765625 -0.910156 1.816406 -0.851562 1.890625 -0.8125 C 1.960938 -0.769531 2.0625 -0.75 2.1875 -0.75 C 2.28125 -0.75 2.410156 -0.757812 2.578125 -0.78125 Z M 2.578125 -0.78125 "></path>
</symbol>
<symbol overflow="visible" id="glyph0-8">
<path style="stroke:none;" d="M 4.203125 -1.671875 L 5.109375 -1.5625 C 4.960938 -1.03125 4.695312 -0.617188 4.3125 -0.328125 C 3.925781 -0.0351562 3.429688 0.109375 2.828125 0.109375 C 2.078125 0.109375 1.476562 -0.117188 1.03125 -0.578125 C 0.582031 -1.046875 0.359375 -1.703125 0.359375 -2.546875 C 0.359375 -3.410156 0.582031 -4.082031 1.03125 -4.5625 C 1.488281 -5.050781 2.070312 -5.296875 2.78125 -5.296875 C 3.476562 -5.296875 4.046875 -5.054688 4.484375 -4.578125 C 4.921875 -4.109375 5.140625 -3.445312 5.140625 -2.59375 C 5.140625 -2.539062 5.140625 -2.460938 5.140625 -2.359375 L 1.265625 -2.359375 C 1.304688 -1.796875 1.46875 -1.363281 1.75 -1.0625 C 2.039062 -0.757812 2.40625 -0.609375 2.84375 -0.609375 C 3.15625 -0.609375 3.425781 -0.691406 3.65625 -0.859375 C 3.882812 -1.023438 4.066406 -1.296875 4.203125 -1.671875 Z M 1.328125 -3.09375 L 4.21875 -3.09375 C 4.175781 -3.519531 4.0625 -3.84375 3.875 -4.0625 C 3.601562 -4.40625 3.242188 -4.578125 2.796875 -4.578125 C 2.390625 -4.578125 2.046875 -4.441406 1.765625 -4.171875 C 1.492188 -3.898438 1.347656 -3.539062 1.328125 -3.09375 Z M 1.328125 -3.09375 "></path>
</symbol>
<symbol overflow="visible" id="glyph0-9">
<path style="stroke:none;" d="M 0.65625 0 L 0.65625 -5.171875 L 1.4375 -5.171875 L 1.4375 -4.453125 C 1.601562 -4.703125 1.820312 -4.90625 2.09375 -5.0625 C 2.363281 -5.21875 2.671875 -5.296875 3.015625 -5.296875 C 3.398438 -5.296875 3.710938 -5.210938 3.953125 -5.046875 C 4.203125 -4.890625 4.375 -4.671875 4.46875 -4.390625 C 4.882812 -4.992188 5.421875 -5.296875 6.078125 -5.296875 C 6.585938 -5.296875 6.976562 -5.148438 7.25 -4.859375 C 7.53125 -4.578125 7.671875 -4.140625 7.671875 -3.546875 L 7.671875 0 L 6.796875 0 L 6.796875 -3.265625 C 6.796875 -3.609375 6.765625 -3.859375 6.703125 -4.015625 C 6.648438 -4.171875 6.550781 -4.296875 6.40625 -4.390625 C 6.257812 -4.484375 6.082031 -4.53125 5.875 -4.53125 C 5.507812 -4.53125 5.207031 -4.410156 4.96875 -4.171875 C 4.726562 -3.929688 4.609375 -3.546875 4.609375 -3.015625 L 4.609375 0 L 3.734375 0 L 3.734375 -3.359375 C 3.734375 -3.753906 3.660156 -4.046875 3.515625 -4.234375 C 3.378906 -4.429688 3.144531 -4.53125 2.8125 -4.53125 C 2.570312 -4.53125 2.34375 -4.460938 2.125 -4.328125 C 1.914062 -4.203125 1.765625 -4.015625 1.671875 -3.765625 C 1.578125 -3.515625 1.53125 -3.15625 1.53125 -2.6875 L 1.53125 0 Z M 0.65625 0 "></path>
</symbol>
<symbol overflow="visible" id="glyph0-10">
<path style="stroke:none;" d="M 0.65625 1.984375 L 0.65625 -5.171875 L 1.453125 -5.171875 L 1.453125 -4.5 C 1.640625 -4.769531 1.851562 -4.96875 2.09375 -5.09375 C 2.332031 -5.226562 2.617188 -5.296875 2.953125 -5.296875 C 3.398438 -5.296875 3.789062 -5.179688 4.125 -4.953125 C 4.46875 -4.722656 4.722656 -4.398438 4.890625 -3.984375 C 5.066406 -3.578125 5.15625 -3.125 5.15625 -2.625 C 5.15625 -2.09375 5.054688 -1.613281 4.859375 -1.1875 C 4.671875 -0.769531 4.394531 -0.445312 4.03125 -0.21875 C 3.675781 0 3.296875 0.109375 2.890625 0.109375 C 2.597656 0.109375 2.335938 0.0507812 2.109375 -0.0625 C 1.878906 -0.1875 1.6875 -0.34375 1.53125 -0.53125 L 1.53125 1.984375 Z M 1.453125 -2.5625 C 1.453125 -1.894531 1.585938 -1.398438 1.859375 -1.078125 C 2.128906 -0.765625 2.457031 -0.609375 2.84375 -0.609375 C 3.226562 -0.609375 3.554688 -0.769531 3.828125 -1.09375 C 4.109375 -1.425781 4.25 -1.9375 4.25 -2.625 C 4.25 -3.289062 4.113281 -3.785156 3.84375 -4.109375 C 3.570312 -4.441406 3.25 -4.609375 2.875 -4.609375 C 2.5 -4.609375 2.164062 -4.429688 1.875 -4.078125 C 1.59375 -3.734375 1.453125 -3.226562 1.453125 -2.5625 Z M 1.453125 -2.5625 "></path>
</symbol>
<symbol overflow="visible" id="glyph0-11">
<path style="stroke:none;" d="M 0.640625 0 L 0.640625 -5.171875 L 1.4375 -5.171875 L 1.4375 -4.390625 C 1.632812 -4.753906 1.816406 -4.992188 1.984375 -5.109375 C 2.160156 -5.234375 2.351562 -5.296875 2.5625 -5.296875 C 2.851562 -5.296875 3.15625 -5.203125 3.46875 -5.015625 L 3.15625 -4.203125 C 2.945312 -4.328125 2.734375 -4.390625 2.515625 -4.390625 C 2.328125 -4.390625 2.15625 -4.332031 2 -4.21875 C 1.84375 -4.101562 1.734375 -3.941406 1.671875 -3.734375 C 1.578125 -3.421875 1.53125 -3.078125 1.53125 -2.703125 L 1.53125 0 Z M 0.640625 0 "></path>
</symbol>
<symbol overflow="visible" id="glyph0-12">
<path style="stroke:none;" d="M 4.03125 -0.640625 C 3.707031 -0.359375 3.394531 -0.160156 3.09375 -0.046875 C 2.789062 0.0546875 2.46875 0.109375 2.125 0.109375 C 1.5625 0.109375 1.125 -0.0234375 0.8125 -0.296875 C 0.507812 -0.578125 0.359375 -0.929688 0.359375 -1.359375 C 0.359375 -1.617188 0.414062 -1.851562 0.53125 -2.0625 C 0.644531 -2.269531 0.796875 -2.4375 0.984375 -2.5625 C 1.171875 -2.6875 1.382812 -2.785156 1.625 -2.859375 C 1.789062 -2.898438 2.050781 -2.941406 2.40625 -2.984375 C 3.113281 -3.066406 3.632812 -3.164062 3.96875 -3.28125 C 3.96875 -3.40625 3.96875 -3.484375 3.96875 -3.515625 C 3.96875 -3.867188 3.882812 -4.117188 3.71875 -4.265625 C 3.5 -4.460938 3.164062 -4.5625 2.71875 -4.5625 C 2.300781 -4.5625 1.992188 -4.488281 1.796875 -4.34375 C 1.609375 -4.207031 1.46875 -3.953125 1.375 -3.578125 L 0.515625 -3.703125 C 0.585938 -4.066406 0.710938 -4.359375 0.890625 -4.578125 C 1.078125 -4.804688 1.335938 -4.984375 1.671875 -5.109375 C 2.003906 -5.234375 2.394531 -5.296875 2.84375 -5.296875 C 3.289062 -5.296875 3.648438 -5.242188 3.921875 -5.140625 C 4.203125 -5.035156 4.40625 -4.90625 4.53125 -4.75 C 4.664062 -4.59375 4.757812 -4.394531 4.8125 -4.15625 C 4.832031 -4 4.84375 -3.726562 4.84375 -3.34375 L 4.84375 -2.171875 C 4.84375 -1.359375 4.863281 -0.84375 4.90625 -0.625 C 4.945312 -0.40625 5.019531 -0.195312 5.125 0 L 4.21875 0 C 4.125 -0.175781 4.0625 -0.390625 4.03125 -0.640625 Z M 3.96875 -2.59375 C 3.644531 -2.46875 3.164062 -2.359375 2.53125 -2.265625 C 2.164062 -2.210938 1.910156 -2.15625 1.765625 -2.09375 C 1.617188 -2.03125 1.503906 -1.9375 1.421875 -1.8125 C 1.335938 -1.6875 1.296875 -1.546875 1.296875 -1.390625 C 1.296875 -1.148438 1.382812 -0.953125 1.5625 -0.796875 C 1.738281 -0.648438 2 -0.578125 2.34375 -0.578125 C 2.675781 -0.578125 2.972656 -0.648438 3.234375 -0.796875 C 3.503906 -0.941406 3.703125 -1.144531 3.828125 -1.40625 C 3.921875 -1.601562 3.96875 -1.894531 3.96875 -2.28125 Z M 3.96875 -2.59375 "></path>
</symbol>
<symbol overflow="visible" id="glyph0-13">
<path style="stroke:none;" d="M 4.046875 0 L 4.046875 -0.765625 C 3.648438 -0.179688 3.101562 0.109375 2.40625 0.109375 C 2.101562 0.109375 1.816406 0.0507812 1.546875 -0.0625 C 1.285156 -0.175781 1.085938 -0.320312 0.953125 -0.5 C 0.828125 -0.675781 0.738281 -0.894531 0.6875 -1.15625 C 0.65625 -1.320312 0.640625 -1.59375 0.640625 -1.96875 L 0.640625 -5.171875 L 1.515625 -5.171875 L 1.515625 -2.3125 C 1.515625 -1.851562 1.53125 -1.539062 1.5625 -1.375 C 1.625 -1.144531 1.742188 -0.960938 1.921875 -0.828125 C 2.097656 -0.703125 2.316406 -0.640625 2.578125 -0.640625 C 2.847656 -0.640625 3.097656 -0.707031 3.328125 -0.84375 C 3.554688 -0.976562 3.71875 -1.160156 3.8125 -1.390625 C 3.90625 -1.617188 3.953125 -1.957031 3.953125 -2.40625 L 3.953125 -5.171875 L 4.84375 -5.171875 L 4.84375 0 Z M 4.046875 0 "></path>
</symbol>
<symbol overflow="visible" id="glyph0-14">
<path style="stroke:none;" d=""></path>
</symbol>
<symbol overflow="visible" id="glyph0-15">
<path style="stroke:none;" d="M 2.328125 2.09375 C 1.847656 1.488281 1.441406 0.78125 1.109375 -0.03125 C 0.773438 -0.851562 0.609375 -1.707031 0.609375 -2.59375 C 0.609375 -3.363281 0.734375 -4.101562 0.984375 -4.8125 C 1.273438 -5.632812 1.722656 -6.453125 2.328125 -7.265625 L 2.96875 -7.265625 C 2.570312 -6.585938 2.3125 -6.109375 2.1875 -5.828125 C 1.988281 -5.367188 1.832031 -4.898438 1.71875 -4.421875 C 1.570312 -3.804688 1.5 -3.191406 1.5 -2.578125 C 1.5 -1.015625 1.988281 0.539062 2.96875 2.09375 Z M 2.328125 2.09375 "></path>
</symbol>
<symbol overflow="visible" id="glyph0-16">
<path style="stroke:none;" d="M 0.625 -5.921875 C 0.625 -6.296875 0.753906 -6.613281 1.015625 -6.875 C 1.285156 -7.132812 1.601562 -7.265625 1.96875 -7.265625 C 2.351562 -7.265625 2.675781 -7.132812 2.9375 -6.875 C 3.195312 -6.613281 3.328125 -6.296875 3.328125 -5.921875 C 3.328125 -5.546875 3.191406 -5.222656 2.921875 -4.953125 C 2.660156 -4.691406 2.34375 -4.5625 1.96875 -4.5625 C 1.601562 -4.5625 1.285156 -4.691406 1.015625 -4.953125 C 0.753906 -5.222656 0.625 -5.546875 0.625 -5.921875 Z M 1.15625 -5.921875 C 1.15625 -5.691406 1.234375 -5.492188 1.390625 -5.328125 C 1.554688 -5.171875 1.753906 -5.09375 1.984375 -5.09375 C 2.203125 -5.09375 2.390625 -5.171875 2.546875 -5.328125 C 2.710938 -5.492188 2.796875 -5.691406 2.796875 -5.921875 C 2.796875 -6.148438 2.710938 -6.34375 2.546875 -6.5 C 2.390625 -6.664062 2.203125 -6.75 1.984375 -6.75 C 1.753906 -6.75 1.554688 -6.664062 1.390625 -6.5 C 1.234375 -6.34375 1.15625 -6.148438 1.15625 -5.921875 Z M 1.15625 -5.921875 "></path>
</symbol>
<symbol overflow="visible" id="glyph0-17">
<path style="stroke:none;" d="M 5.875 -2.5 L 6.8125 -2.265625 C 6.613281 -1.492188 6.253906 -0.898438 5.734375 -0.484375 C 5.222656 -0.078125 4.597656 0.125 3.859375 0.125 C 3.085938 0.125 2.457031 -0.03125 1.96875 -0.34375 C 1.488281 -0.65625 1.125 -1.109375 0.875 -1.703125 C 0.625 -2.304688 0.5 -2.945312 0.5 -3.625 C 0.5 -4.375 0.640625 -5.023438 0.921875 -5.578125 C 1.203125 -6.128906 1.601562 -6.546875 2.125 -6.828125 C 2.65625 -7.117188 3.238281 -7.265625 3.875 -7.265625 C 4.582031 -7.265625 5.179688 -7.082031 5.671875 -6.71875 C 6.160156 -6.351562 6.5 -5.84375 6.6875 -5.1875 L 5.765625 -4.96875 C 5.597656 -5.488281 5.351562 -5.863281 5.03125 -6.09375 C 4.71875 -6.332031 4.320312 -6.453125 3.84375 -6.453125 C 3.300781 -6.453125 2.84375 -6.320312 2.46875 -6.0625 C 2.101562 -5.800781 1.84375 -5.445312 1.6875 -5 C 1.539062 -4.5625 1.46875 -4.101562 1.46875 -3.625 C 1.46875 -3.019531 1.554688 -2.488281 1.734375 -2.03125 C 1.910156 -1.582031 2.1875 -1.242188 2.5625 -1.015625 C 2.9375 -0.796875 3.34375 -0.6875 3.78125 -0.6875 C 4.3125 -0.6875 4.757812 -0.835938 5.125 -1.140625 C 5.488281 -1.453125 5.738281 -1.90625 5.875 -2.5 Z M 5.875 -2.5 "></path>
</symbol>
<symbol overflow="visible" id="glyph0-18">
<path style="stroke:none;" d="M 1.234375 2.09375 L 0.609375 2.09375 C 1.578125 0.539062 2.0625 -1.015625 2.0625 -2.578125 C 2.0625 -3.191406 1.992188 -3.800781 1.859375 -4.40625 C 1.742188 -4.894531 1.585938 -5.363281 1.390625 -5.8125 C 1.265625 -6.101562 1.003906 -6.585938 0.609375 -7.265625 L 1.234375 -7.265625 C 1.847656 -6.453125 2.300781 -5.632812 2.59375 -4.8125 C 2.84375 -4.101562 2.96875 -3.363281 2.96875 -2.59375 C 2.96875 -1.707031 2.796875 -0.851562 2.453125 -0.03125 C 2.117188 0.78125 1.710938 1.488281 1.234375 2.09375 Z M 1.234375 2.09375 "></path>
</symbol>
<symbol overflow="visible" id="glyph0-19">
<path style="stroke:none;" d="M 4.96875 -5.390625 L 4.09375 -5.328125 C 4.019531 -5.671875 3.910156 -5.921875 3.765625 -6.078125 C 3.523438 -6.328125 3.234375 -6.453125 2.890625 -6.453125 C 2.609375 -6.453125 2.363281 -6.375 2.15625 -6.21875 C 1.875 -6.019531 1.648438 -5.726562 1.484375 -5.34375 C 1.328125 -4.957031 1.25 -4.40625 1.25 -3.6875 C 1.457031 -4.007812 1.710938 -4.25 2.015625 -4.40625 C 2.328125 -4.5625 2.648438 -4.640625 2.984375 -4.640625 C 3.566406 -4.640625 4.0625 -4.421875 4.46875 -3.984375 C 4.882812 -3.554688 5.09375 -3.003906 5.09375 -2.328125 C 5.09375 -1.867188 4.992188 -1.445312 4.796875 -1.0625 C 4.609375 -0.6875 4.34375 -0.394531 4 -0.1875 C 3.664062 0.0195312 3.285156 0.125 2.859375 0.125 C 2.128906 0.125 1.53125 -0.140625 1.0625 -0.671875 C 0.601562 -1.210938 0.375 -2.101562 0.375 -3.34375 C 0.375 -4.726562 0.628906 -5.734375 1.140625 -6.359375 C 1.585938 -6.898438 2.1875 -7.171875 2.9375 -7.171875 C 3.5 -7.171875 3.957031 -7.015625 4.3125 -6.703125 C 4.675781 -6.390625 4.894531 -5.953125 4.96875 -5.390625 Z M 1.390625 -2.3125 C 1.390625 -2.007812 1.453125 -1.71875 1.578125 -1.4375 C 1.703125 -1.164062 1.878906 -0.957031 2.109375 -0.8125 C 2.347656 -0.664062 2.59375 -0.59375 2.84375 -0.59375 C 3.207031 -0.59375 3.523438 -0.742188 3.796875 -1.046875 C 4.066406 -1.347656 4.203125 -1.753906 4.203125 -2.265625 C 4.203125 -2.765625 4.066406 -3.15625 3.796875 -3.4375 C 3.535156 -3.71875 3.207031 -3.859375 2.8125 -3.859375 C 2.414062 -3.859375 2.078125 -3.71875 1.796875 -3.4375 C 1.523438 -3.15625 1.390625 -2.78125 1.390625 -2.3125 Z M 1.390625 -2.3125 "></path>
</symbol>
<symbol overflow="visible" id="glyph0-20">
<path style="stroke:none;" d="M 0.421875 -1.890625 L 1.296875 -2 C 1.398438 -1.5 1.570312 -1.140625 1.8125 -0.921875 C 2.050781 -0.703125 2.347656 -0.59375 2.703125 -0.59375 C 3.109375 -0.59375 3.453125 -0.734375 3.734375 -1.015625 C 4.023438 -1.304688 4.171875 -1.664062 4.171875 -2.09375 C 4.171875 -2.5 4.035156 -2.832031 3.765625 -3.09375 C 3.503906 -3.351562 3.171875 -3.484375 2.765625 -3.484375 C 2.597656 -3.484375 2.394531 -3.453125 2.15625 -3.390625 L 2.25 -4.15625 C 2.300781 -4.144531 2.347656 -4.140625 2.390625 -4.140625 C 2.765625 -4.140625 3.097656 -4.238281 3.390625 -4.4375 C 3.691406 -4.632812 3.84375 -4.9375 3.84375 -5.34375 C 3.84375 -5.664062 3.734375 -5.929688 3.515625 -6.140625 C 3.296875 -6.347656 3.015625 -6.453125 2.671875 -6.453125 C 2.335938 -6.453125 2.054688 -6.34375 1.828125 -6.125 C 1.597656 -5.914062 1.453125 -5.597656 1.390625 -5.171875 L 0.5 -5.328125 C 0.613281 -5.910156 0.859375 -6.363281 1.234375 -6.6875 C 1.617188 -7.007812 2.09375 -7.171875 2.65625 -7.171875 C 3.039062 -7.171875 3.398438 -7.085938 3.734375 -6.921875 C 4.066406 -6.753906 4.316406 -6.523438 4.484375 -6.234375 C 4.660156 -5.953125 4.75 -5.644531 4.75 -5.3125 C 4.75 -5.007812 4.664062 -4.726562 4.5 -4.46875 C 4.332031 -4.21875 4.085938 -4.019531 3.765625 -3.875 C 4.179688 -3.769531 4.503906 -3.5625 4.734375 -3.25 C 4.972656 -2.945312 5.09375 -2.566406 5.09375 -2.109375 C 5.09375 -1.484375 4.863281 -0.953125 4.40625 -0.515625 C 3.957031 -0.0859375 3.382812 0.125 2.6875 0.125 C 2.0625 0.125 1.539062 -0.0625 1.125 -0.4375 C 0.707031 -0.8125 0.472656 -1.296875 0.421875 -1.890625 Z M 0.421875 -1.890625 "></path>
</symbol>
</g>
</defs>
<g id="surface1">
<path style=" stroke:none;fill-rule:nonzero;fill:rgb(0%,0%,0%);fill-opacity:0.2;" d="M 197.570312 38.609375 L 172.09375 50.914062 L 138.125 61.425781 L 104.15625 84.355469 L 70.1875 91.945312 L 70.1875 77.566406 L 104.15625 76.035156 L 138.125 53.097656 L 172.09375 42.984375 L 197.570312 34.765625 Z M 197.570312 38.609375 "></path>
<path style="fill:none;stroke-width:0.5;stroke-linecap:butt;stroke-linejoin:round;stroke:rgb(0%,0%,0%);stroke-opacity:1;stroke-miterlimit:10;" d="M 146.918148 44.102578 L 156.518156 42.81426 L 166.118164 36.33293 L 175.718172 33.418485 L 182.918178 30.51839 " transform="matrix(3.538409,0,0,3.538409,-449.668927,-71.299032)"></path>
<path style="fill-rule:nonzero;fill:rgb(24.705882%,58.039218%,30.588236%);fill-opacity:1;stroke-width:0.15625;stroke-linecap:butt;stroke-linejoin:miter;stroke:rgb(0%,0%,0%);stroke-opacity:1;stroke-miterlimit:4;" d="M 157.299758 42.81426 C 157.299758 42.382613 156.949803 42.032659 156.518156 42.032659 C 156.086509 42.032659 155.736555 42.382613 155.736555 42.81426 C 155.736555 43.245908 156.086509 43.595862 156.518156 43.595862 C 156.949803 43.595862 157.299758 43.245908 157.299758 42.81426 Z M 157.299758 42.81426 " transform="matrix(3.538409,0,0,3.538409,-449.668927,-71.299032)"></path>
<path style="fill-rule:nonzero;fill:rgb(0%,20.784314%,97.647059%);fill-opacity:1;stroke-width:0.15625;stroke-linecap:butt;stroke-linejoin:miter;stroke:rgb(0%,0%,0%);stroke-opacity:1;stroke-miterlimit:4;" d="M 147.69975 44.102578 C 147.69975 43.672035 147.349795 43.322081 146.918148 43.322081 C 146.486501 43.322081 146.136547 43.672035 146.136547 44.102578 C 146.136547 44.534225 146.486501 44.884179 146.918148 44.884179 C 147.349795 44.884179 147.69975 44.534225 147.69975 44.102578 Z M 147.69975 44.102578 " transform="matrix(3.538409,0,0,3.538409,-449.668927,-71.299032)"></path>
<path style="fill-rule:nonzero;fill:rgb(70.588237%,75.686276%,10.588235%);fill-opacity:1;stroke-width:0.15625;stroke-linecap:butt;stroke-linejoin:miter;stroke:rgb(0%,0%,0%);stroke-opacity:1;stroke-miterlimit:4;" d="M 166.899766 36.33293 C 166.899766 35.901283 166.549811 35.551329 166.118164 35.551329 C 165.686517 35.551329 165.336563 35.901283 165.336563 36.33293 C 165.336563 36.764577 165.686517 37.114532 166.118164 37.114532 C 166.549811 37.114532 166.899766 36.764577 166.899766 36.33293 Z M 166.899766 36.33293 " transform="matrix(3.538409,0,0,3.538409,-449.668927,-71.299032)"></path>
<path style="fill-rule:nonzero;fill:rgb(100%,64.313728%,7.450981%);fill-opacity:1;stroke-width:0.15625;stroke-linecap:butt;stroke-linejoin:miter;stroke:rgb(0%,0%,0%);stroke-opacity:1;stroke-miterlimit:4;" d="M 176.499774 33.418485 C 176.499774 32.986837 176.149819 32.637987 175.718172 32.637987 C 175.286525 32.637987 174.936571 32.986837 174.936571 33.418485 C 174.936571 33.850132 175.286525 34.200086 175.718172 34.200086 C 176.149819 34.200086 176.499774 33.850132 176.499774 33.418485 Z M 176.499774 33.418485 " transform="matrix(3.538409,0,0,3.538409,-449.668927,-71.299032)"></path>
<path style="fill-rule:nonzero;fill:rgb(100%,16.470589%,0%);fill-opacity:1;stroke-width:0.15625;stroke-linecap:butt;stroke-linejoin:miter;stroke:rgb(0%,0%,0%);stroke-opacity:1;stroke-miterlimit:4;" d="M 183.69978 30.51839 C 183.69978 30.086743 183.349825 29.736789 182.918178 29.736789 C 182.486531 29.736789 182.136577 30.086743 182.136577 30.51839 C 182.136577 30.950037 182.486531 31.299991 182.918178 31.299991 C 183.349825 31.299991 183.69978 30.950037 183.69978 30.51839 Z M 183.69978 30.51839 " transform="matrix(3.538409,0,0,3.538409,-449.668927,-71.299032)"></path>
<path style="fill:none;stroke-width:2.68373;stroke-linecap:butt;stroke-linejoin:bevel;stroke:rgb(0%,0%,0%);stroke-opacity:1;stroke-dasharray:8.05118,8.05118;stroke-miterlimit:4;" d="M 111.999078 114.326591 L 539.228503 114.326591 " transform="matrix(0.386008,0,0,0.281464,1.478375,-2.16323)"></path>
<g style="fill:rgb(0%,0%,0%);fill-opacity:1;"> <use xlink:href="#glyph0-1" x="64.308594" y="145.461403"></use> <use xlink:href="#glyph0-2" x="69.85809" y="145.461403"></use>
</g>
<g style="fill:rgb(0%,0%,0%);fill-opacity:1;"> <use xlink:href="#glyph0-3" x="36.738281" y="135.867653"></use>
</g>
<g style="fill:rgb(0%,0%,0%);fill-opacity:1;"> <use xlink:href="#glyph0-3" x="22.78125" y="84.266091"></use> <use xlink:href="#glyph0-4" x="28.330746" y="84.266091"></use> <use xlink:href="#glyph0-5" x="31.102039" y="84.266091"></use> <use xlink:href="#glyph0-6" x="36.651535" y="84.266091"></use>
</g>
<g style="fill:rgb(0%,0%,0%);fill-opacity:1;"> <use xlink:href="#glyph0-3" x="28.332031" y="32.664528"></use> <use xlink:href="#glyph0-4" x="33.881527" y="32.664528"></use> <use xlink:href="#glyph0-6" x="36.65282" y="32.664528"></use>
</g>
<path style="fill:none;stroke-width:3.22047;stroke-linecap:butt;stroke-linejoin:round;stroke:rgb(14.901961%,14.901961%,14.901961%);stroke-opacity:0.14902;stroke-miterlimit:10;" d="M 551.999443 481.005591 L 111.999078 481.005591 " transform="matrix(0.386008,0,0,0.281464,1.478375,-2.16325)"></path>
<path style="fill:none;stroke-width:0.3;stroke-linecap:square;stroke-linejoin:round;stroke:rgb(0%,0%,0%);stroke-opacity:1;stroke-miterlimit:10;" d="M 139.718142 57.800474 L 187.718182 57.800474 " transform="matrix(3.538409,0,0,3.538409,-449.668927,-71.299032)"></path>
<path style="fill:none;stroke-width:0.3;stroke-linecap:square;stroke-linejoin:round;stroke:rgb(0%,0%,0%);stroke-opacity:1;stroke-miterlimit:10;" d="M 139.718142 57.800474 L 139.718142 22.799524 " transform="matrix(3.538409,0,0,3.538409,-449.668927,-71.299032)"></path>
<path style="fill:none;stroke-width:3.22047;stroke-linecap:square;stroke-linejoin:round;stroke:rgb(14.901961%,14.901961%,14.901961%);stroke-opacity:1;stroke-miterlimit:10;" d="M 111.999078 114.326663 L 116.401105 114.326663 " transform="matrix(0.386008,0,0,0.281464,1.478375,-2.16325)"></path>
<path style=" stroke:none;fill-rule:nonzero;fill:rgb(0%,0%,0%);fill-opacity:1;" d="M 15.9375 82.355469 C 16.363281 82.453125 16.441406 82.492188 16.441406 83.039062 C 16.441406 83.175781 16.441406 83.3125 16.675781 83.3125 C 16.773438 83.3125 16.832031 83.253906 16.832031 83.15625 C 16.832031 82.824219 16.792969 82.453125 16.792969 82.121094 C 16.792969 81.691406 16.832031 81.28125 16.832031 80.875 C 16.832031 80.816406 16.832031 80.660156 16.578125 80.660156 C 16.441406 80.660156 16.441406 80.777344 16.441406 80.953125 C 16.441406 81.574219 16.363281 81.574219 16.246094 81.574219 C 16.09375 81.574219 14.0625 81.050781 13.75 80.972656 C 14.121094 80.816406 14.550781 80.464844 14.550781 79.820312 C 14.550781 78.375 12.738281 76.816406 10.902344 76.816406 C 9.734375 76.816406 8.914062 77.539062 8.914062 78.472656 C 8.914062 79.097656 9.363281 79.703125 9.851562 80.113281 C 9.167969 80.230469 8.914062 80.777344 8.914062 81.222656 C 8.914062 81.808594 9.402344 82.042969 9.617188 82.140625 C 10.046875 82.375 10.785156 82.53125 10.824219 82.53125 C 10.960938 82.53125 10.960938 82.414062 10.960938 82.394531 C 10.960938 82.257812 10.941406 82.257812 10.667969 82.179688 C 9.792969 81.964844 9.1875 81.710938 9.1875 81.261719 C 9.1875 81.050781 9.285156 80.875 9.753906 80.875 C 10.046875 80.875 10.183594 80.914062 10.398438 80.972656 Z M 10.535156 80.171875 C 10.203125 80.09375 9.851562 79.742188 9.65625 79.527344 C 9.285156 79.078125 9.1875 78.726562 9.1875 78.511719 C 9.1875 78.027344 9.617188 77.714844 10.359375 77.714844 C 11.097656 77.714844 12.523438 78.125 12.992188 78.355469 C 13.867188 78.785156 14.277344 79.371094 14.277344 79.839844 C 14.277344 80.660156 13.246094 80.816406 13.167969 80.816406 C 13.148438 80.816406 13.128906 80.816406 12.972656 80.777344 Z M 10.535156 80.171875 "></path>
<path style=" stroke:none;fill-rule:nonzero;fill:rgb(0%,0%,0%);fill-opacity:1;" d="M 12.847656 73.113281 L 12.847656 72.273438 C 12.847656 72.101562 12.847656 71.984375 12.652344 71.984375 C 12.535156 71.984375 12.535156 72.101562 12.535156 72.253906 L 12.535156 73.054688 C 11.421875 72.859375 11.03125 72.800781 10.777344 72.722656 C 10.585938 72.683594 10.410156 72.488281 10.410156 72.273438 C 10.410156 72.273438 10.410156 72.042969 10.507812 71.867188 C 10.625 72.234375 10.933594 72.253906 10.972656 72.253906 C 11.167969 72.253906 11.304688 72.101562 11.304688 71.90625 C 11.304688 71.671875 11.109375 71.417969 10.777344 71.417969 C 10.371094 71.417969 10.15625 71.828125 10.15625 72.273438 C 10.15625 72.664062 10.371094 73.09375 10.796875 73.328125 C 11.128906 73.503906 11.519531 73.5625 12.535156 73.757812 L 12.535156 74.441406 C 12.535156 74.617188 12.535156 74.734375 12.730469 74.734375 C 12.847656 74.734375 12.847656 74.617188 12.847656 74.460938 L 12.847656 73.816406 C 12.90625 73.816406 16.027344 74.363281 16.960938 74.578125 C 17.15625 74.617188 17.800781 74.773438 17.800781 75.179688 C 17.800781 75.199219 17.800781 75.394531 17.703125 75.570312 C 17.585938 75.21875 17.273438 75.179688 17.234375 75.179688 C 17.039062 75.179688 16.902344 75.335938 16.902344 75.53125 C 16.902344 75.765625 17.097656 76.019531 17.429688 76.019531 C 17.820312 76.019531 18.054688 75.609375 18.054688 75.179688 C 18.054688 74.636719 17.488281 74.246094 17.292969 74.148438 C 16.707031 73.835938 15.636719 73.621094 15.539062 73.601562 Z M 12.847656 73.113281 "></path>
<path style=" stroke:none;fill-rule:nonzero;fill:rgb(0%,0%,0%);fill-opacity:1;" d="M 10.507812 68.382812 C 10.488281 68.382812 10.371094 68.34375 10.371094 68.34375 C 10.3125 68.34375 10.234375 68.382812 10.234375 68.5 C 10.234375 68.675781 10.3125 69.394531 10.332031 69.609375 C 10.332031 69.667969 10.351562 69.785156 10.527344 69.785156 C 10.644531 69.785156 10.644531 69.667969 10.644531 69.570312 C 10.644531 69.140625 10.722656 69.140625 10.777344 69.140625 C 10.835938 69.140625 10.894531 69.160156 10.972656 69.179688 L 15.265625 70.273438 C 15.363281 70.292969 15.460938 70.292969 15.539062 70.292969 C 16.105469 70.292969 16.359375 69.804688 16.359375 69.394531 C 16.359375 69.179688 16.300781 68.910156 15.910156 68.695312 C 15.578125 68.5 15.070312 68.382812 15.03125 68.382812 C 14.914062 68.382812 14.914062 68.5 14.914062 68.519531 C 14.914062 68.65625 14.972656 68.675781 15.128906 68.695312 C 15.558594 68.8125 16.125 68.988281 16.125 69.355469 C 16.125 69.589844 15.910156 69.648438 15.695312 69.648438 C 15.597656 69.648438 15.441406 69.628906 15.34375 69.589844 Z M 10.507812 68.382812 "></path>
<path style=" stroke:none;fill-rule:nonzero;fill:rgb(0%,0%,0%);fill-opacity:1;" d="M 10.835938 64.8125 C 10.703125 64.8125 10.507812 64.929688 10.507812 65.164062 C 10.507812 65.398438 10.742188 65.652344 10.992188 65.652344 C 11.128906 65.652344 11.324219 65.554688 11.324219 65.300781 C 11.324219 65.066406 11.070312 64.8125 10.835938 64.8125 Z M 15.265625 66.589844 C 15.382812 66.625 15.480469 66.664062 15.636719 66.664062 C 16.046875 66.664062 16.359375 66.335938 16.359375 65.847656 C 16.359375 64.988281 15.167969 64.597656 15.03125 64.597656 C 14.914062 64.597656 14.914062 64.714844 14.914062 64.734375 C 14.914062 64.851562 14.972656 64.871094 15.070312 64.910156 C 15.773438 65.105469 16.125 65.476562 16.125 65.828125 C 16.125 66.003906 16.007812 66.042969 15.8125 66.042969 C 15.617188 66.042969 15.460938 65.984375 15.265625 65.90625 C 15.03125 65.808594 14.796875 65.710938 14.5625 65.632812 C 14.347656 65.554688 13.570312 65.222656 13.453125 65.203125 C 13.375 65.164062 13.277344 65.144531 13.179688 65.144531 C 12.769531 65.144531 12.4375 65.496094 12.4375 65.964844 C 12.4375 66.839844 13.625 67.230469 13.78125 67.230469 C 13.878906 67.230469 13.878906 67.113281 13.878906 67.074219 C 13.878906 66.957031 13.839844 66.957031 13.742188 66.917969 C 13.003906 66.703125 12.691406 66.316406 12.691406 66.003906 C 12.691406 65.867188 12.75 65.789062 12.984375 65.789062 C 13.199219 65.789062 13.316406 65.828125 13.859375 66.042969 Z M 15.265625 66.589844 "></path>
<path style=" stroke:none;fill-rule:nonzero;fill:rgb(0%,0%,0%);fill-opacity:1;" d="M 17.332031 63.480469 C 17.585938 63.539062 17.644531 63.558594 17.644531 63.890625 C 17.644531 64.007812 17.644531 64.125 17.839844 64.125 C 17.9375 64.125 17.976562 64.046875 17.976562 64.007812 C 17.976562 63.792969 17.9375 63.5 17.9375 63.265625 C 17.9375 62.972656 17.976562 62.640625 17.976562 62.347656 C 17.976562 62.269531 17.9375 62.171875 17.78125 62.171875 C 17.644531 62.171875 17.644531 62.289062 17.644531 62.40625 C 17.644531 62.601562 17.644531 62.835938 17.546875 62.835938 C 17.507812 62.835938 17.273438 62.757812 17.15625 62.738281 C 16.6875 62.621094 16.222656 62.503906 15.851562 62.40625 C 16.027344 62.308594 16.359375 62.035156 16.359375 61.511719 C 16.359375 60.457031 15.1875 59.285156 13.898438 59.285156 C 12.886719 59.285156 12.4375 59.988281 12.4375 60.574219 C 12.4375 61.121094 12.808594 61.589844 13.0625 61.820312 C 12.554688 61.957031 12.4375 62.445312 12.4375 62.71875 C 12.4375 63.050781 12.671875 63.265625 12.90625 63.402344 C 13.199219 63.578125 13.722656 63.714844 13.78125 63.714844 C 13.878906 63.714844 13.878906 63.597656 13.878906 63.558594 C 13.878906 63.441406 13.859375 63.441406 13.625 63.382812 C 13.121094 63.246094 12.691406 63.070312 12.691406 62.738281 C 12.691406 62.503906 12.886719 62.445312 13.121094 62.445312 C 13.21875 62.445312 13.316406 62.464844 13.375 62.484375 Z M 13.492188 61.820312 C 12.808594 61.316406 12.691406 60.886719 12.691406 60.613281 C 12.691406 60.261719 12.945312 59.96875 13.53125 59.96875 C 13.878906 59.96875 14.777344 60.164062 15.285156 60.417969 C 15.714844 60.652344 16.125 61.0625 16.125 61.511719 C 16.125 62.132812 15.460938 62.289062 15.363281 62.289062 C 15.324219 62.289062 15.265625 62.269531 15.226562 62.269531 Z M 13.492188 61.820312 "></path>
<path style="fill:none;stroke-width:0.3;stroke-linecap:square;stroke-linejoin:round;stroke:rgb(0%,0%,0%);stroke-opacity:1;stroke-miterlimit:10;" d="M 139.718142 43.217205 L 140.117775 43.217205 " transform="matrix(3.538409,0,0,3.538409,-449.668927,-71.299032)"></path>
<path style="fill:none;stroke-width:0.3;stroke-linecap:square;stroke-linejoin:round;stroke:rgb(0%,0%,0%);stroke-opacity:1;stroke-miterlimit:10;" d="M 146.918148 57.800474 L 146.918148 57.399737 " transform="matrix(3.538409,0,0,3.538409,-449.668927,-71.299032)"></path>
<path style="fill:none;stroke-width:0.3;stroke-linecap:square;stroke-linejoin:round;stroke:rgb(0%,0%,0%);stroke-opacity:1;stroke-miterlimit:10;" d="M 156.518156 57.800474 L 156.518156 57.399737 " transform="matrix(3.538409,0,0,3.538409,-449.668927,-71.299032)"></path>
<path style="fill:none;stroke-width:0.3;stroke-linecap:square;stroke-linejoin:round;stroke:rgb(0%,0%,0%);stroke-opacity:1;stroke-miterlimit:10;" d="M 166.118164 57.800474 L 166.118164 57.399737 " transform="matrix(3.538409,0,0,3.538409,-449.668927,-71.299032)"></path>
<path style="fill:none;stroke-width:0.3;stroke-linecap:square;stroke-linejoin:round;stroke:rgb(0%,0%,0%);stroke-opacity:1;stroke-miterlimit:10;" d="M 175.718172 57.800474 L 175.718172 57.399737 " transform="matrix(3.538409,0,0,3.538409,-449.668927,-71.299032)"></path>
<path style="fill:none;stroke-width:0.3;stroke-linecap:square;stroke-linejoin:round;stroke:rgb(0%,0%,0%);stroke-opacity:1;stroke-miterlimit:10;" d="M 182.918178 57.800474 L 182.918178 57.399737 " transform="matrix(3.538409,0,0,3.538409,-449.668927,-71.299032)"></path>
<g style="fill:rgb(0%,0%,0%);fill-opacity:1;"> <use xlink:href="#glyph0-5" x="98.714844" y="145.461403"></use> <use xlink:href="#glyph0-5" x="104.26434" y="145.461403"></use>
</g>
<g style="fill:rgb(0%,0%,0%);fill-opacity:1;"> <use xlink:href="#glyph0-7" x="92.488281" y="158.051247"></use> <use xlink:href="#glyph0-8" x="95.259574" y="158.051247"></use> <use xlink:href="#glyph0-9" x="100.80907" y="158.051247"></use> <use xlink:href="#glyph0-10" x="109.122948" y="158.051247"></use> <use xlink:href="#glyph0-8" x="114.672444" y="158.051247"></use> <use xlink:href="#glyph0-11" x="120.22194" y="158.051247"></use> <use xlink:href="#glyph0-12" x="123.546109" y="158.051247"></use> <use xlink:href="#glyph0-7" x="129.095605" y="158.051247"></use> <use xlink:href="#glyph0-13" x="131.866898" y="158.051247"></use> <use xlink:href="#glyph0-11" x="137.416394" y="158.051247"></use> <use xlink:href="#glyph0-8" x="140.740563" y="158.051247"></use> <use xlink:href="#glyph0-14" x="146.290059" y="158.051247"></use> <use xlink:href="#glyph0-15" x="149.061352" y="158.051247"></use> <use xlink:href="#glyph0-16" x="152.385521" y="158.051247"></use> <use xlink:href="#glyph0-17" x="156.376597" y="158.051247"></use> <use xlink:href="#glyph0-18" x="163.584722" y="158.051247"></use>
</g>
<g style="fill:rgb(0%,0%,0%);fill-opacity:1;"> <use xlink:href="#glyph0-5" x="132.648438" y="145.461403"></use> <use xlink:href="#glyph0-19" x="138.197934" y="145.461403"></use>
</g>
<g style="fill:rgb(0%,0%,0%);fill-opacity:1;"> <use xlink:href="#glyph0-20" x="166.570312" y="145.461403"></use> <use xlink:href="#glyph0-3" x="172.119809" y="145.461403"></use>
</g>
<g style="fill:rgb(0%,0%,0%);fill-opacity:1;"> <use xlink:href="#glyph0-20" x="192.035156" y="145.461403"></use> <use xlink:href="#glyph0-20" x="197.584652" y="145.461403"></use>
</g>
</g>
</svg>
