<?xml version="1.0"?>

<svg width="63.442257" height="47.684483" viewBox="0 0 63.442257 47.684483" version="1.1" id="svg8" inkscape:version="1.1 (c4e8f9ed74, 2021-05-24)" sodipodi:docname="kflip.svg" xmlns:inkscape="http://www.inkscape.org/namespaces/inkscape" xmlns:sodipodi="http://sodipodi.sourceforge.net/DTD/sodipodi-0.dtd" xmlns="http://www.w3.org/2000/svg" xmlns:svg="http://www.w3.org/2000/svg" xmlns:rdf="http://www.w3.org/1999/02/22-rdf-syntax-ns#" xmlns:cc="http://creativecommons.org/ns#" xmlns:dc="http://purl.org/dc/elements/1.1/" xmlns:ns1="http://www.iki.fi/pav/software/textext/"> <defs id="defs2"> <linearGradient id="linearGradient2271" inkscape:swatch="solid"> <stop style="stop-color:#5b68b2;stop-opacity:1;" offset="0" id="stop2269"></stop> </linearGradient> <linearGradient id="lat" inkscape:swatch="solid"> <stop style="stop-color:#000000;stop-opacity:1;" offset="0" id="stop5990"></stop> </linearGradient> <linearGradient id="linearGradient3900" inkscape:swatch="solid"> <stop style="stop-color:#e3b020;stop-opacity:1;" offset="0" id="stop3898"></stop> </linearGradient> <linearGradient id="linearGradient3944" inkscape:swatch="solid"> <stop style="stop-color:#722608;stop-opacity:1;" offset="0" id="stop3942"></stop> </linearGradient> <linearGradient id="a" inkscape:swatch="solid"> <stop style="stop-color:#022d4d;stop-opacity:1;" offset="0" id="stop6654"></stop> </linearGradient> <linearGradient id="b" inkscape:swatch="solid"> <stop style="stop-color:#22b57e;stop-opacity:1;" offset="0" id="stop6666"></stop> </linearGradient> <linearGradient id="c" inkscape:swatch="solid"> <stop style="stop-color:#7e0174;stop-opacity:1;" offset="0" id="stop6672"></stop> </linearGradient> <linearGradient id="linearGradient6680" inkscape:swatch="solid"> <stop style="stop-color:#967d7d;stop-opacity:1;" offset="0" id="stop6678"></stop> </linearGradient> </defs> <sodipodi:namedview id="base" pagecolor="#ffffff" bordercolor="#666666" borderopacity="1.0" inkscape:pageopacity="0.0" inkscape:pageshadow="2" inkscape:zoom="2.6347276" inkscape:cx="127.52741" inkscape:cy="75.150083" inkscape:document-units="mm" inkscape:current-layer="layer1" inkscape:document-rotation="0" showgrid="false" fit-margin-left="2.5" fit-margin-top="2.5" fit-margin-bottom="2.5" fit-margin-right="2.5" inkscape:pagecheckerboard="0" inkscape:window-width="1920" inkscape:window-height="1015" inkscape:window-x="0" inkscape:window-y="0" inkscape:window-maximized="1"></sodipodi:namedview> <metadata id="metadata5"> <rdf:rdf> <cc:work rdf:about=""> <dc:format>image/svg+xml</dc:format> <dc:type rdf:resource="http://purl.org/dc/dcmitype/StillImage"></dc:type> </cc:work> </rdf:rdf> </metadata> <g inkscape:label="Layer 1" inkscape:groupmode="layer" id="layer1" transform="translate(-64.433504,-9.3409045)"> <g id="g12" style="font-style:normal;font-weight:normal;font-size:12px;font-family:Dialog;color-interpolation:auto;fill:#ffffff;fill-opacity:1;stroke:#ffffff;stroke-width:1;stroke-linecap:square;stroke-linejoin:miter;stroke-miterlimit:10;stroke-dasharray:none;stroke-dashoffset:0;stroke-opacity:1;color-rendering:auto;image-rendering:auto;shape-rendering:auto;text-rendering:auto" transform="matrix(0.0595846,0,0,0.0595846,8.187072,31.537292)"></g> <g id="g16" style="font-style:normal;font-weight:normal;font-size:12px;font-family:Dialog;color-interpolation:sRGB;fill:#ffffff;fill-opacity:1;stroke:#ffffff;stroke-width:1;stroke-linecap:square;stroke-linejoin:miter;stroke-miterlimit:10;stroke-dasharray:none;stroke-dashoffset:0;stroke-opacity:1;color-rendering:optimizeSpeed;image-rendering:optimizeSpeed;shape-rendering:crispEdges;text-rendering:optimizeSpeed" transform="matrix(0.0595846,0,0,0.0595846,8.187072,31.537292)"></g> <g transform="matrix(0.352778,0,0,0.352778,66.553694,168.47747)" ns1:version="1.1.0" ns1:texconverter="pdflatex" ns1:pdfconverter="inkscape" ns1:text="$\\alpha$" ns1:preamble="/home/raphael/.config/inkscape/extensions/textext/default_packages.tex" ns1:scale="1.0" ns1:alignment="middle center" ns1:inkscapeversion="0.92.5" ns1:jacobian_sqrt="0.352778" id="g3854"> <defs id="id-051a1a8d-2e42-4e33-8811-91d12553dded"></defs> <g id="id-f84096bf-5c7d-4cde-8b8b-1e418d985a0f" transform="translate(-149.118,-130.359)"> <g style="fill:#000000;fill-opacity:1" id="id-fb18ab98-18f5-4abb-9909-a5b732a405df"></g> </g> </g> <g id="g5315" transform="matrix(0.10909091,0,0,0.07954545,132.51207,27.816666)" style="stroke-width:2.43606"></g> <g id="g6441" transform="matrix(0.10909091,0,0,0.07954545,74.533325,27.816665)" style="stroke-width:2.43606"></g> <g id="g169-1" style="font-style:normal;font-weight:normal;font-size:medium;font-family:Dialog;color-interpolation:linearRGB;fill:#808080;fill-opacity:1;stroke:#808080;stroke-width:1.3333;stroke-linecap:butt;stroke-linejoin:round;stroke-miterlimit:10;stroke-dasharray:none;stroke-dashoffset:0;stroke-opacity:1;color-rendering:optimizeQuality;image-rendering:optimizeQuality;shape-rendering:auto;text-rendering:geometricPrecision" transform="matrix(0.02429821,0,0,0.02430134,123.15051,62.706499)"></g> <g id="g139-6" style="font-style:normal;font-weight:normal;font-size:medium;font-family:Dialog;display:inline;color-interpolation:linearRGB;fill:#3a030f;fill-opacity:1;stroke:#3a030f;stroke-width:2;stroke-linecap:butt;stroke-linejoin:round;stroke-miterlimit:10;stroke-dasharray:none;stroke-dashoffset:0;stroke-opacity:1;color-rendering:optimizeQuality;image-rendering:optimizeQuality;shape-rendering:auto;text-rendering:geometricPrecision" transform="matrix(-0.13938832,0,0,-0.13938832,259.4681,115.00905)"></g> <g id="g13552" style="font-style:normal;font-weight:normal;font-size:medium;font-family:Dialog;display:inline;color-interpolation:linearRGB;fill:#3f2a03;fill-opacity:1;stroke:#b67600;stroke-width:1.51558;stroke-linecap:butt;stroke-linejoin:bevel;stroke-miterlimit:1;stroke-dasharray:none;stroke-dashoffset:0;stroke-opacity:1;color-rendering:optimizeQuality;image-rendering:optimizeQuality;shape-rendering:auto;text-rendering:geometricPrecision" transform="matrix(0.05291678,0,0,0.12383436,113.2345,128.30217)"></g> <text xml:space="preserve" style="font-style:normal;font-weight:normal;font-size:10.5833px;line-height:1.25;font-family:sans-serif;letter-spacing:0px;word-spacing:0px;fill:#000000;fill-opacity:1;stroke:none;stroke-width:0.264583" x="119.1825" y="24.407207" id="text2017"><tspan sodipodi:role="line" id="tspan2015" x="119.1825" y="24.407207" style="stroke-width:0.264583"></tspan></text> <g style="font-style:normal;font-weight:normal;font-size:12px;font-family:Dialog;color-interpolation:sRGB;fill:#ffffff;fill-opacity:1;stroke:#ffffff;stroke-width:1;stroke-linecap:square;stroke-linejoin:miter;stroke-miterlimit:10;stroke-dasharray:none;stroke-dashoffset:0;stroke-opacity:1;color-rendering:optimizeSpeed;image-rendering:optimizeSpeed;shape-rendering:crispEdges;text-rendering:optimizeSpeed" id="g3638-6" transform="matrix(0.14240305,0,0,0.14240305,-32.287564,59.044926)"></g> <g id="g14-5" transform="matrix(0.31358023,0,0,0.31358024,91.000481,-91.272889)"></g> <g transform="matrix(0,-0.352778,0.352778,0,91.730424,84.740391)" ns1:version="1.1.0" ns1:texconverter="pdflatex" ns1:pdfconverter="inkscape" ns1:text="$P_{inc}$" ns1:preamble="/home/raphael/.config/inkscape/extensions/textext/default_packages.tex" ns1:scale="1.0" ns1:alignment="middle center" ns1:inkscapeversion="1.0.1" ns1:jacobian_sqrt="0.352778" id="g24623"> <defs id="defs24599"></defs> </g> <g id="g14-9" transform="matrix(0.31358023,0,0,0.31358024,70.037428,-43.187779)"></g> <g id="g18-6" transform="matrix(0.31358023,0,0,0.31358024,70.037428,-43.187779)"></g> <g id="g14-39" transform="matrix(0.31358023,0,0,0.31358024,95.037428,-43.792889)"></g> <g id="g14-53" transform="matrix(0.31358023,0,0,0.31358024,119.93821,-43.220849)"></g> <g id="g14-59" transform="matrix(0.31358023,0,0,0.31358024,95.037428,-42.923189)"></g> <g id="g14-1" transform="matrix(0.31358023,0,0,0.31358024,142.92089,-16.976628)"></g> <text xml:space="preserve" style="font-style:normal;font-variant:normal;font-weight:normal;font-stretch:normal;font-size:2.11667px;line-height:1.25;font-family:Arial;-inkscape-font-specification:'Arial, Normal';font-variant-ligatures:normal;font-variant-caps:normal;font-variant-numeric:normal;font-variant-east-asian:normal;letter-spacing:0px;word-spacing:0px;fill:#000000;fill-opacity:1;stroke:none;stroke-width:0.264583" x="159.28607" y="70.873993" id="text21418"><tspan sodipodi:role="line" id="tspan21416" x="159.28607" y="70.873993" style="font-style:normal;font-variant:normal;font-weight:normal;font-stretch:normal;font-size:2.11667px;font-family:Arial;-inkscape-font-specification:'Arial, Normal';font-variant-ligatures:normal;font-variant-caps:normal;font-variant-numeric:normal;font-variant-east-asian:normal;stroke-width:0.264583"></tspan></text> <text xml:space="preserve" style="font-style:normal;font-weight:normal;font-size:10.5833px;line-height:1.25;font-family:sans-serif;letter-spacing:0px;word-spacing:0px;fill:#000000;fill-opacity:1;stroke:none;stroke-width:0.264583" x="160.18729" y="72.340103" id="text21422"><tspan sodipodi:role="line" id="tspan21420" x="160.18729" y="72.340103" style="stroke-width:0.264583"></tspan></text> <g id="g14-35" transform="matrix(0.31358023,0,0,0.31358024,141.90163,-57.298889)"></g> <text xml:space="preserve" style="font-size:2.11667px;line-height:1.25;font-family:Arial;-inkscape-font-specification:'Arial, Normal';letter-spacing:0px;word-spacing:0px;stroke-width:0.264583" x="155.76656" y="81.181076" id="text7919"><tspan sodipodi:role="line" id="tspan7917" x="155.76656" y="81.181076" style="font-size:2.11667px;stroke-width:0.264583"></tspan></text> <path style="fill:#a02c2c;fill-opacity:0.4;stroke:none;stroke-width:0.453858;stroke-linecap:butt;stroke-linejoin:round;stroke-miterlimit:10;stroke-opacity:0.901961" d="m 120.42576,19.320931 v -1.365944 l -7.20001,0.430041 -9.6,1.775272 -9.599985,13.417496 -9.60001,6.115889 v 3.13127 l 9.60001,-6.598958 9.599985,-12.77823 9.6,-2.118315 z" id="path13137" sodipodi:nodetypes="ccccccccccc"></path> <path style="fill:none;stroke:#a02c2c;stroke-width:0.5;stroke-linecap:butt;stroke-linejoin:round;stroke-miterlimit:10;stroke-dasharray:none;stroke-opacity:1" d="m 84.425755,41.259322 9.60001,-6.357426 9.599985,-13.098068 9.6,-1.946796 7.20001,-1.218865" id="path13127"></path> <path style="fill:none;stroke:#a02c2c;stroke-width:0.5;stroke-linecap:butt;stroke-linejoin:miter;stroke-miterlimit:4;stroke-dasharray:none;stroke-opacity:1" d="m 80.186415,16.400372 h 5" id="path5400" sodipodi:nodetypes="cc"></path> <text xml:space="preserve" style="font-style:normal;font-variant:normal;font-weight:normal;font-stretch:normal;font-size:2.82222px;line-height:1.25;font-family:Arial;-inkscape-font-specification:'Arial, Normal';font-variant-ligatures:normal;font-variant-caps:normal;font-variant-numeric:normal;font-variant-east-asian:normal;letter-spacing:0px;word-spacing:0px;stroke-width:0.264583" x="82.764542" y="50.802032" id="text47235"><tspan sodipodi:role="line" id="tspan47233" x="82.764542" y="50.802032" style="font-style:normal;font-variant:normal;font-weight:normal;font-stretch:normal;font-size:2.82222px;font-family:Arial;-inkscape-font-specification:'Arial, Normal';font-variant-ligatures:normal;font-variant-caps:normal;font-variant-numeric:normal;font-variant-east-asian:normal;stroke-width:0.264583">18</tspan></text> <text xml:space="preserve" style="font-style:normal;font-variant:normal;font-weight:normal;font-stretch:normal;font-size:2.82222px;line-height:1.25;font-family:Arial;-inkscape-font-specification:'Arial, Normal';font-variant-ligatures:normal;font-variant-caps:normal;font-variant-numeric:normal;font-variant-east-asian:normal;letter-spacing:0px;word-spacing:0px;stroke-width:0.264583" x="72.623695" y="29.423965" id="text47239"><tspan sodipodi:role="line" id="tspan47237" x="72.623695" y="29.423965" style="font-style:normal;font-variant:normal;font-weight:normal;font-stretch:normal;font-size:2.82222px;font-family:Arial;-inkscape-font-specification:'Arial, Normal';font-variant-ligatures:normal;font-variant-caps:normal;font-variant-numeric:normal;font-variant-east-asian:normal;stroke-width:0.264583">0.3</tspan></text> <g id="g47251" transform="matrix(0.10909091,0,0,0.07954545,65.007585,9.6110044)" style="stroke-width:3.22047;stroke-miterlimit:10;stroke-dasharray:none"> <path d="M 552,481 H 112" style="fill:none;stroke:#262626;stroke-width:3.22047;stroke-linecap:butt;stroke-linejoin:round;stroke-miterlimit:10;stroke-dasharray:none;stroke-opacity:0.14902" id="path47249"></path> </g> <path d="M 77.225765,47.872365 H 125.22576" style="fill:none;stroke:#000000;stroke-width:0.3;stroke-linecap:square;stroke-linejoin:round;stroke-miterlimit:10;stroke-dasharray:none;stroke-opacity:1" id="path47253"></path> <path d="M 77.225765,47.872365 V 12.872366" style="fill:none;stroke:#000000;stroke-width:0.3;stroke-linecap:square;stroke-linejoin:round;stroke-miterlimit:10;stroke-dasharray:none;stroke-opacity:1" id="path47255"></path> <path style="display:inline;fill:none;stroke:#000000;stroke-width:0.3;stroke-linecap:square;stroke-linejoin:round;stroke-miterlimit:10;stroke-dasharray:none;stroke-opacity:1" d="m 77.225765,43.983341 h 0.4" id="path47325"></path> <path style="display:inline;fill:none;stroke:#000000;stroke-width:0.3;stroke-linecap:square;stroke-linejoin:round;stroke-miterlimit:10;stroke-dasharray:none;stroke-opacity:1" d="M 84.425765,47.872365 V 47.472367" id="path47327"></path> <path style="display:inline;fill:none;stroke:#000000;stroke-width:0.3;stroke-linecap:square;stroke-linejoin:round;stroke-miterlimit:10;stroke-dasharray:none;stroke-opacity:1" d="M 94.025765,47.872365 V 47.472367" id="path47329"></path> <path style="display:inline;fill:none;stroke:#000000;stroke-width:0.3;stroke-linecap:square;stroke-linejoin:round;stroke-miterlimit:10;stroke-dasharray:none;stroke-opacity:1" d="M 103.62577,47.872365 V 47.472367" id="path47331"></path> <path style="display:inline;fill:none;stroke:#000000;stroke-width:0.3;stroke-linecap:square;stroke-linejoin:round;stroke-miterlimit:10;stroke-dasharray:none;stroke-opacity:1" d="M 113.22576,47.872365 V 47.472367" id="path47333"></path> <path style="display:inline;fill:none;stroke:#000000;stroke-width:0.3;stroke-linecap:square;stroke-linejoin:round;stroke-miterlimit:10;stroke-dasharray:none;stroke-opacity:1" d="M 120.42576,47.872365 V 47.472367" id="path47335"></path> <text xml:space="preserve" style="font-style:normal;font-variant:normal;font-weight:normal;font-stretch:normal;font-size:2.82222px;line-height:1.25;font-family:Arial;-inkscape-font-specification:'Arial, Normal';font-variant-ligatures:normal;font-variant-caps:normal;font-variant-numeric:normal;font-variant-east-asian:normal;letter-spacing:0px;word-spacing:0px;stroke-width:0.264583" x="92.487984" y="50.802032" id="text47339"><tspan sodipodi:role="line" id="tspan47337" x="92.487984" y="50.802032" style="font-style:normal;font-variant:normal;font-weight:normal;font-stretch:normal;font-size:2.82222px;font-family:Arial;-inkscape-font-specification:'Arial, Normal';font-variant-ligatures:normal;font-variant-caps:normal;font-variant-numeric:normal;font-variant-east-asian:normal;stroke-width:0.264583">22</tspan></text> <text xml:space="preserve" style="font-size:2.82222px;line-height:1.25;font-family:Arial;-inkscape-font-specification:'Arial, Normal';letter-spacing:0px;word-spacing:0px;stroke-width:0.264583" x="90.728561" y="53.931454" id="text47343"><tspan sodipodi:role="line" id="tspan47341" x="90.728561" y="53.931454" style="font-size:2.82222px;stroke-width:0.264583">temperature (°C)</tspan></text> <text xml:space="preserve" style="font-style:normal;font-variant:normal;font-weight:normal;font-stretch:normal;font-size:2.82222px;line-height:1.25;font-family:Arial;-inkscape-font-specification:'Arial, Normal';font-variant-ligatures:normal;font-variant-caps:normal;font-variant-numeric:normal;font-variant-east-asian:normal;letter-spacing:0px;word-spacing:0px;stroke-width:0.264583" x="102.07835" y="50.802032" id="text47347"><tspan sodipodi:role="line" id="tspan47345" x="102.07835" y="50.802032" style="font-style:normal;font-variant:normal;font-weight:normal;font-stretch:normal;font-size:2.82222px;font-family:Arial;-inkscape-font-specification:'Arial, Normal';font-variant-ligatures:normal;font-variant-caps:normal;font-variant-numeric:normal;font-variant-east-asian:normal;stroke-width:0.264583">26</tspan></text> <text xml:space="preserve" style="font-style:normal;font-variant:normal;font-weight:normal;font-stretch:normal;font-size:2.82222px;line-height:1.25;font-family:Arial;-inkscape-font-specification:'Arial, Normal';font-variant-ligatures:normal;font-variant-caps:normal;font-variant-numeric:normal;font-variant-east-asian:normal;letter-spacing:0px;word-spacing:0px;stroke-width:0.264583" x="111.66444" y="50.802032" id="text47351"><tspan sodipodi:role="line" id="tspan47349" x="111.66444" y="50.802032" style="font-style:normal;font-variant:normal;font-weight:normal;font-stretch:normal;font-size:2.82222px;font-family:Arial;-inkscape-font-specification:'Arial, Normal';font-variant-ligatures:normal;font-variant-caps:normal;font-variant-numeric:normal;font-variant-east-asian:normal;stroke-width:0.264583">30</tspan></text> <text xml:space="preserve" style="font-style:normal;font-variant:normal;font-weight:normal;font-stretch:normal;font-size:2.82222px;line-height:1.25;font-family:Arial;-inkscape-font-specification:'Arial, Normal';font-variant-ligatures:normal;font-variant-caps:normal;font-variant-numeric:normal;font-variant-east-asian:normal;letter-spacing:0px;word-spacing:0px;stroke-width:0.264583" x="118.861" y="50.802032" id="text47355"><tspan sodipodi:role="line" id="tspan47353" x="118.861" y="50.802032" style="font-style:normal;font-variant:normal;font-weight:normal;font-stretch:normal;font-size:2.82222px;font-family:Arial;-inkscape-font-specification:'Arial, Normal';font-variant-ligatures:normal;font-variant-caps:normal;font-variant-numeric:normal;font-variant-east-asian:normal;stroke-width:0.264583">33</tspan></text> <text xml:space="preserve" style="font-style:normal;font-variant:normal;font-weight:normal;font-stretch:normal;font-size:2.82222px;line-height:1.25;font-family:Arial;-inkscape-font-specification:'Arial, Normal';font-variant-ligatures:normal;font-variant-caps:normal;font-variant-numeric:normal;font-variant-east-asian:normal;letter-spacing:0px;word-spacing:0px;stroke-width:0.264583" x="73.01368" y="44.731102" id="text47845"><tspan sodipodi:role="line" id="tspan47843" x="73.01368" y="44.731102" style="font-style:normal;font-variant:normal;font-weight:normal;font-stretch:normal;font-size:2.82222px;font-family:Arial;-inkscape-font-specification:'Arial, Normal';font-variant-ligatures:normal;font-variant-caps:normal;font-variant-numeric:normal;font-variant-east-asian:normal;stroke-width:0.264583">0.1</tspan></text> <text xml:space="preserve" style="font-style:normal;font-variant:normal;font-weight:normal;font-stretch:normal;font-size:2.82222px;line-height:1.25;font-family:Arial;-inkscape-font-specification:'Arial, Normal';font-variant-ligatures:normal;font-variant-caps:normal;font-variant-numeric:normal;font-variant-east-asian:normal;letter-spacing:0px;word-spacing:0px;stroke-width:0.264583" x="72.608536" y="13.869375" id="text47849"><tspan sodipodi:role="line" id="tspan47847" x="72.608536" y="13.869375" style="font-style:normal;font-variant:normal;font-weight:normal;font-stretch:normal;font-size:2.82222px;font-family:Arial;-inkscape-font-specification:'Arial, Normal';font-variant-ligatures:normal;font-variant-caps:normal;font-variant-numeric:normal;font-variant-east-asian:normal;stroke-width:0.264583">0.5</tspan></text> <path style="display:inline;fill:none;stroke:#000000;stroke-width:0.3;stroke-linecap:square;stroke-linejoin:round;stroke-miterlimit:10;stroke-dasharray:none;stroke-opacity:1" d="m 77.225765,28.427644 h 0.4" id="path47851"></path> <path style="display:inline;fill:none;stroke:#000000;stroke-width:0.3;stroke-linecap:square;stroke-linejoin:round;stroke-miterlimit:10;stroke-dasharray:none;stroke-opacity:1" d="m 77.225765,12.872365 h 0.4" id="path47853"></path> <text xml:space="preserve" style="font-size:2.82222px;line-height:1.25;font-family:Arial;-inkscape-font-specification:Arial;letter-spacing:0px;word-spacing:0px;stroke-width:0.264583" x="-35.146126" y="69.380898" id="text12529" transform="rotate(-90)"><tspan sodipodi:role="line" id="tspan12527" style="font-size:2.82222px;stroke-width:0.264583" x="-35.146126" y="69.380898">k<tspan style="font-size:65%;baseline-shift:sub" id="tspan14099">flip</tspan> (s<tspan style="font-size:65%;baseline-shift:super" id="tspan14097">-1</tspan>)</tspan></text> <g transform="matrix(0.352778,0,0,0.352778,86.464018,14.553293)" ns1:version="1.5.0" ns1:texconverter="pdflatex" ns1:pdfconverter="inkscape" ns1:text="$p_{flip}/\\left&amp;lt; \\delta t \\right&amp;gt;_T$" ns1:preamble="/home/guillaume/.config/inkscape/extensions/textext/default_packages.tex" ns1:scale="1.0" ns1:alignment="middle center" ns1:stroke-to-path="0" ns1:inkscapeversion="1.0.2" ns1:jacobian_sqrt="0.352778" style="stroke-width:0" id="g10443"> <defs id="id-86f803a0-f1af-4be4-aed6-e59debf1ca8d" style="stroke-width:0"></defs> <g id="id-8a51a016-298c-4ff1-a3fd-0e1851fcc553" transform="translate(-148.4,-127.281)" style="stroke-width:0"> <g style="fill:#000000;fill-opacity:1;stroke-width:0" id="id-fb9fac4c-2003-42b7-bdfe-9f0e437ce172"> <g transform="translate(148.712,134.765)" style="stroke-width:0" id="g17136"> <path style="stroke:none;stroke-width:0" d="M 0.453125,1.21875 C 0.375,1.5625 0.34375,1.625 -0.09375,1.625 c -0.109375,0 -0.21875,0 -0.21875,0.1875 0,0.078125 0.046875,0.125 0.125,0.125 0.265625,0 0.5625,-0.03125 0.828125,-0.03125 0.34375,0 0.671875,0.03125 1,0.03125 0.046875,0 0.171875,0 0.171875,-0.203125 C 1.8125,1.625 1.71875,1.625 1.578125,1.625 c -0.5,0 -0.5,-0.0625 -0.5,-0.15625 0,-0.125 0.421875,-1.75 0.484375,-2 0.125,0.296875 0.40625,0.640625 0.921875,0.640625 1.15625,0 2.40625,-1.453125 2.40625,-2.921875 0,-0.9375 -0.578125,-1.59375 -1.328125,-1.59375 -0.5,0 -0.984375,0.359375 -1.3125,0.75 -0.09375,-0.546875 -0.53125,-0.75 -0.890625,-0.75 -0.46875,0 -0.65625,0.390625 -0.734375,0.5625 C 0.4375,-3.5 0.3125,-2.90625 0.3125,-2.875 c 0,0.109375 0.09375,0.109375 0.109375,0.109375 0.109375,0 0.109375,-0.015625 0.171875,-0.234375 0.171875,-0.703125 0.375,-1.1875 0.734375,-1.1875 0.171875,0 0.3125,0.078125 0.3125,0.453125 0,0.234375 -0.03125,0.34375 -0.078125,0.515625 z m 1.75,-4.328125 C 2.265625,-3.375 2.546875,-3.65625 2.71875,-3.8125 c 0.359375,-0.296875 0.640625,-0.375 0.8125,-0.375 0.390625,0 0.640625,0.34375 0.640625,0.9375 0,0.59375 -0.328125,1.734375 -0.515625,2.109375 -0.34375,0.703125 -0.8125,1.03125 -1.1875,1.03125 C 1.8125,-0.109375 1.6875,-0.9375 1.6875,-1 c 0,-0.015625 0,-0.03125 0.03125,-0.15625 z m 0,0" id="id-f0da5bd4-5da9-48fd-b976-acc329b7f701"></path> </g> </g> <g style="fill:#000000;fill-opacity:1;stroke-width:0" id="id-674c4adf-29e8-40c9-a520-b0f5aec0f2c2"> <g transform="translate(153.725,136.259)" style="stroke-width:0" id="g17140"> <path style="stroke:none;stroke-width:0" d="M 2.84375,-2.75 H 3.515625 C 3.65625,-2.75 3.75,-2.75 3.75,-2.90625 3.75,-3 3.65625,-3 3.53125,-3 H 2.890625 c 0.15625,-0.890625 0.203125,-1.203125 0.265625,-1.40625 0.03125,-0.15625 0.1875,-0.296875 0.359375,-0.296875 0,0 0.1875,0 0.328125,0.078125 -0.296875,0.09375 -0.3125,0.34375 -0.3125,0.375 0,0.15625 0.125,0.265625 0.28125,0.265625 0.1875,0 0.390625,-0.15625 0.390625,-0.421875 0,-0.328125 -0.328125,-0.5 -0.6875,-0.5 -0.3125,0 -0.65625,0.171875 -0.84375,0.515625 C 2.53125,-4.125 2.484375,-3.8125 2.328125,-3 H 1.78125 c -0.140625,0 -0.234375,0 -0.234375,0.15625 0,0.09375 0.09375,0.09375 0.21875,0.09375 H 2.28125 c 0,0.046875 -0.4375,2.546875 -0.609375,3.296875 -0.03125,0.15625 -0.15625,0.671875 -0.484375,0.671875 -0.015625,0 -0.171875,0 -0.3125,-0.078125 0.28125,-0.09375 0.3125,-0.34375 0.3125,-0.375 C 1.1875,0.609375 1.0625,0.5 0.90625,0.5 c -0.1875,0 -0.390625,0.15625 -0.390625,0.421875 0,0.3125 0.328125,0.5 0.671875,0.5 0.4375,0 0.75,-0.453125 0.828125,-0.609375 0.25,-0.46875 0.421875,-1.328125 0.4375,-1.40625 z m 0,0" id="id-22c05e5d-bc90-4468-b3aa-1f8013691c49"></path> </g> </g> <g style="fill:#000000;fill-opacity:1;stroke-width:0" id="id-b2b5c2f7-187d-487d-b79c-7fad98666a34"> <g transform="translate(158.391,136.259)" style="stroke-width:0" id="g17144"> <path style="stroke:none;stroke-width:0" d="M 1.96875,-4.625 C 1.96875,-4.640625 2,-4.734375 2,-4.734375 2,-4.78125 1.96875,-4.84375 1.875,-4.84375 c -0.140625,0 -0.71875,0.0625 -0.890625,0.078125 -0.046875,0 -0.140625,0.015625 -0.140625,0.15625 0,0.09375 0.09375,0.09375 0.171875,0.09375 0.34375,0 0.34375,0.0625 0.34375,0.109375 0,0.046875 -0.015625,0.09375 -0.03125,0.15625 l -0.875,3.4375 C 0.4375,-0.734375 0.4375,-0.65625 0.4375,-0.59375 c 0,0.453125 0.390625,0.65625 0.71875,0.65625 0.171875,0 0.390625,-0.046875 0.5625,-0.359375 C 1.875,-0.5625 1.96875,-0.96875 1.96875,-1 c 0,-0.09375 -0.09375,-0.09375 -0.109375,-0.09375 -0.109375,0 -0.125,0.046875 -0.140625,0.171875 C 1.625,-0.578125 1.484375,-0.125 1.1875,-0.125 1,-0.125 0.953125,-0.296875 0.953125,-0.46875 0.953125,-0.546875 0.96875,-0.671875 1,-0.75 Z m 0,0" id="id-80173bbd-f9a5-4670-820f-77a1ee168f08"></path> </g> </g> <g style="fill:#000000;fill-opacity:1;stroke-width:0" id="id-91092333-b8c5-4cd0-a2e3-eb498b8144c9"> <g transform="translate(160.953,136.259)" style="stroke-width:0" id="g17148"> <path style="stroke:none;stroke-width:0" d="m 2.265625,-4.359375 c 0,-0.109375 -0.09375,-0.265625 -0.28125,-0.265625 -0.1875,0 -0.390625,0.1875 -0.390625,0.390625 0,0.109375 0.078125,0.265625 0.28125,0.265625 0.1875,0 0.390625,-0.203125 0.390625,-0.390625 z M 0.84375,-0.8125 c -0.03125,0.09375 -0.0625,0.171875 -0.0625,0.296875 0,0.328125 0.265625,0.578125 0.65625,0.578125 0.6875,0 1,-0.953125 1,-1.0625 0,-0.09375 -0.09375,-0.09375 -0.109375,-0.09375 -0.09375,0 -0.109375,0.046875 -0.140625,0.125 -0.15625,0.5625 -0.453125,0.84375 -0.734375,0.84375 -0.140625,0 -0.171875,-0.09375 -0.171875,-0.25 0,-0.15625 0.046875,-0.28125 0.109375,-0.4375 C 1.46875,-1 1.546875,-1.1875 1.609375,-1.375 1.671875,-1.546875 1.9375,-2.171875 1.953125,-2.265625 1.984375,-2.328125 2,-2.40625 2,-2.484375 2,-2.8125 1.71875,-3.078125 1.34375,-3.078125 0.640625,-3.078125 0.328125,-2.125 0.328125,-2 c 0,0.078125 0.09375,0.078125 0.125,0.078125 0.09375,0 0.09375,-0.03125 0.125,-0.109375 C 0.75,-2.625 1.0625,-2.875 1.3125,-2.875 c 0.109375,0 0.171875,0.046875 0.171875,0.234375 0,0.171875 -0.03125,0.265625 -0.203125,0.703125 z m 0,0" id="id-f514654b-46d1-4408-873e-4484660acd6f"></path> </g> <g transform="translate(163.771,136.259)" style="stroke-width:0" id="g17151"> <path style="stroke:none;stroke-width:0" d="m 0.515625,0.84375 c -0.046875,0.203125 -0.0625,0.25 -0.328125,0.25 -0.09375,0 -0.1875,0 -0.1875,0.15625 0,0.078125 0.0625,0.109375 0.09375,0.109375 0.171875,0 0.40625,-0.03125 0.59375,-0.03125 0.234375,0 0.5,0.03125 0.734375,0.03125 0.0625,0 0.140625,-0.03125 0.140625,-0.15625 0,-0.109375 -0.09375,-0.109375 -0.1875,-0.109375 -0.15625,0 -0.34375,0 -0.34375,-0.078125 0,-0.03125 0.0625,-0.21875 0.078125,-0.3125 0.09375,-0.375 0.1875,-0.75 0.265625,-1.046875 0.078125,0.140625 0.296875,0.40625 0.71875,0.40625 0.84375,0 1.78125,-0.9375 1.78125,-1.96875 0,-0.8125 -0.5625,-1.171875 -1.03125,-1.171875 -0.4375,0 -0.8125,0.296875 -1,0.5 -0.109375,-0.40625 -0.5,-0.5 -0.71875,-0.5 -0.265625,0 -0.4375,0.1875 -0.546875,0.375 -0.140625,0.234375 -0.25,0.65625 -0.25,0.703125 0,0.078125 0.09375,0.078125 0.125,0.078125 0.09375,0 0.09375,-0.015625 0.140625,-0.203125 0.109375,-0.40625 0.25,-0.75 0.515625,-0.75 0.1875,0 0.234375,0.15625 0.234375,0.34375 0,0.078125 -0.015625,0.15625 -0.03125,0.203125 z M 1.84375,-2.234375 C 2.25,-2.78125 2.59375,-2.875 2.8125,-2.875 c 0.28125,0 0.515625,0.203125 0.515625,0.671875 0,0.28125 -0.15625,1 -0.359375,1.40625 -0.1875,0.34375 -0.515625,0.671875 -0.875,0.671875 -0.5,0 -0.625,-0.53125 -0.625,-0.609375 0,-0.03125 0.015625,-0.078125 0.015625,-0.109375 z m 0,0" id="id-b19cca08-d1e5-4795-b053-dfb3fbd0ff87"></path> </g> </g> <g style="fill:#000000;fill-opacity:1;stroke-width:0" id="id-a777c22b-8bb5-4deb-a763-502956611da7"> <g transform="translate(168.375,134.765)" style="stroke-width:0" id="g17155"> <path style="stroke:none;stroke-width:0" d="m 4.375,-7.09375 c 0.046875,-0.140625 0.046875,-0.171875 0.046875,-0.1875 0,-0.109375 -0.078125,-0.203125 -0.1875,-0.203125 -0.078125,0 -0.140625,0.03125 -0.171875,0.09375 l -3.46875,9.5 C 0.546875,2.25 0.546875,2.28125 0.546875,2.296875 0.546875,2.40625 0.640625,2.5 0.75,2.5 0.875,2.5 0.90625,2.421875 0.96875,2.25 Z m 0,0" id="id-18af1274-5089-4965-a31e-b331e1cf95fb"></path> </g> </g> <g style="fill:#000000;fill-opacity:1;stroke-width:0" id="id-2028f8d5-e2db-45cf-83da-8abddebea55f"> <g transform="translate(175.017,134.765)" style="stroke-width:0" id="g17159"> <path style="stroke:none;stroke-width:0" d="M 3.265625,-7.09375 C 3.3125,-7.203125 3.3125,-7.234375 3.3125,-7.28125 c 0,-0.109375 -0.078125,-0.203125 -0.1875,-0.203125 -0.09375,0 -0.171875,0.0625 -0.234375,0.234375 l -1.75,4.578125 C 1.125,-2.609375 1.09375,-2.546875 1.09375,-2.5 c 0,0.03125 0,0.0625 0.046875,0.171875 L 2.890625,2.25 C 2.9375,2.359375 2.984375,2.5 3.125,2.5 c 0.109375,0 0.1875,-0.09375 0.1875,-0.203125 0,-0.03125 0,-0.046875 -0.046875,-0.15625 L 1.5,-2.5 Z m 0,0" id="id-4ca2ba6e-b7e0-49e2-befa-82847e14baee"></path> </g> </g> <g style="fill:#000000;fill-opacity:1;stroke-width:0" id="id-ffc4de66-ac58-445c-82bf-9e31e829deb1"> <g transform="translate(178.891,134.765)" style="stroke-width:0" id="g17163"> <path style="stroke:none;stroke-width:0" d="M 2.625,-4.359375 C 1.390625,-4.0625 0.421875,-2.765625 0.421875,-1.5625 0.421875,-0.59375 1.0625,0.125 2,0.125 c 1.15625,0 1.984375,-1.578125 1.984375,-2.953125 0,-0.90625 -0.390625,-1.40625 -0.734375,-1.84375 C 2.890625,-5.125 2.296875,-5.875 2.296875,-6.3125 c 0,-0.21875 0.203125,-0.453125 0.546875,-0.453125 0.3125,0 0.5,0.125 0.71875,0.265625 0.203125,0.125 0.390625,0.25 0.546875,0.25 C 4.359375,-6.25 4.5,-6.484375 4.5,-6.65625 4.5,-6.875 4.34375,-6.890625 3.984375,-6.984375 3.46875,-7.09375 3.328125,-7.09375 3.171875,-7.09375 c -0.78125,0 -1.140625,0.4375 -1.140625,1.03125 0,0.546875 0.296875,1.09375 0.59375,1.703125 z m 0.125,0.21875 c 0.25,0.46875 0.546875,1 0.546875,1.71875 0,0.65625 -0.375,2.328125 -1.296875,2.328125 -0.546875,0 -0.96875,-0.421875 -0.96875,-1.1875 0,-0.625 0.375,-2.5 1.71875,-2.859375 z m 0,0" id="id-71f52a38-edef-4e81-a59f-f8cd9a72cb86"></path> </g> </g> <g style="fill:#000000;fill-opacity:1;stroke-width:0" id="id-c7b8d7d2-f991-4f22-892c-e4bd3d78c424"> <g transform="translate(183.697,134.765)" style="stroke-width:0" id="g17167"> <path style="stroke:none;stroke-width:0" d="m 2.046875,-3.984375 h 0.9375 c 0.203125,0 0.3125,0 0.3125,-0.203125 0,-0.109375 -0.109375,-0.109375 -0.28125,-0.109375 h -0.875 C 2.5,-5.71875 2.546875,-5.90625 2.546875,-5.96875 c 0,-0.171875 -0.125,-0.265625 -0.296875,-0.265625 -0.03125,0 -0.3125,0 -0.390625,0.359375 L 1.46875,-4.296875 h -0.9375 c -0.203125,0 -0.296875,0 -0.296875,0.1875 0,0.125 0.078125,0.125 0.28125,0.125 h 0.875 C 0.671875,-1.15625 0.625,-0.984375 0.625,-0.8125 0.625,-0.265625 1,0.109375 1.546875,0.109375 2.5625,0.109375 3.125,-1.34375 3.125,-1.421875 3.125,-1.53125 3.046875,-1.53125 3.015625,-1.53125 2.921875,-1.53125 2.90625,-1.5 2.859375,-1.390625 2.4375,-0.34375 1.90625,-0.109375 1.5625,-0.109375 c -0.203125,0 -0.3125,-0.125 -0.3125,-0.453125 0,-0.25 0.03125,-0.3125 0.0625,-0.484375 z m 0,0" id="id-2fbb0fb6-5919-4343-a8ed-04ef6816d450"></path> </g> </g> <g style="fill:#000000;fill-opacity:1;stroke-width:0" id="id-da6cd724-6e27-466a-bc48-e29c579ab298"> <g transform="translate(187.294,134.765)" style="stroke-width:0" id="g17171"> <path style="stroke:none;stroke-width:0" d="M 2.71875,-2.328125 C 2.765625,-2.4375 2.765625,-2.46875 2.765625,-2.5 c 0,-0.015625 0,-0.046875 -0.046875,-0.15625 L 0.984375,-7.25 c -0.0625,-0.171875 -0.125,-0.234375 -0.234375,-0.234375 -0.109375,0 -0.203125,0.09375 -0.203125,0.203125 0,0.03125 0,0.046875 0.046875,0.15625 L 2.359375,-2.5 0.59375,2.109375 C 0.546875,2.21875 0.546875,2.25 0.546875,2.296875 0.546875,2.40625 0.640625,2.5 0.75,2.5 0.875,2.5 0.921875,2.390625 0.953125,2.296875 Z m 0,0" id="id-523ec5c8-fdfa-4078-b8b7-635015035c89"></path> </g> </g> <g style="fill:#000000;fill-opacity:1;stroke-width:0" id="id-5e45cf5c-6b75-4ac2-81ad-5840b86baf65"> <g transform="translate(191.168,137.753)" style="stroke-width:0" id="g17175"> <path style="stroke:none;stroke-width:0" d="m 3.390625,-4.21875 c 0.046875,-0.203125 0.0625,-0.21875 0.21875,-0.234375 0.03125,0 0.265625,0 0.40625,0 0.4375,0 0.609375,0 0.78125,0.046875 0.3125,0.09375 0.328125,0.296875 0.328125,0.546875 0,0.109375 0,0.203125 -0.046875,0.5625 L 5.0625,-3.21875 c 0,0.078125 0.046875,0.109375 0.125,0.109375 0.109375,0 0.109375,-0.0625 0.125,-0.171875 L 5.5,-4.609375 c 0,-0.09375 -0.078125,-0.09375 -0.203125,-0.09375 h -4.28125 c -0.171875,0 -0.1875,0 -0.234375,0.140625 l -0.453125,1.234375 c 0,0.03125 -0.03125,0.09375 -0.03125,0.125 0,0.03125 0.015625,0.09375 0.125,0.09375 0.09375,0 0.09375,-0.03125 0.140625,-0.171875 0.40625,-1.109375 0.640625,-1.171875 1.703125,-1.171875 h 0.28125 c 0.21875,0 0.21875,0 0.21875,0.0625 0,0 0,0.046875 -0.03125,0.140625 L 1.8125,-0.578125 C 1.75,-0.328125 1.734375,-0.25 1,-0.25 c -0.25,0 -0.3125,0 -0.3125,0.15625 C 0.6875,-0.078125 0.703125,0 0.8125,0 1,0 1.21875,-0.015625 1.40625,-0.015625 1.609375,-0.015625 1.8125,-0.03125 2,-0.03125 c 0.203125,0 0.4375,0 0.640625,0.015625 C 2.828125,-0.015625 3.03125,0 3.21875,0 3.28125,0 3.375,0 3.375,-0.15625 3.375,-0.25 3.3125,-0.25 3.09375,-0.25 c -0.125,0 -0.265625,-0.015625 -0.40625,-0.015625 -0.234375,-0.015625 -0.25,-0.046875 -0.25,-0.125 0,-0.0625 0,-0.0625 0.03125,-0.171875 z m 0,0" id="id-62bf25c7-f1a5-4a9c-a93d-082258814523"></path> </g> </g> </g> </g> </g>
</svg>
