<?xml version="1.0"?>

<svg xmlns="http://www.w3.org/2000/svg" xmlns:xlink="http://www.w3.org/1999/xlink" width="523" height="173" viewBox="0 0 523 173" version="1.1">
<defs>
<g>
<symbol overflow="visible" id="glyph0-0">
<path style="stroke:none;" d="M 2.5 0 L 2.5 -12.484375 L 12.484375 -12.484375 L 12.484375 0 Z M 2.8125 -0.3125 L 12.171875 -0.3125 L 12.171875 -12.171875 L 2.8125 -12.171875 Z M 2.8125 -0.3125 "></path>
</symbol>
<symbol overflow="visible" id="glyph0-1">
<path style="stroke:none;" d="M 0.578125 -4.0625 L 2.28125 -4.296875 C 2.332031 -3.203125 2.535156 -2.453125 2.890625 -2.046875 C 3.253906 -1.640625 3.757812 -1.4375 4.40625 -1.4375 C 4.882812 -1.4375 5.296875 -1.546875 5.640625 -1.765625 C 5.984375 -1.984375 6.21875 -2.28125 6.34375 -2.65625 C 6.476562 -3.03125 6.546875 -3.628906 6.546875 -4.453125 L 6.546875 -14.3125 L 8.4375 -14.3125 L 8.4375 -4.5625 C 8.4375 -3.363281 8.289062 -2.4375 8 -1.78125 C 7.71875 -1.125 7.257812 -0.617188 6.625 -0.265625 C 6 0.078125 5.265625 0.25 4.421875 0.25 C 3.160156 0.25 2.195312 -0.109375 1.53125 -0.828125 C 0.863281 -1.554688 0.546875 -2.632812 0.578125 -4.0625 Z M 0.578125 -4.0625 "></path>
</symbol>
<symbol overflow="visible" id="glyph0-2">
<path style="stroke:none;" d="M 1.3125 0 L 1.3125 -14.3125 L 3.078125 -14.3125 L 3.078125 -9.171875 C 3.890625 -10.117188 4.921875 -10.59375 6.171875 -10.59375 C 6.941406 -10.59375 7.609375 -10.441406 8.171875 -10.140625 C 8.742188 -9.835938 9.148438 -9.421875 9.390625 -8.890625 C 9.640625 -8.359375 9.765625 -7.582031 9.765625 -6.5625 L 9.765625 0 L 8 0 L 8 -6.5625 C 8 -7.445312 7.804688 -8.085938 7.421875 -8.484375 C 7.046875 -8.878906 6.507812 -9.078125 5.8125 -9.078125 C 5.289062 -9.078125 4.800781 -8.941406 4.34375 -8.671875 C 3.882812 -8.410156 3.554688 -8.046875 3.359375 -7.578125 C 3.171875 -7.117188 3.078125 -6.484375 3.078125 -5.671875 L 3.078125 0 Z M 1.3125 0 "></path>
</symbol>
<symbol overflow="visible" id="glyph0-3">
<path style="stroke:none;" d="M 10.0625 -1.6875 L 10.0625 0 L 0.609375 0 C 0.585938 -0.425781 0.65625 -0.832031 0.8125 -1.21875 C 1.050781 -1.863281 1.4375 -2.5 1.96875 -3.125 C 2.5 -3.75 3.265625 -4.46875 4.265625 -5.28125 C 5.816406 -6.5625 6.863281 -7.570312 7.40625 -8.3125 C 7.957031 -9.0625 8.234375 -9.769531 8.234375 -10.4375 C 8.234375 -11.125 7.984375 -11.707031 7.484375 -12.1875 C 6.992188 -12.664062 6.347656 -12.90625 5.546875 -12.90625 C 4.703125 -12.90625 4.023438 -12.648438 3.515625 -12.140625 C 3.003906 -11.640625 2.742188 -10.941406 2.734375 -10.046875 L 0.9375 -10.21875 C 1.0625 -11.570312 1.523438 -12.597656 2.328125 -13.296875 C 3.140625 -14.003906 4.222656 -14.359375 5.578125 -14.359375 C 6.953125 -14.359375 8.039062 -13.976562 8.84375 -13.21875 C 9.644531 -12.457031 10.046875 -11.515625 10.046875 -10.390625 C 10.046875 -9.816406 9.925781 -9.253906 9.6875 -8.703125 C 9.457031 -8.148438 9.066406 -7.566406 8.515625 -6.953125 C 7.972656 -6.347656 7.070312 -5.507812 5.8125 -4.4375 C 4.757812 -3.550781 4.082031 -2.953125 3.78125 -2.640625 C 3.488281 -2.328125 3.242188 -2.007812 3.046875 -1.6875 Z M 10.0625 -1.6875 "></path>
</symbol>
<symbol overflow="visible" id="glyph0-4">
<path style="stroke:none;" d=""></path>
</symbol>
<symbol overflow="visible" id="glyph0-5">
<path style="stroke:none;" d="M 10.5625 -8.40625 L 1.109375 -8.40625 L 1.109375 -10.046875 L 10.5625 -10.046875 Z M 10.5625 -4.0625 L 1.109375 -4.0625 L 1.109375 -5.703125 L 10.5625 -5.703125 Z M 10.5625 -4.0625 "></path>
</symbol>
<symbol overflow="visible" id="glyph0-6">
<path style="stroke:none;" d="M 7.453125 0 L 5.6875 0 L 5.6875 -11.1875 C 5.257812 -10.789062 4.703125 -10.390625 4.015625 -9.984375 C 3.335938 -9.578125 2.722656 -9.273438 2.171875 -9.078125 L 2.171875 -10.765625 C 3.160156 -11.234375 4.019531 -11.796875 4.75 -12.453125 C 5.488281 -13.109375 6.007812 -13.742188 6.3125 -14.359375 L 7.453125 -14.359375 Z M 7.453125 0 "></path>
</symbol>
<symbol overflow="visible" id="glyph0-7">
<path style="stroke:none;" d="M 9.9375 -10.796875 L 8.203125 -10.671875 C 8.046875 -11.359375 7.820312 -11.859375 7.53125 -12.171875 C 7.0625 -12.671875 6.476562 -12.921875 5.78125 -12.921875 C 5.21875 -12.921875 4.722656 -12.765625 4.296875 -12.453125 C 3.742188 -12.046875 3.304688 -11.457031 2.984375 -10.6875 C 2.671875 -9.914062 2.507812 -8.8125 2.5 -7.375 C 2.914062 -8.019531 3.429688 -8.5 4.046875 -8.8125 C 4.660156 -9.125 5.300781 -9.28125 5.96875 -9.28125 C 7.144531 -9.28125 8.144531 -8.847656 8.96875 -7.984375 C 9.789062 -7.117188 10.203125 -6.003906 10.203125 -4.640625 C 10.203125 -3.742188 10.003906 -2.910156 9.609375 -2.140625 C 9.222656 -1.367188 8.691406 -0.773438 8.015625 -0.359375 C 7.335938 0.046875 6.570312 0.25 5.71875 0.25 C 4.25 0.25 3.050781 -0.285156 2.125 -1.359375 C 1.207031 -2.441406 0.75 -4.21875 0.75 -6.6875 C 0.75 -9.457031 1.257812 -11.46875 2.28125 -12.71875 C 3.175781 -13.8125 4.378906 -14.359375 5.890625 -14.359375 C 7.015625 -14.359375 7.9375 -14.039062 8.65625 -13.40625 C 9.375 -12.78125 9.800781 -11.910156 9.9375 -10.796875 Z M 2.765625 -4.640625 C 2.765625 -4.035156 2.894531 -3.453125 3.15625 -2.890625 C 3.414062 -2.335938 3.773438 -1.914062 4.234375 -1.625 C 4.691406 -1.34375 5.175781 -1.203125 5.6875 -1.203125 C 6.425781 -1.203125 7.0625 -1.5 7.59375 -2.09375 C 8.132812 -2.695312 8.40625 -3.507812 8.40625 -4.53125 C 8.40625 -5.519531 8.140625 -6.300781 7.609375 -6.875 C 7.085938 -7.445312 6.425781 -7.734375 5.625 -7.734375 C 4.832031 -7.734375 4.15625 -7.445312 3.59375 -6.875 C 3.039062 -6.300781 2.765625 -5.554688 2.765625 -4.640625 Z M 2.765625 -4.640625 "></path>
</symbol>
<symbol overflow="visible" id="glyph0-8">
<path style="stroke:none;" d="M 8.078125 -3.796875 L 9.8125 -3.578125 C 9.625 -2.378906 9.140625 -1.441406 8.359375 -0.765625 C 7.578125 -0.0976562 6.625 0.234375 5.5 0.234375 C 4.070312 0.234375 2.925781 -0.226562 2.0625 -1.15625 C 1.207031 -2.082031 0.78125 -3.410156 0.78125 -5.140625 C 0.78125 -6.265625 0.960938 -7.242188 1.328125 -8.078125 C 1.703125 -8.921875 2.269531 -9.550781 3.03125 -9.96875 C 3.789062 -10.382812 4.613281 -10.59375 5.5 -10.59375 C 6.625 -10.59375 7.546875 -10.304688 8.265625 -9.734375 C 8.984375 -9.171875 9.441406 -8.363281 9.640625 -7.3125 L 7.9375 -7.0625 C 7.769531 -7.75 7.476562 -8.269531 7.0625 -8.625 C 6.65625 -8.976562 6.160156 -9.15625 5.578125 -9.15625 C 4.691406 -9.15625 3.96875 -8.835938 3.40625 -8.203125 C 2.851562 -7.566406 2.578125 -6.5625 2.578125 -5.1875 C 2.578125 -3.800781 2.84375 -2.789062 3.375 -2.15625 C 3.914062 -1.519531 4.613281 -1.203125 5.46875 -1.203125 C 6.164062 -1.203125 6.742188 -1.414062 7.203125 -1.84375 C 7.660156 -2.269531 7.953125 -2.921875 8.078125 -3.796875 Z M 8.078125 -3.796875 "></path>
</symbol>
<symbol overflow="visible" id="glyph0-9">
<path style="stroke:none;" d="M 0.65625 -5.1875 C 0.65625 -7.101562 1.191406 -8.523438 2.265625 -9.453125 C 3.148438 -10.210938 4.234375 -10.59375 5.515625 -10.59375 C 6.941406 -10.59375 8.109375 -10.125 9.015625 -9.1875 C 9.921875 -8.257812 10.375 -6.972656 10.375 -5.328125 C 10.375 -3.992188 10.171875 -2.941406 9.765625 -2.171875 C 9.367188 -1.410156 8.785156 -0.816406 8.015625 -0.390625 C 7.253906 0.0234375 6.421875 0.234375 5.515625 0.234375 C 4.066406 0.234375 2.894531 -0.226562 2 -1.15625 C 1.101562 -2.09375 0.65625 -3.4375 0.65625 -5.1875 Z M 2.46875 -5.1875 C 2.46875 -3.851562 2.753906 -2.851562 3.328125 -2.1875 C 3.910156 -1.53125 4.640625 -1.203125 5.515625 -1.203125 C 6.390625 -1.203125 7.113281 -1.535156 7.6875 -2.203125 C 8.269531 -2.867188 8.5625 -3.878906 8.5625 -5.234375 C 8.5625 -6.515625 8.269531 -7.484375 7.6875 -8.140625 C 7.113281 -8.804688 6.390625 -9.140625 5.515625 -9.140625 C 4.640625 -9.140625 3.910156 -8.8125 3.328125 -8.15625 C 2.753906 -7.5 2.46875 -6.507812 2.46875 -5.1875 Z M 2.46875 -5.1875 "></path>
</symbol>
<symbol overflow="visible" id="glyph0-10">
<path style="stroke:none;" d="M 1.3125 0 L 1.3125 -10.359375 L 2.890625 -10.359375 L 2.890625 -8.890625 C 3.660156 -10.023438 4.765625 -10.59375 6.203125 -10.59375 C 6.828125 -10.59375 7.398438 -10.476562 7.921875 -10.25 C 8.441406 -10.03125 8.832031 -9.738281 9.09375 -9.375 C 9.351562 -9.007812 9.535156 -8.578125 9.640625 -8.078125 C 9.703125 -7.753906 9.734375 -7.1875 9.734375 -6.375 L 9.734375 0 L 7.984375 0 L 7.984375 -6.296875 C 7.984375 -7.015625 7.914062 -7.550781 7.78125 -7.90625 C 7.644531 -8.257812 7.398438 -8.539062 7.046875 -8.75 C 6.703125 -8.96875 6.296875 -9.078125 5.828125 -9.078125 C 5.078125 -9.078125 4.429688 -8.835938 3.890625 -8.359375 C 3.347656 -7.890625 3.078125 -6.988281 3.078125 -5.65625 L 3.078125 0 Z M 1.3125 0 "></path>
</symbol>
<symbol overflow="visible" id="glyph0-11">
<path style="stroke:none;" d="M 1.734375 0 L 1.734375 -9 L 0.1875 -9 L 0.1875 -10.359375 L 1.734375 -10.359375 L 1.734375 -11.46875 C 1.734375 -12.164062 1.796875 -12.679688 1.921875 -13.015625 C 2.085938 -13.472656 2.382812 -13.84375 2.8125 -14.125 C 3.238281 -14.40625 3.835938 -14.546875 4.609375 -14.546875 C 5.097656 -14.546875 5.644531 -14.488281 6.25 -14.375 L 5.984375 -12.84375 C 5.617188 -12.90625 5.273438 -12.9375 4.953125 -12.9375 C 4.410156 -12.9375 4.03125 -12.820312 3.8125 -12.59375 C 3.59375 -12.363281 3.484375 -11.9375 3.484375 -11.3125 L 3.484375 -10.359375 L 5.5 -10.359375 L 5.5 -9 L 3.484375 -9 L 3.484375 0 Z M 1.734375 0 "></path>
</symbol>
<symbol overflow="visible" id="glyph0-12">
<path style="stroke:none;" d="M 1.328125 -12.28125 L 1.328125 -14.3125 L 3.078125 -14.3125 L 3.078125 -12.28125 Z M 1.328125 0 L 1.328125 -10.359375 L 3.078125 -10.359375 L 3.078125 0 Z M 1.328125 0 "></path>
</symbol>
<symbol overflow="visible" id="glyph0-13">
<path style="stroke:none;" d="M 1 0.859375 L 2.703125 1.109375 C 2.773438 1.640625 2.972656 2.023438 3.296875 2.265625 C 3.734375 2.585938 4.328125 2.75 5.078125 2.75 C 5.890625 2.75 6.515625 2.585938 6.953125 2.265625 C 7.398438 1.941406 7.703125 1.484375 7.859375 0.890625 C 7.953125 0.535156 7.992188 -0.210938 7.984375 -1.359375 C 7.222656 -0.453125 6.269531 0 5.125 0 C 3.695312 0 2.59375 -0.507812 1.8125 -1.53125 C 1.03125 -2.5625 0.640625 -3.796875 0.640625 -5.234375 C 0.640625 -6.222656 0.816406 -7.132812 1.171875 -7.96875 C 1.535156 -8.8125 2.054688 -9.457031 2.734375 -9.90625 C 3.410156 -10.363281 4.207031 -10.59375 5.125 -10.59375 C 6.351562 -10.59375 7.363281 -10.097656 8.15625 -9.109375 L 8.15625 -10.359375 L 9.78125 -10.359375 L 9.78125 -1.40625 C 9.78125 0.207031 9.613281 1.347656 9.28125 2.015625 C 8.957031 2.691406 8.4375 3.222656 7.71875 3.609375 C 7.007812 4.003906 6.132812 4.203125 5.09375 4.203125 C 3.851562 4.203125 2.851562 3.921875 2.09375 3.359375 C 1.332031 2.804688 0.96875 1.972656 1 0.859375 Z M 2.453125 -5.359375 C 2.453125 -4.003906 2.71875 -3.015625 3.25 -2.390625 C 3.789062 -1.765625 4.46875 -1.453125 5.28125 -1.453125 C 6.09375 -1.453125 6.769531 -1.757812 7.3125 -2.375 C 7.863281 -3 8.140625 -3.976562 8.140625 -5.3125 C 8.140625 -6.582031 7.859375 -7.535156 7.296875 -8.171875 C 6.734375 -8.816406 6.054688 -9.140625 5.265625 -9.140625 C 4.484375 -9.140625 3.816406 -8.820312 3.265625 -8.1875 C 2.722656 -7.550781 2.453125 -6.609375 2.453125 -5.359375 Z M 2.453125 -5.359375 "></path>
</symbol>
<symbol overflow="visible" id="glyph0-14">
<path style="stroke:none;" d="M 8.109375 0 L 8.109375 -1.515625 C 7.304688 -0.347656 6.210938 0.234375 4.828125 0.234375 C 4.210938 0.234375 3.640625 0.117188 3.109375 -0.109375 C 2.578125 -0.347656 2.179688 -0.644531 1.921875 -1 C 1.671875 -1.351562 1.492188 -1.785156 1.390625 -2.296875 C 1.316406 -2.640625 1.28125 -3.1875 1.28125 -3.9375 L 1.28125 -10.359375 L 3.03125 -10.359375 L 3.03125 -4.609375 C 3.03125 -3.691406 3.066406 -3.078125 3.140625 -2.765625 C 3.253906 -2.296875 3.488281 -1.929688 3.84375 -1.671875 C 4.195312 -1.410156 4.640625 -1.28125 5.171875 -1.28125 C 5.703125 -1.28125 6.195312 -1.414062 6.65625 -1.6875 C 7.113281 -1.957031 7.4375 -2.320312 7.625 -2.78125 C 7.820312 -3.25 7.921875 -3.925781 7.921875 -4.8125 L 7.921875 -10.359375 L 9.6875 -10.359375 L 9.6875 0 Z M 8.109375 0 "></path>
</symbol>
<symbol overflow="visible" id="glyph0-15">
<path style="stroke:none;" d="M 1.296875 0 L 1.296875 -10.359375 L 2.875 -10.359375 L 2.875 -8.796875 C 3.28125 -9.523438 3.65625 -10.003906 4 -10.234375 C 4.34375 -10.472656 4.71875 -10.59375 5.125 -10.59375 C 5.71875 -10.59375 6.316406 -10.40625 6.921875 -10.03125 L 6.328125 -8.40625 C 5.890625 -8.65625 5.457031 -8.78125 5.03125 -8.78125 C 4.644531 -8.78125 4.300781 -8.664062 4 -8.4375 C 3.695312 -8.207031 3.476562 -7.882812 3.34375 -7.46875 C 3.144531 -6.84375 3.046875 -6.160156 3.046875 -5.421875 L 3.046875 0 Z M 1.296875 0 "></path>
</symbol>
<symbol overflow="visible" id="glyph0-16">
<path style="stroke:none;" d="M 8.078125 -1.28125 C 7.429688 -0.726562 6.804688 -0.335938 6.203125 -0.109375 C 5.597656 0.117188 4.953125 0.234375 4.265625 0.234375 C 3.128906 0.234375 2.253906 -0.0390625 1.640625 -0.59375 C 1.023438 -1.15625 0.71875 -1.867188 0.71875 -2.734375 C 0.71875 -3.242188 0.832031 -3.707031 1.0625 -4.125 C 1.300781 -4.539062 1.601562 -4.875 1.96875 -5.125 C 2.34375 -5.382812 2.765625 -5.578125 3.234375 -5.703125 C 3.578125 -5.796875 4.097656 -5.882812 4.796875 -5.96875 C 6.210938 -6.132812 7.257812 -6.335938 7.9375 -6.578125 C 7.9375 -6.816406 7.9375 -6.96875 7.9375 -7.03125 C 7.9375 -7.75 7.773438 -8.253906 7.453125 -8.546875 C 6.992188 -8.941406 6.320312 -9.140625 5.4375 -9.140625 C 4.613281 -9.140625 4.003906 -8.992188 3.609375 -8.703125 C 3.222656 -8.421875 2.929688 -7.910156 2.734375 -7.171875 L 1.03125 -7.40625 C 1.1875 -8.144531 1.441406 -8.738281 1.796875 -9.1875 C 2.148438 -9.632812 2.664062 -9.976562 3.34375 -10.21875 C 4.019531 -10.46875 4.804688 -10.59375 5.703125 -10.59375 C 6.585938 -10.59375 7.304688 -10.488281 7.859375 -10.28125 C 8.410156 -10.070312 8.816406 -9.8125 9.078125 -9.5 C 9.335938 -9.1875 9.519531 -8.785156 9.625 -8.296875 C 9.675781 -8.003906 9.703125 -7.46875 9.703125 -6.6875 L 9.703125 -4.34375 C 9.703125 -2.707031 9.738281 -1.671875 9.8125 -1.234375 C 9.894531 -0.804688 10.046875 -0.394531 10.265625 0 L 8.4375 0 C 8.25 -0.363281 8.128906 -0.789062 8.078125 -1.28125 Z M 7.9375 -5.203125 C 7.300781 -4.941406 6.34375 -4.71875 5.0625 -4.53125 C 4.34375 -4.425781 3.832031 -4.304688 3.53125 -4.171875 C 3.226562 -4.046875 2.992188 -3.859375 2.828125 -3.609375 C 2.671875 -3.359375 2.59375 -3.082031 2.59375 -2.78125 C 2.59375 -2.3125 2.769531 -1.921875 3.125 -1.609375 C 3.476562 -1.296875 4 -1.140625 4.6875 -1.140625 C 5.363281 -1.140625 5.960938 -1.285156 6.484375 -1.578125 C 7.015625 -1.878906 7.40625 -2.285156 7.65625 -2.796875 C 7.84375 -3.191406 7.9375 -3.78125 7.9375 -4.5625 Z M 7.9375 -5.203125 "></path>
</symbol>
<symbol overflow="visible" id="glyph0-17">
<path style="stroke:none;" d="M 5.15625 -1.578125 L 5.40625 -0.015625 C 4.914062 0.0859375 4.472656 0.140625 4.078125 0.140625 C 3.441406 0.140625 2.945312 0.0390625 2.59375 -0.15625 C 2.238281 -0.363281 1.988281 -0.628906 1.84375 -0.953125 C 1.707031 -1.285156 1.640625 -1.976562 1.640625 -3.03125 L 1.640625 -9 L 0.34375 -9 L 0.34375 -10.359375 L 1.640625 -10.359375 L 1.640625 -12.921875 L 3.390625 -13.984375 L 3.390625 -10.359375 L 5.15625 -10.359375 L 5.15625 -9 L 3.390625 -9 L 3.390625 -2.9375 C 3.390625 -2.4375 3.421875 -2.113281 3.484375 -1.96875 C 3.546875 -1.820312 3.644531 -1.707031 3.78125 -1.625 C 3.914062 -1.539062 4.113281 -1.5 4.375 -1.5 C 4.570312 -1.5 4.832031 -1.523438 5.15625 -1.578125 Z M 5.15625 -1.578125 "></path>
</symbol>
<symbol overflow="visible" id="glyph0-18">
<path style="stroke:none;" d="M 0.609375 -3.09375 L 2.359375 -3.359375 C 2.453125 -2.671875 2.71875 -2.140625 3.15625 -1.765625 C 3.601562 -1.390625 4.226562 -1.203125 5.03125 -1.203125 C 5.84375 -1.203125 6.441406 -1.367188 6.828125 -1.703125 C 7.222656 -2.035156 7.421875 -2.421875 7.421875 -2.859375 C 7.421875 -3.253906 7.25 -3.566406 6.90625 -3.796875 C 6.65625 -3.953125 6.054688 -4.148438 5.109375 -4.390625 C 3.816406 -4.710938 2.921875 -4.992188 2.421875 -5.234375 C 1.921875 -5.472656 1.539062 -5.800781 1.28125 -6.21875 C 1.03125 -6.632812 0.90625 -7.097656 0.90625 -7.609375 C 0.90625 -8.066406 1.007812 -8.492188 1.21875 -8.890625 C 1.4375 -9.285156 1.726562 -9.613281 2.09375 -9.875 C 2.363281 -10.070312 2.734375 -10.238281 3.203125 -10.375 C 3.671875 -10.519531 4.175781 -10.59375 4.71875 -10.59375 C 5.53125 -10.59375 6.242188 -10.472656 6.859375 -10.234375 C 7.472656 -10.003906 7.925781 -9.6875 8.21875 -9.28125 C 8.519531 -8.882812 8.722656 -8.351562 8.828125 -7.6875 L 7.109375 -7.453125 C 7.035156 -7.984375 6.8125 -8.398438 6.4375 -8.703125 C 6.0625 -9.003906 5.53125 -9.15625 4.84375 -9.15625 C 4.039062 -9.15625 3.46875 -9.019531 3.125 -8.75 C 2.78125 -8.488281 2.609375 -8.175781 2.609375 -7.8125 C 2.609375 -7.582031 2.675781 -7.378906 2.8125 -7.203125 C 2.957031 -7.015625 3.1875 -6.859375 3.5 -6.734375 C 3.664062 -6.671875 4.179688 -6.519531 5.046875 -6.28125 C 6.285156 -5.945312 7.148438 -5.675781 7.640625 -5.46875 C 8.128906 -5.257812 8.515625 -4.953125 8.796875 -4.546875 C 9.078125 -4.140625 9.21875 -3.640625 9.21875 -3.046875 C 9.21875 -2.460938 9.046875 -1.910156 8.703125 -1.390625 C 8.367188 -0.867188 7.878906 -0.46875 7.234375 -0.1875 C 6.585938 0.09375 5.859375 0.234375 5.046875 0.234375 C 3.703125 0.234375 2.675781 -0.0390625 1.96875 -0.59375 C 1.257812 -1.15625 0.804688 -1.988281 0.609375 -3.09375 Z M 0.609375 -3.09375 "></path>
</symbol>
<symbol overflow="visible" id="glyph1-0">
<path style="stroke:none;" d="M 1.625 0 L 1.625 -8.125 L 8.125 -8.125 L 8.125 0 Z M 1.828125 -0.203125 L 7.921875 -0.203125 L 7.921875 -7.921875 L 1.828125 -7.921875 Z M 1.828125 -0.203125 "></path>
</symbol>
<symbol overflow="visible" id="glyph1-1">
<path style="stroke:none;" d="M 0.859375 -7.984375 L 0.859375 -9.3125 L 2 -9.3125 L 2 -7.984375 Z M 0.859375 0 L 0.859375 -6.734375 L 2 -6.734375 L 2 0 Z M 0.859375 0 "></path>
</symbol>
<symbol overflow="visible" id="glyph1-2">
<path style="stroke:none;" d="M 0.84375 -7.984375 L 0.84375 -9.3125 L 2 -9.3125 L 2 -7.984375 Z M -0.59375 2.609375 L -0.375 1.640625 C -0.144531 1.703125 0.03125 1.734375 0.15625 1.734375 C 0.394531 1.734375 0.566406 1.65625 0.671875 1.5 C 0.785156 1.34375 0.84375 0.957031 0.84375 0.34375 L 0.84375 -6.734375 L 2 -6.734375 L 2 0.375 C 2 1.195312 1.890625 1.769531 1.671875 2.09375 C 1.390625 2.519531 0.929688 2.734375 0.296875 2.734375 C -0.015625 2.734375 -0.3125 2.691406 -0.59375 2.609375 Z M -0.59375 2.609375 "></path>
</symbol>
<symbol overflow="visible" id="glyph1-3">
<path style="stroke:none;" d="M 0.859375 0 L 0.859375 -9.3125 L 2 -9.3125 L 2 -4 L 4.703125 -6.734375 L 6.1875 -6.734375 L 3.609375 -4.234375 L 6.453125 0 L 5.046875 0 L 2.8125 -3.453125 L 2 -2.671875 L 2 0 Z M 0.859375 0 "></path>
</symbol>
<symbol overflow="visible" id="glyph1-4">
<path style="stroke:none;" d="M 0.828125 0 L 0.828125 -9.3125 L 1.96875 -9.3125 L 1.96875 0 Z M 0.828125 0 "></path>
</symbol>
<symbol overflow="visible" id="glyph1-5">
<path style="stroke:none;" d="M 0.984375 0 L 0.984375 -9.3125 L 2.25 -9.3125 L 7.140625 -2 L 7.140625 -9.3125 L 8.328125 -9.3125 L 8.328125 0 L 7.0625 0 L 2.171875 -7.3125 L 2.171875 0 Z M 0.984375 0 "></path>
</symbol>
<symbol overflow="visible" id="glyph2-0">
<path style="stroke:none;" d="M 3.4375 0 L 3.4375 -17.171875 L 17.171875 -17.171875 L 17.171875 0 Z M 3.859375 -0.421875 L 16.75 -0.421875 L 16.75 -16.75 L 3.859375 -16.75 Z M 3.859375 -0.421875 "></path>
</symbol>
<symbol overflow="visible" id="glyph2-1">
<path style="stroke:none;" d="M 1.828125 -16.890625 L 1.828125 -19.671875 L 4.234375 -19.671875 L 4.234375 -16.890625 Z M 1.828125 0 L 1.828125 -14.25 L 4.234375 -14.25 L 4.234375 0 Z M 1.828125 0 "></path>
</symbol>
<symbol overflow="visible" id="glyph2-2">
<path style="stroke:none;" d="M 1.796875 -16.875 L 1.796875 -19.671875 L 4.21875 -19.671875 L 4.21875 -16.875 Z M -1.265625 5.53125 L -0.8125 3.46875 C -0.320312 3.59375 0.0546875 3.65625 0.328125 3.65625 C 0.828125 3.65625 1.195312 3.492188 1.4375 3.171875 C 1.675781 2.847656 1.796875 2.03125 1.796875 0.71875 L 1.796875 -14.25 L 4.21875 -14.25 L 4.21875 0.78125 C 4.21875 2.53125 3.988281 3.75 3.53125 4.4375 C 2.945312 5.332031 1.976562 5.78125 0.625 5.78125 C -0.0195312 5.78125 -0.648438 5.695312 -1.265625 5.53125 Z M -1.265625 5.53125 "></path>
</symbol>
<symbol overflow="visible" id="glyph2-3">
<path style="stroke:none;" d="M 1.828125 0 L 1.828125 -19.671875 L 4.234375 -19.671875 L 4.234375 -8.453125 L 9.953125 -14.25 L 13.078125 -14.25 L 7.640625 -8.96875 L 13.640625 0 L 10.65625 0 L 5.9375 -7.28125 L 4.234375 -5.65625 L 4.234375 0 Z M 1.828125 0 "></path>
</symbol>
<symbol overflow="visible" id="glyph2-4">
<path style="stroke:none;" d="M 1.765625 0 L 1.765625 -19.671875 L 4.171875 -19.671875 L 4.171875 0 Z M 1.765625 0 "></path>
</symbol>
</g>
</defs>
<g id="surface1">
<path style="fill-rule:nonzero;fill:rgb(83.92157%,16.470589%,28.627452%);fill-opacity:0.75;stroke-width:0.0746269;stroke-linecap:butt;stroke-linejoin:miter;stroke:rgb(72.156864%,1.960784%,3.921569%);stroke-opacity:0.75;stroke-miterlimit:10;" d="M 80.468341 43.988419 C 80.468341 48.110241 77.127426 51.451156 73.005604 51.451156 C 68.883781 51.451156 65.542866 48.110241 65.542866 43.988419 C 65.542866 39.867699 68.883781 36.525681 73.005604 36.525681 C 77.127426 36.525681 80.468341 39.867699 80.468341 43.988419 Z M 80.468341 43.988419 " transform="matrix(3.541554,0,0,3.541554,-185.627494,-22.697509)"></path>
<path style="fill-rule:nonzero;fill:rgb(83.92157%,16.470589%,28.627452%);fill-opacity:0.75;stroke-width:0.0746269;stroke-linecap:butt;stroke-linejoin:miter;stroke:rgb(72.156864%,1.960784%,3.921569%);stroke-opacity:0.75;stroke-miterlimit:10;" d="M 127.551091 44.386593 C 127.551091 48.508415 124.210176 51.849331 120.088354 51.849331 C 115.966531 51.849331 112.625616 48.508415 112.625616 44.386593 C 112.625616 40.26477 115.966531 36.923855 120.088354 36.923855 C 124.210176 36.923855 127.551091 40.26477 127.551091 44.386593 Z M 127.551091 44.386593 " transform="matrix(3.541554,0,0,3.541554,-185.627494,-22.697509)"></path>
<path style="fill:none;stroke-width:0.5;stroke-linecap:butt;stroke-linejoin:miter;stroke:rgb(0%,0%,0%);stroke-opacity:1;stroke-miterlimit:4;" d="M 80.330469 44.056803 C 86.85678 48.201788 93.383091 52.347876 98.775542 52.480233 C 104.167993 52.613693 108.426585 48.734526 112.685177 44.855358 " transform="matrix(3.541554,0,0,3.541554,-185.627494,-22.697509)"></path>
<g style="fill:rgb(0%,0%,0%);fill-opacity:1;"> <use xlink:href="#glyph0-1" x="153.351562" y="153.243564"></use>
</g>
<g style="fill:rgb(0%,0%,0%);fill-opacity:1;"> <use xlink:href="#glyph1-1" x="163.34375" y="155.840649"></use> <use xlink:href="#glyph1-2" x="166.22818" y="155.840649"></use>
</g>
<path style="fill:none;stroke-width:0.5;stroke-linecap:butt;stroke-linejoin:miter;stroke:rgb(0%,0%,0%);stroke-opacity:1;stroke-miterlimit:4;" d="M 59.17759 35.284832 C 61.508179 36.987828 63.838767 38.690823 66.168253 40.393819 " transform="matrix(3.541554,0,0,3.541554,-185.627494,-22.697509)"></path>
<path style=" stroke:none;fill-rule:evenodd;fill:rgb(0%,0%,0%);fill-opacity:1;" d="M 43.761719 111.433594 L 50.617188 121.726562 L 38.722656 118.324219 C 41.707031 117.382812 43.734375 114.59375 43.761719 111.433594 Z M 43.761719 111.433594 "></path>
<g style="fill:rgb(0%,0%,0%);fill-opacity:1;"> <use xlink:href="#glyph2-1" x="69.894531" y="142.927674"></use>
</g>
<g style="fill:rgb(0%,0%,0%);fill-opacity:1;"> <use xlink:href="#glyph2-2" x="238.195313" y="141.447205"></use>
</g>
<g style="fill:rgb(0%,0%,0%);fill-opacity:1;"> <use xlink:href="#glyph0-2" x="7.535156" y="104.036533"></use>
</g>
<g style="fill:rgb(0%,0%,0%);fill-opacity:1;"> <use xlink:href="#glyph1-1" x="18.652344" y="106.633618"></use>
</g>
<path style="fill:none;stroke-width:0.5;stroke-linecap:butt;stroke-linejoin:miter;stroke:rgb(0%,0%,0%);stroke-opacity:1;stroke-miterlimit:4;" d="M 131.5935 34.510543 C 129.571744 36.021621 127.548885 37.532698 125.52713 39.042673 " transform="matrix(3.541554,0,0,3.541554,-185.627494,-22.697509)"></path>
<path style=" stroke:none;fill-rule:evenodd;fill:rgb(0%,0%,0%);fill-opacity:1;" d="M 268.917969 113.464844 L 257.066406 116.992188 L 263.808594 106.625 C 263.832031 109.753906 265.90625 112.511719 268.917969 113.464844 Z M 268.917969 113.464844 "></path>
<g style="fill:rgb(0%,0%,0%);fill-opacity:1;"> <use xlink:href="#glyph0-2" x="279.234375" y="94.649814"></use>
</g>
<g style="fill:rgb(0%,0%,0%);fill-opacity:1;"> <use xlink:href="#glyph1-2" x="290.351563" y="97.246899"></use>
</g>
<path style="fill-rule:nonzero;fill:rgb(83.92157%,16.470589%,28.627452%);fill-opacity:0.75;stroke-width:0.0746269;stroke-linecap:butt;stroke-linejoin:miter;stroke:rgb(72.156864%,1.960784%,3.921569%);stroke-opacity:0.75;stroke-miterlimit:10;" d="M 94.277605 28.627267 C 94.277605 32.74909 90.93669 36.090005 86.814867 36.090005 C 82.693045 36.090005 79.352129 32.74909 79.352129 28.627267 C 79.352129 24.505445 82.693045 21.16453 86.814867 21.16453 C 90.93669 21.16453 94.277605 24.505445 94.277605 28.627267 Z M 94.277605 28.627267 " transform="matrix(3.541554,0,0,3.541554,-185.627494,-22.697509)"></path>
<path style="fill:none;stroke-width:0.5;stroke-linecap:butt;stroke-linejoin:miter;stroke:rgb(0%,0%,0%);stroke-opacity:1;stroke-miterlimit:4;" d="M 77.450598 37.92977 C 77.344712 36.409868 77.238827 34.889967 77.813477 34.049499 C 78.387025 33.209031 79.640006 33.047996 80.891884 32.886962 " transform="matrix(3.541554,0,0,3.541554,-185.627494,-22.697509)"></path>
<g style="fill:rgb(0%,0%,0%);fill-opacity:1;"> <use xlink:href="#glyph0-1" x="67.453125" y="95.130283"></use>
</g>
<g style="fill:rgb(0%,0%,0%);fill-opacity:1;"> <use xlink:href="#glyph1-1" x="77.445312" y="97.731274"></use> <use xlink:href="#glyph1-3" x="80.329742" y="97.731274"></use>
</g>
<g style="fill:rgb(0%,0%,0%);fill-opacity:1;"> <use xlink:href="#glyph2-3" x="114.101563" y="88.52533"></use>
</g>
<path style="fill:none;stroke-width:0.5;stroke-linecap:butt;stroke-linejoin:miter;stroke:rgb(0%,0%,0%);stroke-opacity:1;stroke-miterlimit:4;" d="M 93.880533 30.864103 C 98.691716 30.646817 103.501796 30.428428 106.958524 31.804942 C 110.416354 33.18256 112.518627 36.152875 114.622003 39.12319 " transform="matrix(3.541554,0,0,3.541554,-185.627494,-22.697509)"></path>
<g style="fill:rgb(0%,0%,0%);fill-opacity:1;"> <use xlink:href="#glyph0-1" x="191.09375" y="112.563877"></use>
</g>
<g style="fill:rgb(0%,0%,0%);fill-opacity:1;"> <use xlink:href="#glyph1-2" x="201.085938" y="115.164868"></use> <use xlink:href="#glyph1-3" x="203.970367" y="115.164868"></use>
</g>
<path style="fill:none;stroke-width:0.5;stroke-linecap:butt;stroke-linejoin:miter;stroke:rgb(0%,0%,0%);stroke-opacity:1;stroke-miterlimit:4;" d="M 81.475359 14.879771 C 82.38752 17.07359 83.298579 19.26741 84.209637 21.46123 " transform="matrix(3.541554,0,0,3.541554,-185.627494,-22.697509)"></path>
<path style=" stroke:none;fill-rule:evenodd;fill:rgb(0%,0%,0%);fill-opacity:1;" d="M 113.011719 43.109375 L 113.523438 55.46875 L 105.128906 46.386719 C 108.164062 47.132812 111.347656 45.796875 113.011719 43.109375 Z M 113.011719 43.109375 "></path>
<g style="fill:rgb(0%,0%,0%);fill-opacity:1;"> <use xlink:href="#glyph0-2" x="93.988281" y="23.24747"></use>
</g>
<g style="fill:rgb(0%,0%,0%);fill-opacity:1;"> <use xlink:href="#glyph1-3" x="105.101562" y="25.844555"></use>
</g>
<path style="fill-rule:nonzero;fill:rgb(83.92157%,16.470589%,28.627452%);fill-opacity:0.75;stroke-width:0.0746269;stroke-linecap:butt;stroke-linejoin:miter;stroke:rgb(72.156864%,1.960784%,3.921569%);stroke-opacity:0.75;stroke-miterlimit:10;" d="M 120.406011 19.426239 C 120.406011 23.546958 117.065096 26.888977 112.944376 26.888977 C 108.822554 26.888977 105.481638 23.546958 105.481638 19.426239 C 105.481638 15.304416 108.822554 11.963501 112.944376 11.963501 C 117.065096 11.963501 120.406011 15.304416 120.406011 19.426239 Z M 120.406011 19.426239 " transform="matrix(3.541554,0,0,3.541554,-185.627494,-22.697509)"></path>
<path style="fill:none;stroke-width:0.5;stroke-linecap:butt;stroke-linejoin:miter;stroke:rgb(0%,0%,0%);stroke-opacity:1;stroke-miterlimit:4;" d="M 105.929447 20.664881 C 102.541103 19.232115 99.15276 17.800452 96.624738 18.160022 C 94.096717 18.520695 92.429017 20.672602 90.761316 22.824509 " transform="matrix(3.541554,0,0,3.541554,-185.627494,-22.697509)"></path>
<path style="fill:none;stroke-width:0.5;stroke-linecap:butt;stroke-linejoin:miter;stroke:rgb(0%,0%,0%);stroke-opacity:1;stroke-miterlimit:4;" d="M 115.11393 26.448889 C 115.089665 28.520279 115.066502 30.591668 115.644462 32.462316 C 116.223525 34.334067 117.443416 36.059122 118.643455 37.757705 " transform="matrix(3.541554,0,0,3.541554,-185.627494,-22.697509)"></path>
<path style="fill:none;stroke-width:0.5;stroke-linecap:butt;stroke-linejoin:miter;stroke:rgb(0%,0%,0%);stroke-opacity:1;stroke-miterlimit:4;" d="M 107.549719 24.299188 C 103.146637 29.526193 98.744659 34.752095 94.00517 37.475343 C 89.266783 40.198592 84.191989 40.419187 79.117195 40.639782 " transform="matrix(3.541554,0,0,3.541554,-185.627494,-22.697509)"></path>
<g style="fill:rgb(0%,0%,0%);fill-opacity:1;"> <use xlink:href="#glyph2-4" x="211.402344" y="55.939393"></use>
</g>
<path style="fill:none;stroke-width:0.5;stroke-linecap:butt;stroke-linejoin:miter;stroke:rgb(0%,0%,0%);stroke-opacity:1;stroke-miterlimit:4;" d="M 128.210671 21.923377 C 125.564631 21.360859 122.918591 20.797239 120.271448 20.233618 " transform="matrix(3.541554,0,0,3.541554,-185.627494,-22.697509)"></path>
<path style=" stroke:none;fill-rule:evenodd;fill:rgb(0%,0%,0%);fill-opacity:1;" d="M 248.488281 55.082031 L 238.023438 48.488281 L 250.265625 46.730469 C 247.925781 48.808594 247.21875 52.183594 248.488281 55.082031 Z M 248.488281 55.082031 "></path>
<g style="fill:rgb(0%,0%,0%);fill-opacity:1;"> <use xlink:href="#glyph0-2" x="269.996094" y="61.739658"></use>
</g>
<g style="fill:rgb(0%,0%,0%);fill-opacity:1;"> <use xlink:href="#glyph1-4" x="281.109375" y="64.340649"></use>
</g>
<g style="fill:rgb(0%,0%,0%);fill-opacity:1;"> <use xlink:href="#glyph0-1" x="152.894531" y="119.15372"></use>
</g>
<g style="fill:rgb(0%,0%,0%);fill-opacity:1;"> <use xlink:href="#glyph1-1" x="162.886719" y="121.754712"></use> <use xlink:href="#glyph1-4" x="165.771148" y="121.754712"></use>
</g>
<g style="fill:rgb(0%,0%,0%);fill-opacity:1;"> <use xlink:href="#glyph0-1" x="145.589844" y="35.204502"></use>
</g>
<g style="fill:rgb(0%,0%,0%);fill-opacity:1;"> <use xlink:href="#glyph1-3" x="155.582031" y="37.801587"></use> <use xlink:href="#glyph1-4" x="162.077186" y="37.801587"></use>
</g>
<g style="fill:rgb(0%,0%,0%);fill-opacity:1;"> <use xlink:href="#glyph0-1" x="227.503906" y="92.056064"></use>
</g>
<g style="fill:rgb(0%,0%,0%);fill-opacity:1;"> <use xlink:href="#glyph1-2" x="237.496094" y="94.657055"></use> <use xlink:href="#glyph1-4" x="240.380523" y="94.657055"></use>
</g>
<g style="fill:rgb(0%,0%,0%);fill-opacity:1;"> <use xlink:href="#glyph0-3" x="319.386719" y="93.384189"></use>
</g>
<g style="fill:rgb(0%,0%,0%);fill-opacity:1;"> <use xlink:href="#glyph1-5" x="330.5" y="88.188305"></use>
</g>
<g style="fill:rgb(0%,0%,0%);fill-opacity:1;"> <use xlink:href="#glyph0-4" x="339.882812" y="93.384189"></use> <use xlink:href="#glyph0-5" x="345.433783" y="93.384189"></use> <use xlink:href="#glyph0-4" x="357.102926" y="93.384189"></use> <use xlink:href="#glyph0-6" x="362.653897" y="93.384189"></use> <use xlink:href="#glyph0-7" x="373.769672" y="93.384189"></use> <use xlink:href="#glyph0-4" x="384.885448" y="93.384189"></use> <use xlink:href="#glyph0-8" x="390.436418" y="93.384189"></use> <use xlink:href="#glyph0-9" x="400.428165" y="93.384189"></use> <use xlink:href="#glyph0-10" x="411.543941" y="93.384189"></use> <use xlink:href="#glyph0-11" x="422.659716" y="93.384189"></use> <use xlink:href="#glyph0-12" x="428.210687" y="93.384189"></use> <use xlink:href="#glyph0-13" x="432.648005" y="93.384189"></use> <use xlink:href="#glyph0-14" x="443.76378" y="93.384189"></use> <use xlink:href="#glyph0-15" x="454.879556" y="93.384189"></use> <use xlink:href="#glyph0-16" x="461.533803" y="93.384189"></use> <use xlink:href="#glyph0-17" x="472.649579" y="93.384189"></use> <use xlink:href="#glyph0-12" x="478.200549" y="93.384189"></use> <use xlink:href="#glyph0-9" x="482.637867" y="93.384189"></use> <use xlink:href="#glyph0-10" x="493.753643" y="93.384189"></use> <use xlink:href="#glyph0-18" x="504.869418" y="93.384189"></use>
</g>
</g>
</svg>
