<?xml version="1.0"?>

<svg width="8.0488596" height="3.5623519" viewBox="0 0 8.0488599 3.562352" version="1.1" id="svg8" inkscape:version="1.1 (c4e8f9ed74, 2021-05-24)" sodipodi:docname="fishleftright.svg" xmlns:inkscape="http://www.inkscape.org/namespaces/inkscape" xmlns:sodipodi="http://sodipodi.sourceforge.net/DTD/sodipodi-0.dtd" xmlns="http://www.w3.org/2000/svg" xmlns:svg="http://www.w3.org/2000/svg" xmlns:rdf="http://www.w3.org/1999/02/22-rdf-syntax-ns#" xmlns:cc="http://creativecommons.org/ns#" xmlns:dc="http://purl.org/dc/elements/1.1/"> <defs id="defs2"> <linearGradient id="linearGradient9758" inkscape:swatch="solid"> <stop style="stop-color:#ffcc00;stop-opacity:1;" offset="0" id="stop9756"></stop> </linearGradient> </defs> <sodipodi:namedview id="base" pagecolor="#ffffff" bordercolor="#666666" borderopacity="1.0" inkscape:pageopacity="0.0" inkscape:pageshadow="2" inkscape:zoom="3.2433755" inkscape:cx="-34.223605" inkscape:cy="40.081699" inkscape:document-units="mm" inkscape:current-layer="layer1" inkscape:document-rotation="0" showgrid="false" fit-margin-left="0.25" fit-margin-top="0.25" fit-margin-bottom="0.25" fit-margin-right="0.25" inkscape:pagecheckerboard="0" inkscape:window-width="1920" inkscape:window-height="1015" inkscape:window-x="0" inkscape:window-y="0" inkscape:window-maximized="1"></sodipodi:namedview> <metadata id="metadata5"> <rdf:rdf> <cc:work rdf:about=""> <dc:format>image/svg+xml</dc:format> <dc:type rdf:resource="http://purl.org/dc/dcmitype/StillImage"></dc:type> </cc:work> </rdf:rdf> </metadata> <g inkscape:label="Layer 1" inkscape:groupmode="layer" id="layer1" transform="translate(-90.301722,-58.675363)"> <g id="g18528" transform="translate(0,-0.13666246)"> <path d="m 97.547506,61.323315 c 0.08572,-0.0466 0.180287,-0.06973 0.253389,-0.136166 0.153717,-0.152969 0.20097,-0.301265 0.225851,-0.56646 0.01965,-0.33423 -0.08303,-0.512674 -0.265912,-0.634603 -0.123203,-0.06854 -0.102662,-0.07822 -0.194518,-0.136175 l -1.574785,-0.452413 -0.497367,-0.153013 c -0.215588,-0.0079 -0.398464,-0.0043 -0.541394,0.02596 -0.180426,0.0247 -0.364057,0.06806 -0.566182,0.166047 -0.05675,0.07293 -0.113882,0.112537 -0.107973,0.209763 -0.08859,-0.125567 -0.312114,-0.245322 -0.312114,-0.245322 0.0061,-0.01819 -0.393796,-0.02179 -0.456845,-0.0064 -0.09053,0.02059 -0.527329,0.28202 -0.71071,0.401066 -0.181462,0.120519 -1.996306,0.295079 -2.170984,0.287686 -0.176143,-0.007 0.0081,0.907428 0.0081,0.907428 l 1.243666,0.04042 c 0.151921,0.01917 0.314926,0.05351 0.503442,0.128608 0.503037,0.207953 0.913613,0.50961 1.256034,0.519877 0.108137,0.0085 0.413628,-0.114753 0.622514,-0.227994 0.007,0.09696 -0.0067,0.209459 0.05177,0.254606 0.132466,0.08259 0.165459,0.180963 0.763723,0.201693 0.17436,-0.0019 0.354925,-5.6e-4 0.512713,-0.01934 0.08464,-0.01449 0.142603,-0.03798 0.353545,-0.106275 z" style="opacity:0.828;fill:#808080;fill-opacity:0.3;fill-rule:nonzero;stroke:none;stroke-width:0.377349" id="path4438" inkscape:connector-curvature="0" sodipodi:nodetypes="cccccccccccccccccccccccc"></path> <path inkscape:connector-curvature="0" id="path4440" style="opacity:0.828;fill:none;stroke:#000000;stroke-width:0.143331;stroke-linecap:butt;stroke-linejoin:miter;stroke-miterlimit:4;stroke-dasharray:none;stroke-opacity:0.8" d="m 97.547678,61.323441 c 0.08424,-0.04631 0.180028,-0.06998 0.253349,-0.13615 0.15387,-0.153257 0.200912,-0.301298 0.225706,-0.56687 0.01967,-0.334103 -0.08311,-0.512152 -0.266265,-0.634425 -0.121261,-0.0689 -0.102205,-0.07804 -0.193834,-0.136023 l -1.575375,-0.45255 -0.497054,-0.153052 c -0.217333,-0.0076 -0.398956,-0.0054 -0.541312,0.02601 -0.180738,0.02489 -0.364663,0.06669 -0.564899,0.165616 -0.05817,0.07345 -0.115205,0.113273 -0.10949,0.210463 -0.08833,-0.125797 -0.313512,-0.245032 -0.313512,-0.245032 0.0077,-0.01849 -0.392275,-0.02248 -0.45557,-0.0086 -0.09024,0.02241 -0.527054,0.283938 -0.710414,0.403017 -0.181391,0.120228 -0.530226,0.220578 -0.70505,0.21323 -0.176194,-0.0066 -1.465996,0.07421 -1.465996,0.07421 l 0.0077,0.90625 1.243854,0.04173 c 0.151848,0.01909 0.315316,0.05363 0.503462,0.129018 0.503034,0.207734 0.913723,0.509486 1.25637,0.519557 0.108058,0.0084 0.413156,-0.114751 0.622451,-0.228022 0.0069,0.09697 -0.0065,0.209595 0.05154,0.254375 0.132471,0.0828 0.165509,0.181024 0.762518,0.201985 0.175511,-0.0019 0.356398,-6.09e-4 0.514108,-0.01953 0.085,-0.01328 0.142461,-0.03774 0.35368,-0.106136 z" sodipodi:nodetypes="ccccccccccccccccccccccccc"></path> <path d="m 95.873633,59.722345 c 0.01385,0.03119 -0.0025,-0.07863 0.0021,-0.09764 0.01739,-0.08933 0.05036,-0.165761 0.12948,-0.245712 0.08086,-0.07921 0.356237,-0.292234 0.797034,-0.314961 0.438961,-0.02228 0.554875,0.146719 0.647654,0.222701 0.09167,0.07626 0.08692,0.111942 0.109697,0.132444 0.03115,0.02735 0.03232,0.05114 0.04334,0.0772 0,0 0.01491,0.02388 0.01537,0.03741 0.0043,0.04284 0.0096,0.06448 -0.0016,0.106432 -0.0498,0.217292 -0.04388,0.204968 -0.173072,0.321637 -0.03871,0.03393 -0.07167,0.07386 -0.114834,0.102282 -0.04821,0.0316 -0.04256,0.01818 -0.157227,0.0703 -0.184385,0.08316 -0.225806,0.09329 -0.368284,0.0889 -0.08556,-0.0036 -0.119474,-0.01041 -0.191892,-0.04125 -0.05059,-0.01949 -0.175808,-0.07238 -0.281756,-0.11484 -0.202659,-0.08368 -0.296495,-0.132212 -0.366367,-0.195538 -0.07962,-0.07143 -0.120192,-0.211839 -0.09121,-0.149016 z" style="opacity:0.828;fill:#000000;fill-opacity:1;fill-rule:nonzero;stroke:none;stroke-width:0.377349" id="path4444" inkscape:connector-curvature="0"></path> <path d="m 95.889628,61.797136 c 7.1e-4,-0.03357 0.02846,0.07345 0.04145,0.09009 0.05006,0.07438 0.110059,0.132359 0.214185,0.173709 0.105591,0.04099 0.442757,0.129852 0.856391,-0.02142 0.413994,-0.151358 0.452729,-0.351959 0.508736,-0.458111 0.05454,-0.105796 0.03586,-0.139297 0.04926,-0.165495 0.01942,-0.03815 0.0091,-0.06127 0.01016,-0.08872 0,0 0.0035,-0.02845 -0.0011,-0.0409 -0.01269,-0.03925 -0.01688,-0.0627 -0.04205,-0.09733 -0.13006,-0.179126 -0.120671,-0.170936 -0.286396,-0.227526 -0.04951,-0.01665 -0.09461,-0.04057 -0.144999,-0.04806 -0.0576,-0.01155 -0.04603,-7.81e-4 -0.172859,-0.0047 -0.200963,-0.0037 -0.244935,0.004 -0.374288,0.06434 -0.07752,0.03566 -0.104798,0.05438 -0.160557,0.112298 -0.03772,0.03797 -0.132396,0.135323 -0.211514,0.215274 -0.157039,0.158442 -0.222243,0.238097 -0.26231,0.323648 -0.04562,0.09779 -0.02669,0.243494 -0.02414,0.172945 z" style="opacity:0.828;fill:#000000;fill-opacity:1;fill-rule:nonzero;stroke:none;stroke-width:0.377349" id="path4446" inkscape:connector-curvature="0"></path> </g> <text xml:space="preserve" style="font-size:4.23333px;line-height:1.25;font-family:Arial;-inkscape-font-specification:Arial;letter-spacing:0px;word-spacing:0px;stroke-width:0.264583" x="117.80381" y="50.640919" id="text4343"><tspan sodipodi:role="line" id="tspan4341" style="stroke-width:0.264583" x="117.80381" y="50.640919"></tspan></text> <rect style="fill:#e73d1e;fill-opacity:1;stroke:none;stroke-width:0.25976;stroke-opacity:0.8;stop-color:#000000" id="rect18350" width="0.63144797" height="0.5" x="93.636101" y="59.913025"></rect> <rect style="fill:#4a7089;fill-opacity:1;stroke:none;stroke-width:0.259668;stroke-opacity:0.8;stop-color:#000000" id="rect18486" width="0.63099998" height="0.5" x="93.636322" y="60.471123"></rect> </g>
</svg>
